%YAML 1.1
%TAG !u! tag:unity3d.com,2011:
--- !u!74 &7400000
AnimationClip:
  m_ObjectHideFlags: 0
  m_PrefabParentObject: {fileID: 0}
  m_PrefabInternal: {fileID: 0}
  m_Name: Moon Group - Triple Anim 2 (Legacy)
  serializedVersion: 6
  m_Legacy: 1
  m_Compressed: 0
  m_UseHighQualityCurve: 1
  m_RotationCurves: []
  m_CompressedRotationCurves: []
  m_EulerCurves: []
  m_PositionCurves:
  - curve:
      serializedVersion: 2
      m_Curve:
      - serializedVersion: 2
        time: 0
        value: {x: -2, y: 0.8, z: 0}
        inSlope: {x: 0, y: 0, z: 0}
        outSlope: {x: 16, y: 0, z: 0}
        tangentMode: 0
      - serializedVersion: 2
        time: 0.25
        value: {x: 2, y: 0.8, z: 0}
        inSlope: {x: 16, y: 0, z: 0}
        outSlope: {x: 0, y: 0, z: 0}
        tangentMode: 0
      - serializedVersion: 2
        time: 0.5
        value: {x: 2, y: 0.8, z: 0}
        inSlope: {x: -0, y: 0, z: 0}
        outSlope: {x: -16, y: 0, z: 0}
        tangentMode: 0
      - serializedVersion: 2
        time: 0.75
        value: {x: -2, y: 0.8, z: 0}
        inSlope: {x: -16, y: 0, z: 0}
        outSlope: {x: 0, y: 0, z: 0}
        tangentMode: 0
      - serializedVersion: 2
        time: 1
        value: {x: -2, y: 0.8, z: 0}
        inSlope: {x: -0, y: 0, z: 0}
        outSlope: {x: 0, y: 0, z: 0}
        tangentMode: 0
      m_PreInfinity: 2
      m_PostInfinity: 2
      m_RotationOrder: 4
    path: Moon Trans 1/Moon Source (1)
  - curve:
      serializedVersion: 2
      m_Curve:
      - serializedVersion: 2
        time: 0
        value: {x: 2, y: 0, z: 0}
        inSlope: {x: 0, y: 0, z: 0}
        outSlope: {x: -16, y: 0, z: 0}
        tangentMode: 0
      - serializedVersion: 2
        time: 0.25
        value: {x: -2, y: 0, z: 0}
        inSlope: {x: -16, y: 0, z: 0}
        outSlope: {x: 0, y: 0, z: 0}
        tangentMode: 0
      - serializedVersion: 2
        time: 0.5
        value: {x: -2, y: 0, z: 0}
        inSlope: {x: -0, y: 0, z: 0}
        outSlope: {x: 16, y: 0, z: 0}
        tangentMode: 0
      - serializedVersion: 2
        time: 0.75
        value: {x: 2, y: 0, z: 0}
        inSlope: {x: 16, y: 0, z: 0}
        outSlope: {x: 0, y: 0, z: 0}
        tangentMode: 0
      - serializedVersion: 2
        time: 1
        value: {x: 2, y: 0, z: 0}
        inSlope: {x: -0, y: 0, z: 0}
        outSlope: {x: 0, y: 0, z: 0}
        tangentMode: 0
      m_PreInfinity: 2
      m_PostInfinity: 2
      m_RotationOrder: 4
    path: Moon Trans 2/Moon Source (2)
  - curve:
      serializedVersion: 2
      m_Curve:
      - serializedVersion: 2
        time: 0
        value: {x: -2, y: -0.8, z: 0}
        inSlope: {x: 0, y: 0, z: 0}
        outSlope: {x: 16, y: 0, z: 0}
        tangentMode: 0
      - serializedVersion: 2
        time: 0.25
        value: {x: 2, y: -0.8, z: 0}
        inSlope: {x: 16, y: 0, z: 0}
        outSlope: {x: 0, y: 0, z: 0}
        tangentMode: 0
      - serializedVersion: 2
        time: 0.5
        value: {x: 2, y: -0.8, z: 0}
        inSlope: {x: -0, y: 0, z: 0}
        outSlope: {x: -16, y: 0, z: 0}
        tangentMode: 0
      - serializedVersion: 2
        time: 0.75
        value: {x: -2, y: -0.8, z: 0}
        inSlope: {x: -16, y: 0, z: 0}
        outSlope: {x: 0, y: 0, z: 0}
        tangentMode: 0
      - serializedVersion: 2
        time: 1
        value: {x: -2, y: -0.8, z: 0}
        inSlope: {x: -0, y: 0, z: 0}
        outSlope: {x: 0, y: 0, z: 0}
        tangentMode: 0
      m_PreInfinity: 2
      m_PostInfinity: 2
      m_RotationOrder: 4
    path: Moon Trans 3/Moon Source (3)
  m_ScaleCurves: []
  m_FloatCurves: []
  m_PPtrCurves: []
  m_SampleRate: 60
  m_WrapMode: 2
  m_Bounds:
    m_Center: {x: 0, y: 0, z: 0}
    m_Extent: {x: 0, y: 0, z: 0}
  m_ClipBindingConstant:
    genericBindings: []
    pptrCurveMapping: []
  m_AnimationClipSettings:
    serializedVersion: 2
    m_AdditiveReferencePoseClip: {fileID: 0}
    m_AdditiveReferencePoseTime: 0
    m_StartTime: 0
    m_StopTime: 1
    m_OrientationOffsetY: 0
    m_Level: 0
    m_CycleOffset: 0
    m_HasAdditiveReferencePose: 0
    m_LoopTime: 1
    m_LoopBlend: 0
    m_LoopBlendOrientation: 0
    m_LoopBlendPositionY: 0
    m_LoopBlendPositionXZ: 0
    m_KeepOriginalOrientation: 0
    m_KeepOriginalPositionY: 1
    m_KeepOriginalPositionXZ: 0
    m_HeightFromFeet: 0
    m_Mirror: 0
  m_EditorCurves:
  - curve:
      serializedVersion: 2
      m_Curve:
      - serializedVersion: 2
        time: 0
        value: -2
        inSlope: 0
        outSlope: 16
        tangentMode: 69
      - serializedVersion: 2
        time: 0.25
        value: 2
        inSlope: 16
        outSlope: 0
        tangentMode: 69
      - serializedVersion: 2
        time: 0.5
        value: 2
        inSlope: -0
        outSlope: -16
        tangentMode: 69
      - serializedVersion: 2
        time: 0.75
        value: -2
        inSlope: -16
        outSlope: 0
        tangentMode: 69
      - serializedVersion: 2
        time: 1
        value: -2
        inSlope: -0
        outSlope: 0
        tangentMode: 69
      m_PreInfinity: 2
      m_PostInfinity: 2
      m_RotationOrder: 4
    attribute: m_LocalPosition.x
    path: Moon Trans 1/Moon Source (1)
    classID: 4
    script: {fileID: 0}
  - curve:
      serializedVersion: 2
      m_Curve:
      - serializedVersion: 2
        time: 0
        value: 0.8
        inSlope: 0
        outSlope: 0
        tangentMode: 136
      m_PreInfinity: 2
      m_PostInfinity: 2
      m_RotationOrder: 4
    attribute: m_LocalPosition.y
    path: Moon Trans 1/Moon Source (1)
    classID: 4
    script: {fileID: 0}
  - curve:
      serializedVersion: 2
      m_Curve:
      - serializedVersion: 2
        time: 0
        value: 0
        inSlope: 0
        outSlope: 0
        tangentMode: 136
      - serializedVersion: 2
        time: 1
        value: 0
        inSlope: 0
        outSlope: 0
        tangentMode: 136
      m_PreInfinity: 2
      m_PostInfinity: 2
      m_RotationOrder: 4
    attribute: m_LocalPosition.z
    path: Moon Trans 1/Moon Source (1)
    classID: 4
    script: {fileID: 0}
  - curve:
      serializedVersion: 2
      m_Curve:
      - serializedVersion: 2
        time: 0
        value: 2
        inSlope: 0
        outSlope: -16
        tangentMode: 69
      - serializedVersion: 2
        time: 0.25
        value: -2
        inSlope: -16
        outSlope: 0
        tangentMode: 69
      - serializedVersion: 2
        time: 0.5
        value: -2
        inSlope: -0
        outSlope: 16
        tangentMode: 69
      - serializedVersion: 2
        time: 0.75
        value: 2
        inSlope: 16
        outSlope: 0
        tangentMode: 69
      - serializedVersion: 2
        time: 1
        value: 2
        inSlope: -0
        outSlope: 0
        tangentMode: 69
      m_PreInfinity: 2
      m_PostInfinity: 2
      m_RotationOrder: 4
    attribute: m_LocalPosition.x
    path: Moon Trans 2/Moon Source (2)
    classID: 4
    script: {fileID: 0}
  - curve:
      serializedVersion: 2
      m_Curve:
      - serializedVersion: 2
        time: 0
        value: 0
        inSlope: 0
        outSlope: 0
        tangentMode: 136
      m_PreInfinity: 2
      m_PostInfinity: 2
      m_RotationOrder: 4
    attribute: m_LocalPosition.y
    path: Moon Trans 2/Moon Source (2)
    classID: 4
    script: {fileID: 0}
  - curve:
      serializedVersion: 2
      m_Curve:
      - serializedVersion: 2
        time: 0
        value: 0
        inSlope: 0
        outSlope: 0
        tangentMode: 136
      - serializedVersion: 2
        time: 1
        value: 0
        inSlope: 0
        outSlope: 0
        tangentMode: 136
      m_PreInfinity: 2
      m_PostInfinity: 2
      m_RotationOrder: 4
    attribute: m_LocalPosition.z
    path: Moon Trans 2/Moon Source (2)
    classID: 4
    script: {fileID: 0}
  - curve:
      serializedVersion: 2
      m_Curve:
      - serializedVersion: 2
        time: 0
        value: -2
        inSlope: 0
        outSlope: 16
        tangentMode: 69
      - serializedVersion: 2
        time: 0.25
        value: 2
        inSlope: 16
        outSlope: 0
        tangentMode: 69
      - serializedVersion: 2
        time: 0.5
        value: 2
        inSlope: -0
        outSlope: -16
        tangentMode: 69
      - serializedVersion: 2
        time: 0.75
        value: -2
        inSlope: -16
        outSlope: 0
        tangentMode: 69
      - serializedVersion: 2
        time: 1
        value: -2
        inSlope: -0
        outSlope: 0
        tangentMode: 69
      m_PreInfinity: 2
      m_PostInfinity: 2
      m_RotationOrder: 4
    attribute: m_LocalPosition.x
    path: Moon Trans 3/Moon Source (3)
    classID: 4
    script: {fileID: 0}
  - curve:
      serializedVersion: 2
      m_Curve:
      - serializedVersion: 2
        time: 0
        value: -0.8
        inSlope: 0
        outSlope: 0
        tangentMode: 136
      - serializedVersion: 2
        time: 1
        value: -0.8
        inSlope: 0
        outSlope: 0
        tangentMode: 136
      m_PreInfinity: 2
      m_PostInfinity: 2
      m_RotationOrder: 4
    attribute: m_LocalPosition.y
    path: Moon Trans 3/Moon Source (3)
    classID: 4
    script: {fileID: 0}
  - curve:
      serializedVersion: 2
      m_Curve:
      - serializedVersion: 2
        time: 0
        value: 0
        inSlope: 0
        outSlope: 0
        tangentMode: 136
      - serializedVersion: 2
        time: 1
        value: 0
        inSlope: 0
        outSlope: 0
        tangentMode: 136
      m_PreInfinity: 2
      m_PostInfinity: 2
      m_RotationOrder: 4
    attribute: m_LocalPosition.z
    path: Moon Trans 3/Moon Source (3)
    classID: 4
    script: {fileID: 0}
  m_EulerEditorCurves: []
  m_HasGenericRootTransform: 0
  m_HasMotionFloatCurves: 0
  m_GenerateMotionCurves: 0
  m_Events: []
