%YAML 1.1
%TAG !u! tag:unity3d.com,2011:
--- !u!74 &7400000
AnimationClip:
  m_ObjectHideFlags: 0
  m_PrefabParentObject: {fileID: 0}
  m_PrefabInternal: {fileID: 0}
  m_Name: Orbit Type - Irregular Rotate Anim 1 (Legacy)
  serializedVersion: 6
  m_Legacy: 1
  m_Compressed: 0
  m_UseHighQualityCurve: 1
  m_RotationCurves:
  - curve:
      serializedVersion: 2
      m_Curve:
      - serializedVersion: 2
        time: 0
        value: {x: -0, y: -0, z: -0, w: -1}
        inSlope: {x: 0, y: 0, z: -0.56570977, w: 0.00800252}
        outSlope: {x: 0, y: 0, z: -0.56570977, w: 0.00800252}
        tangentMode: 0
      - serializedVersion: 2
        time: 0.05
        value: {x: -0, y: -0, z: -0.028285488, w: -0.9995999}
        inSlope: {x: 0, y: 0, z: -0.6666035, w: 0.022242665}
        outSlope: {x: 0, y: 0, z: -0.6666035, w: 0.022242665}
        tangentMode: 0
      - serializedVersion: 2
        time: 0.1
        value: {x: -0, y: -0, z: -0.06666035, w: -0.99777573}
        inSlope: {x: 0, y: 0, z: -0.8608029, w: 0.06161153}
        outSlope: {x: 0, y: 0, z: -0.8608029, w: 0.06161153}
        tangentMode: 0
      - serializedVersion: 2
        time: 0.15
        value: {x: -0, y: -0, z: -0.11436578, w: -0.9934387}
        inSlope: {x: 0, y: 0, z: -1.0386658, w: 0.124227405}
        outSlope: {x: 0, y: 0, z: -1.0386658, w: 0.124227405}
        tangentMode: 0
      - serializedVersion: 2
        time: 0.2
        value: {x: -0, y: -0, z: -0.17052692, w: -0.985353}
        inSlope: {x: 0, y: 0, z: -1.1974924, w: 0.21229807}
        outSlope: {x: 0, y: 0, z: -1.1974924, w: 0.21229807}
        tangentMode: 0
      - serializedVersion: 2
        time: 0.25
        value: {x: -0, y: -0, z: -0.234115, w: -0.9722089}
        inSlope: {x: 0, y: 0, z: -1.333914, w: 0.32654878}
        outSlope: {x: 0, y: 0, z: -1.333914, w: 0.32654878}
        tangentMode: 0
      - serializedVersion: 2
        time: 0.3
        value: {x: -0, y: -0, z: -0.30391833, w: -0.9526981}
        inSlope: {x: 0, y: 0, z: -1.4441093, w: 0.4661821}
        outSlope: {x: 0, y: 0, z: -1.4441093, w: 0.4661821}
        tangentMode: 0
      - serializedVersion: 2
        time: 0.35000002
        value: {x: -0, y: -0, z: -0.37852597, w: -0.9255907}
        inSlope: {x: 0, y: 0, z: -1.5240984, w: 0.62886584}
        outSlope: {x: 0, y: 0, z: -1.5240984, w: 0.62886584}
        tangentMode: 0
      - serializedVersion: 2
        time: 0.40000004
        value: {x: -0, y: -0, z: -0.4563282, w: -0.8898115}
        inSlope: {x: 0, y: 0, z: -1.5700885, w: 0.8107755}
        outSlope: {x: 0, y: 0, z: -1.5700885, w: 0.8107755}
        tangentMode: 0
      - serializedVersion: 2
        time: 0.45000005
        value: {x: -0, y: -0, z: -0.53553486, w: -0.8445131}
        inSlope: {x: 0, y: 0, z: -1.578845, w: 1.0067103}
        outSlope: {x: 0, y: 0, z: -1.578845, w: 1.0067103}
        tangentMode: 0
      - serializedVersion: 2
        time: 0.50000006
        value: {x: -0, y: -0, z: -0.61421275, w: -0.78914046}
        inSlope: {x: 0, y: 0, z: -1.5480616, w: 1.21029}
        outSlope: {x: 0, y: 0, z: -1.5480616, w: 1.21029}
        tangentMode: 0
      - serializedVersion: 2
        time: 0.5500001
        value: {x: -0, y: -0, z: -0.69034106, w: -0.7234841}
        inSlope: {x: 0, y: 0, z: -1.4766862, w: 1.414239}
        outSlope: {x: 0, y: 0, z: -1.4766862, w: 1.414239}
        tangentMode: 0
      - serializedVersion: 2
        time: 0.6000001
        value: {x: -0, y: -0, z: -0.7618814, w: -0.6477165}
        inSlope: {x: 0, y: 0, z: -1.3651844, w: 1.6107562}
        outSlope: {x: 0, y: 0, z: -1.3651844, w: 1.6107562}
        tangentMode: 0
      - serializedVersion: 2
        time: 0.6500001
        value: {x: -0, y: -0, z: -0.82685953, w: -0.56240845}
        inSlope: {x: 0, y: 0, z: -1.215699, w: 1.791936}
        outSlope: {x: 0, y: 0, z: -1.215699, w: 1.791936}
        tangentMode: 0
      - serializedVersion: 2
        time: 0.7000001
        value: {x: -0, y: -0, z: -0.88345134, w: -0.46852288}
        inSlope: {x: 0, y: 0, z: -1.0320953, w: 1.950237}
        outSlope: {x: 0, y: 0, z: -1.0320953, w: 1.950237}
        tangentMode: 0
      - serializedVersion: 2
        time: 0.7500001
        value: {x: -0, y: -0, z: -0.9300691, w: -0.3673847}
        inSlope: {x: 0, y: 0, z: -0.81987774, w: 2.0789433}
        outSlope: {x: 0, y: 0, z: -0.81987774, w: 2.0789433}
        tangentMode: 0
      - serializedVersion: 2
        time: 0.80000013
        value: {x: -0, y: -0, z: -0.96543914, w: -0.2606285}
        inSlope: {x: 0, y: 0, z: -0.5859767, w: 2.1725812}
        outSlope: {x: 0, y: 0, z: -0.5859767, w: 2.1725812}
        tangentMode: 0
      - serializedVersion: 2
        time: 0.85000014
        value: {x: -0, y: -0, z: -0.9886668, w: -0.15012652}
        inSlope: {x: 0, y: 0, z: -0.33842376, w: 2.2272782}
        outSlope: {x: 0, y: 0, z: -0.33842376, w: 2.2272782}
        tangentMode: 0
      - serializedVersion: 2
        time: 0.90000015
        value: {x: -0, y: -0, z: -0.9992815, w: -0.037900623}
        inSlope: {x: 0, y: 0, z: -0.085934386, w: 2.2410011}
        outSlope: {x: 0, y: 0, z: -0.085934386, w: 2.2410011}
        tangentMode: 0
      - serializedVersion: 2
        time: 0.95000017
        value: {x: -0, y: -0, z: -0.9972602, w: 0.073973656}
        inSlope: {x: 0, y: 0, z: 0.16255571, w: 2.2136714}
        outSlope: {x: 0, y: 0, z: 0.16255571, w: 2.2136714}
        tangentMode: 0
      - serializedVersion: 2
        time: 1.0000001
        value: {x: -0, y: -0, z: -0.98302597, w: 0.18346643}
        inSlope: {x: 0, y: 0, z: 0.3983692, w: 2.1471424}
        outSlope: {x: 0, y: 0, z: 0.3983692, w: 2.1471424}
        tangentMode: 0
      - serializedVersion: 2
        time: 1.0500001
        value: {x: -0, y: -0, z: -0.9574233, w: 0.2886877}
        inSlope: {x: 0, y: 0, z: 0.6135464, w: 2.0450516}
        outSlope: {x: 0, y: 0, z: 0.6135464, w: 2.0450516}
        tangentMode: 0
      - serializedVersion: 2
        time: 1.1
        value: {x: -0, y: -0, z: -0.9216714, w: 0.3879714}
        inSlope: {x: 0, y: 0, z: 0.8012248, w: 1.9125322}
        outSlope: {x: 0, y: 0, z: 0.8012248, w: 1.9125322}
        tangentMode: 0
      - serializedVersion: 2
        time: 1.15
        value: {x: -0, y: -0, z: -0.8773009, w: 0.47994074}
        inSlope: {x: 0, y: 0, z: 0.95593363, w: 1.7558442}
        outSlope: {x: 0, y: 0, z: 0.95593363, w: 1.7558442}
        tangentMode: 0
      - serializedVersion: 2
        time: 1.1999999
        value: {x: -0, y: -0, z: -0.8260781, w: 0.56355566}
        inSlope: {x: 0, y: 0, z: 1.0737686, w: 1.5819478}
        outSlope: {x: 0, y: 0, z: 1.0737686, w: 1.5819478}
        tangentMode: 0
      - serializedVersion: 2
        time: 1.2499999
        value: {x: -0, y: -0, z: -0.76992416, w: 0.6381354}
        inSlope: {x: 0, y: 0, z: 1.1524426, w: 1.3980432}
        outSlope: {x: 0, y: 0, z: 1.1524426, w: 1.3980432}
        tangentMode: 0
      - serializedVersion: 2
        time: 1.2999998
        value: {x: -0, y: -0, z: -0.71083397, w: 0.70335984}
        inSlope: {x: 0, y: 0, z: 1.1912191, w: 1.2111192}
        outSlope: {x: 0, y: 0, z: 1.1912191, w: 1.2111192}
        tangentMode: 0
      - serializedVersion: 2
        time: 1.3499998
        value: {x: -0, y: -0, z: -0.6508024, w: 0.7592472}
        inSlope: {x: 0, y: 0, z: 1.1907487, w: 1.0275505}
        outSlope: {x: 0, y: 0, z: 1.1907487, w: 1.0275505}
        tangentMode: 0
      - serializedVersion: 2
        time: 1.3999997
        value: {x: -0, y: -0, z: -0.5917592, w: 0.8061148}
        inSlope: {x: 0, y: 0, z: 1.1528097, w: 0.8527448}
        outSlope: {x: 0, y: 0, z: 1.1528097, w: 0.8527448}
        tangentMode: 0
      - serializedVersion: 2
        time: 1.4499997
        value: {x: -0, y: -0, z: -0.5355215, w: 0.8445216}
        inSlope: {x: 0, y: 0, z: 1.0800235, w: 0.6908763}
        outSlope: {x: 0, y: 0, z: 1.0800235, w: 0.6908763}
        tangentMode: 0
      - serializedVersion: 2
        time: 1.4999996
        value: {x: -0, y: -0, z: -0.48375696, w: 0.87520236}
        inSlope: {x: 0, y: 0, z: 0.9755424, w: 0.5446934}
        outSlope: {x: 0, y: 0, z: 0.9755424, w: 0.5446934}
        tangentMode: 0
      - serializedVersion: 2
        time: 1.5499996
        value: {x: -0, y: -0, z: -0.43796736, w: 0.89899087}
        inSlope: {x: 0, y: 0, z: 0.8427458, w: 0.41538516}
        outSlope: {x: 0, y: 0, z: 0.8427458, w: 0.41538516}
        tangentMode: 0
      - serializedVersion: 2
        time: 1.5999995
        value: {x: -0, y: -0, z: -0.39948246, w: 0.91674083}
        inSlope: {x: 0, y: 0, z: 0.68500286, w: 0.30252963}
        outSlope: {x: 0, y: 0, z: 0.68500286, w: 0.30252963}
        tangentMode: 0
      - serializedVersion: 2
        time: 1.6499995
        value: {x: -0, y: -0, z: -0.36946714, w: 0.9292438}
        inSlope: {x: 0, y: 0, z: 0.54274166, w: 0.2178528}
        outSlope: {x: 0, y: 0, z: 0.54274166, w: 0.2178528}
        tangentMode: 0
      - serializedVersion: 2
        time: 1.6999995
        value: {x: -0, y: -0, z: -0.34520835, w: 0.9385261}
        inSlope: {x: 0, y: 0, z: 0.46241388, w: 0.17078058}
        outSlope: {x: 0, y: 0, z: 0.46241388, w: 0.17078058}
        tangentMode: 0
      - serializedVersion: 2
        time: 1.7499994
        value: {x: -0, y: -0, z: -0.3232258, w: 0.94632185}
        inSlope: {x: 0, y: 0, z: 0.41813296, w: 0.14338745}
        outSlope: {x: 0, y: 0, z: 0.41813296, w: 0.14338745}
        tangentMode: 0
      - serializedVersion: 2
        time: 1.7999994
        value: {x: -0, y: -0, z: -0.3033951, w: 0.9528648}
        inSlope: {x: 0, y: 0, z: 0.37651396, w: 0.120347254}
        outSlope: {x: 0, y: 0, z: 0.37651396, w: 0.120347254}
        tangentMode: 0
      - serializedVersion: 2
        time: 1.8499993
        value: {x: -0, y: -0, z: -0.28557444, w: 0.95835656}
        inSlope: {x: 0, y: 0, z: 0.33788353, w: 0.10105679}
        outSlope: {x: 0, y: 0, z: 0.33788353, w: 0.10105679}
        tangentMode: 0
      - serializedVersion: 2
        time: 1.8999993
        value: {x: -0, y: -0, z: -0.26960677, w: 0.9629705}
        inSlope: {x: 0, y: 0, z: 0.3025034, w: 0.08498975}
        outSlope: {x: 0, y: 0, z: 0.3025034, w: 0.08498975}
        tangentMode: 0
      - serializedVersion: 2
        time: 1.9499992
        value: {x: -0, y: -0, z: -0.25532413, w: 0.9668555}
        inSlope: {x: 0, y: 0, z: 0.27057374, w: 0.07168538}
        outSlope: {x: 0, y: 0, z: 0.27057374, w: 0.07168538}
        tangentMode: 0
      - serializedVersion: 2
        time: 1.9999992
        value: {x: -0, y: -0, z: -0.24254942, w: 0.970139}
        inSlope: {x: 0, y: 0, z: 0.24224858, w: 0.060746662}
        outSlope: {x: 0, y: 0, z: 0.24224858, w: 0.060746662}
        tangentMode: 0
      - serializedVersion: 2
        time: 2.0499992
        value: {x: -0, y: -0, z: -0.23109926, w: 0.9729302}
        inSlope: {x: 0, y: 0, z: 0.2176539, w: 0.051836953}
        outSlope: {x: 0, y: 0, z: 0.2176539, w: 0.051836953}
        tangentMode: 0
      - serializedVersion: 2
        time: 2.0999992
        value: {x: -0, y: -0, z: -0.22078402, w: 0.9753227}
        inSlope: {x: 0, y: 0, z: 0.19688311, w: 0.044670746}
        outSlope: {x: 0, y: 0, z: 0.19688311, w: 0.044670746}
        tangentMode: 0
      - serializedVersion: 2
        time: 2.1499991
        value: {x: -0, y: -0, z: -0.21141097, w: 0.97739726}
        inSlope: {x: 0, y: 0, z: 0.18000486, w: 0.039008893}
        outSlope: {x: 0, y: 0, z: 0.18000486, w: 0.039008893}
        tangentMode: 0
      - serializedVersion: 2
        time: 2.199999
        value: {x: -0, y: -0, z: -0.20278355, w: 0.9792236}
        inSlope: {x: 0, y: 0, z: 0.1670745, w: 0.034648806}
        outSlope: {x: 0, y: 0, z: 0.1670745, w: 0.034648806}
        tangentMode: 0
      - serializedVersion: 2
        time: 2.249999
        value: {x: -0, y: -0, z: -0.19470353, w: 0.98086214}
        inSlope: {x: 0, y: 0, z: 0.1581353, w: 0.031420022}
        outSlope: {x: 0, y: 0, z: 0.1581353, w: 0.031420022}
        tangentMode: 0
      - serializedVersion: 2
        time: 2.299999
        value: {x: -0, y: -0, z: -0.18697004, w: 0.9823656}
        inSlope: {x: 0, y: 0, z: 0.15322387, w: 0.029175308}
        outSlope: {x: 0, y: 0, z: 0.15322387, w: 0.029175308}
        tangentMode: 0
      - serializedVersion: 2
        time: 2.349999
        value: {x: -0, y: -0, z: -0.17938116, w: 0.98377967}
        inSlope: {x: 0, y: 0, z: 0.15236855, w: 0.02777877}
        outSlope: {x: 0, y: 0, z: 0.15236855, w: 0.02777877}
        tangentMode: 0
      - serializedVersion: 2
        time: 2.399999
        value: {x: -0, y: -0, z: -0.1717332, w: 0.9851435}
        inSlope: {x: 0, y: 0, z: 0.1555866, w: 0.027101662}
        outSlope: {x: 0, y: 0, z: 0.1555866, w: 0.027101662}
        tangentMode: 0
      - serializedVersion: 2
        time: 2.4499989
        value: {x: -0, y: -0, z: -0.16382252, w: 0.98648983}
        inSlope: {x: 0, y: 0, z: 0.1629071, w: 0.02701464}
        outSlope: {x: 0, y: 0, z: 0.1629071, w: 0.02701464}
        tangentMode: 0
      - serializedVersion: 2
        time: 2.4999988
        value: {x: -0, y: -0, z: -0.1554425, w: 0.98784494}
        inSlope: {x: 0, y: 0, z: 0.1743536, w: 0.027375247}
        outSlope: {x: 0, y: 0, z: 0.1743536, w: 0.027375247}
        tangentMode: 0
      - serializedVersion: 2
        time: 2.5499988
        value: {x: -0, y: -0, z: -0.14638717, w: 0.98922735}
        inSlope: {x: 0, y: 0, z: 0.18993977, w: 0.028021958}
        outSlope: {x: 0, y: 0, z: 0.18993977, w: 0.028021958}
        tangentMode: 0
      - serializedVersion: 2
        time: 2.5999987
        value: {x: -0, y: -0, z: -0.13644855, w: 0.99064714}
        inSlope: {x: 0, y: 0, z: 0.20968845, w: 0.028765826}
        outSlope: {x: 0, y: 0, z: 0.20968845, w: 0.028765826}
        tangentMode: 0
      - serializedVersion: 2
        time: 2.6499987
        value: {x: -0, y: -0, z: -0.12541835, w: 0.99210393}
        inSlope: {x: 0, y: 0, z: 0.2336239, w: 0.02938035}
        outSlope: {x: 0, y: 0, z: 0.2336239, w: 0.02938035}
        tangentMode: 0
      - serializedVersion: 2
        time: 2.6999986
        value: {x: -0, y: -0, z: -0.11308618, w: 0.99358517}
        inSlope: {x: 0, y: 0, z: 0.26175612, w: 0.029593138}
        outSlope: {x: 0, y: 0, z: 0.26175612, w: 0.029593138}
        tangentMode: 0
      - serializedVersion: 2
        time: 2.7499986
        value: {x: -0, y: -0, z: -0.09924276, w: 0.99506325}
        inSlope: {x: 0, y: 0, z: 0.29409683, w: 0.029078154}
        outSlope: {x: 0, y: 0, z: 0.29409683, w: 0.029078154}
        tangentMode: 0
      - serializedVersion: 2
        time: 2.7999985
        value: {x: -0, y: -0, z: -0.083676524, w: 0.996493}
        inSlope: {x: 0, y: 0, z: 0.33065516, w: 0.027446177}
        outSlope: {x: 0, y: 0, z: 0.33065516, w: 0.027446177}
        tangentMode: 0
      - serializedVersion: 2
        time: 2.8499985
        value: {x: -0, y: -0, z: -0.06617728, w: 0.99780786}
        inSlope: {x: 0, y: 0, z: 0.37141275, w: 0.024236463}
        outSlope: {x: 0, y: 0, z: 0.37141275, w: 0.024236463}
        tangentMode: 0
      - serializedVersion: 2
        time: 2.8999984
        value: {x: -0, y: -0, z: -0.046535283, w: 0.9989166}
        inSlope: {x: 0, y: 0, z: 0.41633487, w: 0.018908996}
        outSlope: {x: 0, y: 0, z: 0.41633487, w: 0.018908996}
        tangentMode: 0
      - serializedVersion: 2
        time: 2.9499984
        value: {x: -0, y: -0, z: -0.024543833, w: 0.99969876}
        inSlope: {x: 0, y: 0, z: 0.46534598, w: 0.01083365}
        outSlope: {x: 0, y: 0, z: 0.46534598, w: 0.01083365}
        tangentMode: 0
      - serializedVersion: 2
        time: 3
        value: {x: -0, y: -0, z: 0.00000008742278, w: 1}
        inSlope: {x: 0, y: 0, z: 0.4908625, w: 0.006024642}
        outSlope: {x: 0, y: 0, z: 0.4908625, w: 0.006024642}
        tangentMode: 0
      m_PreInfinity: 2
      m_PostInfinity: 2
      m_RotationOrder: 4
    path: 
  m_CompressedRotationCurves: []
  m_EulerCurves: []
  m_PositionCurves: []
  m_ScaleCurves: []
  m_FloatCurves: []
  m_PPtrCurves: []
  m_SampleRate: 20
  m_WrapMode: 2
  m_Bounds:
    m_Center: {x: 0, y: 0, z: 0}
    m_Extent: {x: 0, y: 0, z: 0}
  m_ClipBindingConstant:
    genericBindings: []
    pptrCurveMapping: []
  m_AnimationClipSettings:
    serializedVersion: 2
    m_AdditiveReferencePoseClip: {fileID: 0}
    m_AdditiveReferencePoseTime: 0
    m_StartTime: 0
    m_StopTime: 3
    m_OrientationOffsetY: 0
    m_Level: 0
    m_CycleOffset: 0
    m_HasAdditiveReferencePose: 0
    m_LoopTime: 1
    m_LoopBlend: 0
    m_LoopBlendOrientation: 0
    m_LoopBlendPositionY: 0
    m_LoopBlendPositionXZ: 0
    m_KeepOriginalOrientation: 0
    m_KeepOriginalPositionY: 1
    m_KeepOriginalPositionXZ: 0
    m_HeightFromFeet: 0
    m_Mirror: 0
  m_EditorCurves:
  - curve:
      serializedVersion: 2
      m_Curve:
      - serializedVersion: 2
        time: 0
        value: -0
        inSlope: 0
        outSlope: 0
        tangentMode: 0
      - serializedVersion: 2
        time: 0.05
        value: -0
        inSlope: 0
        outSlope: 0
        tangentMode: 0
      - serializedVersion: 2
        time: 0.1
        value: -0
        inSlope: 0
        outSlope: 0
        tangentMode: 0
      - serializedVersion: 2
        time: 0.15
        value: -0
        inSlope: 0
        outSlope: 0
        tangentMode: 0
      - serializedVersion: 2
        time: 0.2
        value: -0
        inSlope: 0
        outSlope: 0
        tangentMode: 0
      - serializedVersion: 2
        time: 0.25
        value: -0
        inSlope: 0
        outSlope: 0
        tangentMode: 0
      - serializedVersion: 2
        time: 0.3
        value: -0
        inSlope: 0
        outSlope: 0
        tangentMode: 0
      - serializedVersion: 2
        time: 0.35000002
        value: -0
        inSlope: 0
        outSlope: 0
        tangentMode: 0
      - serializedVersion: 2
        time: 0.40000004
        value: -0
        inSlope: 0
        outSlope: 0
        tangentMode: 0
      - serializedVersion: 2
        time: 0.45000005
        value: -0
        inSlope: 0
        outSlope: 0
        tangentMode: 0
      - serializedVersion: 2
        time: 0.50000006
        value: -0
        inSlope: 0
        outSlope: 0
        tangentMode: 0
      - serializedVersion: 2
        time: 0.5500001
        value: -0
        inSlope: 0
        outSlope: 0
        tangentMode: 0
      - serializedVersion: 2
        time: 0.6000001
        value: -0
        inSlope: 0
        outSlope: 0
        tangentMode: 0
      - serializedVersion: 2
        time: 0.6500001
        value: -0
        inSlope: 0
        outSlope: 0
        tangentMode: 0
      - serializedVersion: 2
        time: 0.7000001
        value: -0
        inSlope: 0
        outSlope: 0
        tangentMode: 0
      - serializedVersion: 2
        time: 0.7500001
        value: -0
        inSlope: 0
        outSlope: 0
        tangentMode: 0
      - serializedVersion: 2
        time: 0.80000013
        value: -0
        inSlope: 0
        outSlope: 0
        tangentMode: 0
      - serializedVersion: 2
        time: 0.85000014
        value: -0
        inSlope: 0
        outSlope: 0
        tangentMode: 0
      - serializedVersion: 2
        time: 0.90000015
        value: -0
        inSlope: 0
        outSlope: 0
        tangentMode: 0
      - serializedVersion: 2
        time: 0.95000017
        value: -0
        inSlope: 0
        outSlope: 0
        tangentMode: 0
      - serializedVersion: 2
        time: 1.0000001
        value: -0
        inSlope: 0
        outSlope: 0
        tangentMode: 0
      - serializedVersion: 2
        time: 1.0500001
        value: -0
        inSlope: 0
        outSlope: 0
        tangentMode: 0
      - serializedVersion: 2
        time: 1.1
        value: -0
        inSlope: 0
        outSlope: 0
        tangentMode: 0
      - serializedVersion: 2
        time: 1.15
        value: -0
        inSlope: 0
        outSlope: 0
        tangentMode: 0
      - serializedVersion: 2
        time: 1.1999999
        value: -0
        inSlope: 0
        outSlope: 0
        tangentMode: 0
      - serializedVersion: 2
        time: 1.2499999
        value: -0
        inSlope: 0
        outSlope: 0
        tangentMode: 0
      - serializedVersion: 2
        time: 1.2999998
        value: -0
        inSlope: 0
        outSlope: 0
        tangentMode: 0
      - serializedVersion: 2
        time: 1.3499998
        value: -0
        inSlope: 0
        outSlope: 0
        tangentMode: 0
      - serializedVersion: 2
        time: 1.3999997
        value: -0
        inSlope: 0
        outSlope: 0
        tangentMode: 0
      - serializedVersion: 2
        time: 1.4499997
        value: -0
        inSlope: 0
        outSlope: 0
        tangentMode: 0
      - serializedVersion: 2
        time: 1.4999996
        value: -0
        inSlope: 0
        outSlope: 0
        tangentMode: 0
      - serializedVersion: 2
        time: 1.5499996
        value: -0
        inSlope: 0
        outSlope: 0
        tangentMode: 0
      - serializedVersion: 2
        time: 1.5999995
        value: -0
        inSlope: 0
        outSlope: 0
        tangentMode: 0
      - serializedVersion: 2
        time: 1.6499995
        value: -0
        inSlope: 0
        outSlope: 0
        tangentMode: 0
      - serializedVersion: 2
        time: 1.6999995
        value: -0
        inSlope: 0
        outSlope: 0
        tangentMode: 0
      - serializedVersion: 2
        time: 1.7499994
        value: -0
        inSlope: 0
        outSlope: 0
        tangentMode: 0
      - serializedVersion: 2
        time: 1.7999994
        value: -0
        inSlope: 0
        outSlope: 0
        tangentMode: 0
      - serializedVersion: 2
        time: 1.8499993
        value: -0
        inSlope: 0
        outSlope: 0
        tangentMode: 0
      - serializedVersion: 2
        time: 1.8999993
        value: -0
        inSlope: 0
        outSlope: 0
        tangentMode: 0
      - serializedVersion: 2
        time: 1.9499992
        value: -0
        inSlope: 0
        outSlope: 0
        tangentMode: 0
      - serializedVersion: 2
        time: 1.9999992
        value: -0
        inSlope: 0
        outSlope: 0
        tangentMode: 0
      - serializedVersion: 2
        time: 2.0499992
        value: -0
        inSlope: 0
        outSlope: 0
        tangentMode: 0
      - serializedVersion: 2
        time: 2.0999992
        value: -0
        inSlope: 0
        outSlope: 0
        tangentMode: 0
      - serializedVersion: 2
        time: 2.1499991
        value: -0
        inSlope: 0
        outSlope: 0
        tangentMode: 0
      - serializedVersion: 2
        time: 2.199999
        value: -0
        inSlope: 0
        outSlope: 0
        tangentMode: 0
      - serializedVersion: 2
        time: 2.249999
        value: -0
        inSlope: 0
        outSlope: 0
        tangentMode: 0
      - serializedVersion: 2
        time: 2.299999
        value: -0
        inSlope: 0
        outSlope: 0
        tangentMode: 0
      - serializedVersion: 2
        time: 2.349999
        value: -0
        inSlope: 0
        outSlope: 0
        tangentMode: 0
      - serializedVersion: 2
        time: 2.399999
        value: -0
        inSlope: 0
        outSlope: 0
        tangentMode: 0
      - serializedVersion: 2
        time: 2.4499989
        value: -0
        inSlope: 0
        outSlope: 0
        tangentMode: 0
      - serializedVersion: 2
        time: 2.4999988
        value: -0
        inSlope: 0
        outSlope: 0
        tangentMode: 0
      - serializedVersion: 2
        time: 2.5499988
        value: -0
        inSlope: 0
        outSlope: 0
        tangentMode: 0
      - serializedVersion: 2
        time: 2.5999987
        value: -0
        inSlope: 0
        outSlope: 0
        tangentMode: 0
      - serializedVersion: 2
        time: 2.6499987
        value: -0
        inSlope: 0
        outSlope: 0
        tangentMode: 0
      - serializedVersion: 2
        time: 2.6999986
        value: -0
        inSlope: 0
        outSlope: 0
        tangentMode: 0
      - serializedVersion: 2
        time: 2.7499986
        value: -0
        inSlope: 0
        outSlope: 0
        tangentMode: 0
      - serializedVersion: 2
        time: 2.7999985
        value: -0
        inSlope: 0
        outSlope: 0
        tangentMode: 0
      - serializedVersion: 2
        time: 2.8499985
        value: -0
        inSlope: 0
        outSlope: 0
        tangentMode: 0
      - serializedVersion: 2
        time: 2.8999984
        value: -0
        inSlope: 0
        outSlope: 0
        tangentMode: 0
      - serializedVersion: 2
        time: 2.9499984
        value: -0
        inSlope: 0
        outSlope: 0
        tangentMode: 0
      - serializedVersion: 2
        time: 3
        value: -0
        inSlope: 0
        outSlope: 0
        tangentMode: 0
      m_PreInfinity: 2
      m_PostInfinity: 2
      m_RotationOrder: 4
    attribute: m_LocalRotation.x
    path: 
    classID: 4
    script: {fileID: 0}
  - curve:
      serializedVersion: 2
      m_Curve:
      - serializedVersion: 2
        time: 0
        value: -0
        inSlope: 0
        outSlope: 0
        tangentMode: 0
      - serializedVersion: 2
        time: 0.05
        value: -0
        inSlope: 0
        outSlope: 0
        tangentMode: 0
      - serializedVersion: 2
        time: 0.1
        value: -0
        inSlope: 0
        outSlope: 0
        tangentMode: 0
      - serializedVersion: 2
        time: 0.15
        value: -0
        inSlope: 0
        outSlope: 0
        tangentMode: 0
      - serializedVersion: 2
        time: 0.2
        value: -0
        inSlope: 0
        outSlope: 0
        tangentMode: 0
      - serializedVersion: 2
        time: 0.25
        value: -0
        inSlope: 0
        outSlope: 0
        tangentMode: 0
      - serializedVersion: 2
        time: 0.3
        value: -0
        inSlope: 0
        outSlope: 0
        tangentMode: 0
      - serializedVersion: 2
        time: 0.35000002
        value: -0
        inSlope: 0
        outSlope: 0
        tangentMode: 0
      - serializedVersion: 2
        time: 0.40000004
        value: -0
        inSlope: 0
        outSlope: 0
        tangentMode: 0
      - serializedVersion: 2
        time: 0.45000005
        value: -0
        inSlope: 0
        outSlope: 0
        tangentMode: 0
      - serializedVersion: 2
        time: 0.50000006
        value: -0
        inSlope: 0
        outSlope: 0
        tangentMode: 0
      - serializedVersion: 2
        time: 0.5500001
        value: -0
        inSlope: 0
        outSlope: 0
        tangentMode: 0
      - serializedVersion: 2
        time: 0.6000001
        value: -0
        inSlope: 0
        outSlope: 0
        tangentMode: 0
      - serializedVersion: 2
        time: 0.6500001
        value: -0
        inSlope: 0
        outSlope: 0
        tangentMode: 0
      - serializedVersion: 2
        time: 0.7000001
        value: -0
        inSlope: 0
        outSlope: 0
        tangentMode: 0
      - serializedVersion: 2
        time: 0.7500001
        value: -0
        inSlope: 0
        outSlope: 0
        tangentMode: 0
      - serializedVersion: 2
        time: 0.80000013
        value: -0
        inSlope: 0
        outSlope: 0
        tangentMode: 0
      - serializedVersion: 2
        time: 0.85000014
        value: -0
        inSlope: 0
        outSlope: 0
        tangentMode: 0
      - serializedVersion: 2
        time: 0.90000015
        value: -0
        inSlope: 0
        outSlope: 0
        tangentMode: 0
      - serializedVersion: 2
        time: 0.95000017
        value: -0
        inSlope: 0
        outSlope: 0
        tangentMode: 0
      - serializedVersion: 2
        time: 1.0000001
        value: -0
        inSlope: 0
        outSlope: 0
        tangentMode: 0
      - serializedVersion: 2
        time: 1.0500001
        value: -0
        inSlope: 0
        outSlope: 0
        tangentMode: 0
      - serializedVersion: 2
        time: 1.1
        value: -0
        inSlope: 0
        outSlope: 0
        tangentMode: 0
      - serializedVersion: 2
        time: 1.15
        value: -0
        inSlope: 0
        outSlope: 0
        tangentMode: 0
      - serializedVersion: 2
        time: 1.1999999
        value: -0
        inSlope: 0
        outSlope: 0
        tangentMode: 0
      - serializedVersion: 2
        time: 1.2499999
        value: -0
        inSlope: 0
        outSlope: 0
        tangentMode: 0
      - serializedVersion: 2
        time: 1.2999998
        value: -0
        inSlope: 0
        outSlope: 0
        tangentMode: 0
      - serializedVersion: 2
        time: 1.3499998
        value: -0
        inSlope: 0
        outSlope: 0
        tangentMode: 0
      - serializedVersion: 2
        time: 1.3999997
        value: -0
        inSlope: 0
        outSlope: 0
        tangentMode: 0
      - serializedVersion: 2
        time: 1.4499997
        value: -0
        inSlope: 0
        outSlope: 0
        tangentMode: 0
      - serializedVersion: 2
        time: 1.4999996
        value: -0
        inSlope: 0
        outSlope: 0
        tangentMode: 0
      - serializedVersion: 2
        time: 1.5499996
        value: -0
        inSlope: 0
        outSlope: 0
        tangentMode: 0
      - serializedVersion: 2
        time: 1.5999995
        value: -0
        inSlope: 0
        outSlope: 0
        tangentMode: 0
      - serializedVersion: 2
        time: 1.6499995
        value: -0
        inSlope: 0
        outSlope: 0
        tangentMode: 0
      - serializedVersion: 2
        time: 1.6999995
        value: -0
        inSlope: 0
        outSlope: 0
        tangentMode: 0
      - serializedVersion: 2
        time: 1.7499994
        value: -0
        inSlope: 0
        outSlope: 0
        tangentMode: 0
      - serializedVersion: 2
        time: 1.7999994
        value: -0
        inSlope: 0
        outSlope: 0
        tangentMode: 0
      - serializedVersion: 2
        time: 1.8499993
        value: -0
        inSlope: 0
        outSlope: 0
        tangentMode: 0
      - serializedVersion: 2
        time: 1.8999993
        value: -0
        inSlope: 0
        outSlope: 0
        tangentMode: 0
      - serializedVersion: 2
        time: 1.9499992
        value: -0
        inSlope: 0
        outSlope: 0
        tangentMode: 0
      - serializedVersion: 2
        time: 1.9999992
        value: -0
        inSlope: 0
        outSlope: 0
        tangentMode: 0
      - serializedVersion: 2
        time: 2.0499992
        value: -0
        inSlope: 0
        outSlope: 0
        tangentMode: 0
      - serializedVersion: 2
        time: 2.0999992
        value: -0
        inSlope: 0
        outSlope: 0
        tangentMode: 0
      - serializedVersion: 2
        time: 2.1499991
        value: -0
        inSlope: 0
        outSlope: 0
        tangentMode: 0
      - serializedVersion: 2
        time: 2.199999
        value: -0
        inSlope: 0
        outSlope: 0
        tangentMode: 0
      - serializedVersion: 2
        time: 2.249999
        value: -0
        inSlope: 0
        outSlope: 0
        tangentMode: 0
      - serializedVersion: 2
        time: 2.299999
        value: -0
        inSlope: 0
        outSlope: 0
        tangentMode: 0
      - serializedVersion: 2
        time: 2.349999
        value: -0
        inSlope: 0
        outSlope: 0
        tangentMode: 0
      - serializedVersion: 2
        time: 2.399999
        value: -0
        inSlope: 0
        outSlope: 0
        tangentMode: 0
      - serializedVersion: 2
        time: 2.4499989
        value: -0
        inSlope: 0
        outSlope: 0
        tangentMode: 0
      - serializedVersion: 2
        time: 2.4999988
        value: -0
        inSlope: 0
        outSlope: 0
        tangentMode: 0
      - serializedVersion: 2
        time: 2.5499988
        value: -0
        inSlope: 0
        outSlope: 0
        tangentMode: 0
      - serializedVersion: 2
        time: 2.5999987
        value: -0
        inSlope: 0
        outSlope: 0
        tangentMode: 0
      - serializedVersion: 2
        time: 2.6499987
        value: -0
        inSlope: 0
        outSlope: 0
        tangentMode: 0
      - serializedVersion: 2
        time: 2.6999986
        value: -0
        inSlope: 0
        outSlope: 0
        tangentMode: 0
      - serializedVersion: 2
        time: 2.7499986
        value: -0
        inSlope: 0
        outSlope: 0
        tangentMode: 0
      - serializedVersion: 2
        time: 2.7999985
        value: -0
        inSlope: 0
        outSlope: 0
        tangentMode: 0
      - serializedVersion: 2
        time: 2.8499985
        value: -0
        inSlope: 0
        outSlope: 0
        tangentMode: 0
      - serializedVersion: 2
        time: 2.8999984
        value: -0
        inSlope: 0
        outSlope: 0
        tangentMode: 0
      - serializedVersion: 2
        time: 2.9499984
        value: -0
        inSlope: 0
        outSlope: 0
        tangentMode: 0
      - serializedVersion: 2
        time: 3
        value: -0
        inSlope: 0
        outSlope: 0
        tangentMode: 0
      m_PreInfinity: 2
      m_PostInfinity: 2
      m_RotationOrder: 4
    attribute: m_LocalRotation.y
    path: 
    classID: 4
    script: {fileID: 0}
  - curve:
      serializedVersion: 2
      m_Curve:
      - serializedVersion: 2
        time: 0
        value: -0
        inSlope: -0.56570977
        outSlope: -0.56570977
        tangentMode: 0
      - serializedVersion: 2
        time: 0.05
        value: -0.028285488
        inSlope: -0.6666035
        outSlope: -0.6666035
        tangentMode: 0
      - serializedVersion: 2
        time: 0.1
        value: -0.06666035
        inSlope: -0.8608029
        outSlope: -0.8608029
        tangentMode: 0
      - serializedVersion: 2
        time: 0.15
        value: -0.11436578
        inSlope: -1.0386658
        outSlope: -1.0386658
        tangentMode: 0
      - serializedVersion: 2
        time: 0.2
        value: -0.17052692
        inSlope: -1.1974924
        outSlope: -1.1974924
        tangentMode: 0
      - serializedVersion: 2
        time: 0.25
        value: -0.234115
        inSlope: -1.333914
        outSlope: -1.333914
        tangentMode: 0
      - serializedVersion: 2
        time: 0.3
        value: -0.30391833
        inSlope: -1.4441093
        outSlope: -1.4441093
        tangentMode: 0
      - serializedVersion: 2
        time: 0.35000002
        value: -0.37852597
        inSlope: -1.5240984
        outSlope: -1.5240984
        tangentMode: 0
      - serializedVersion: 2
        time: 0.40000004
        value: -0.4563282
        inSlope: -1.5700885
        outSlope: -1.5700885
        tangentMode: 0
      - serializedVersion: 2
        time: 0.45000005
        value: -0.53553486
        inSlope: -1.578845
        outSlope: -1.578845
        tangentMode: 0
      - serializedVersion: 2
        time: 0.50000006
        value: -0.61421275
        inSlope: -1.5480616
        outSlope: -1.5480616
        tangentMode: 0
      - serializedVersion: 2
        time: 0.5500001
        value: -0.69034106
        inSlope: -1.4766862
        outSlope: -1.4766862
        tangentMode: 0
      - serializedVersion: 2
        time: 0.6000001
        value: -0.7618814
        inSlope: -1.3651844
        outSlope: -1.3651844
        tangentMode: 0
      - serializedVersion: 2
        time: 0.6500001
        value: -0.82685953
        inSlope: -1.215699
        outSlope: -1.215699
        tangentMode: 0
      - serializedVersion: 2
        time: 0.7000001
        value: -0.88345134
        inSlope: -1.0320953
        outSlope: -1.0320953
        tangentMode: 0
      - serializedVersion: 2
        time: 0.7500001
        value: -0.9300691
        inSlope: -0.81987774
        outSlope: -0.81987774
        tangentMode: 0
      - serializedVersion: 2
        time: 0.80000013
        value: -0.96543914
        inSlope: -0.5859767
        outSlope: -0.5859767
        tangentMode: 0
      - serializedVersion: 2
        time: 0.85000014
        value: -0.9886668
        inSlope: -0.33842376
        outSlope: -0.33842376
        tangentMode: 0
      - serializedVersion: 2
        time: 0.90000015
        value: -0.9992815
        inSlope: -0.085934386
        outSlope: -0.085934386
        tangentMode: 0
      - serializedVersion: 2
        time: 0.95000017
        value: -0.9972602
        inSlope: 0.16255571
        outSlope: 0.16255571
        tangentMode: 0
      - serializedVersion: 2
        time: 1.0000001
        value: -0.98302597
        inSlope: 0.3983692
        outSlope: 0.3983692
        tangentMode: 0
      - serializedVersion: 2
        time: 1.0500001
        value: -0.9574233
        inSlope: 0.6135464
        outSlope: 0.6135464
        tangentMode: 0
      - serializedVersion: 2
        time: 1.1
        value: -0.9216714
        inSlope: 0.8012248
        outSlope: 0.8012248
        tangentMode: 0
      - serializedVersion: 2
        time: 1.15
        value: -0.8773009
        inSlope: 0.95593363
        outSlope: 0.95593363
        tangentMode: 0
      - serializedVersion: 2
        time: 1.1999999
        value: -0.8260781
        inSlope: 1.0737686
        outSlope: 1.0737686
        tangentMode: 0
      - serializedVersion: 2
        time: 1.2499999
        value: -0.76992416
        inSlope: 1.1524426
        outSlope: 1.1524426
        tangentMode: 0
      - serializedVersion: 2
        time: 1.2999998
        value: -0.71083397
        inSlope: 1.1912191
        outSlope: 1.1912191
        tangentMode: 0
      - serializedVersion: 2
        time: 1.3499998
        value: -0.6508024
        inSlope: 1.1907487
        outSlope: 1.1907487
        tangentMode: 0
      - serializedVersion: 2
        time: 1.3999997
        value: -0.5917592
        inSlope: 1.1528097
        outSlope: 1.1528097
        tangentMode: 0
      - serializedVersion: 2
        time: 1.4499997
        value: -0.5355215
        inSlope: 1.0800235
        outSlope: 1.0800235
        tangentMode: 0
      - serializedVersion: 2
        time: 1.4999996
        value: -0.48375696
        inSlope: 0.9755424
        outSlope: 0.9755424
        tangentMode: 0
      - serializedVersion: 2
        time: 1.5499996
        value: -0.43796736
        inSlope: 0.8427458
        outSlope: 0.8427458
        tangentMode: 0
      - serializedVersion: 2
        time: 1.5999995
        value: -0.39948246
        inSlope: 0.68500286
        outSlope: 0.68500286
        tangentMode: 0
      - serializedVersion: 2
        time: 1.6499995
        value: -0.36946714
        inSlope: 0.54274166
        outSlope: 0.54274166
        tangentMode: 0
      - serializedVersion: 2
        time: 1.6999995
        value: -0.34520835
        inSlope: 0.46241388
        outSlope: 0.46241388
        tangentMode: 0
      - serializedVersion: 2
        time: 1.7499994
        value: -0.3232258
        inSlope: 0.41813296
        outSlope: 0.41813296
        tangentMode: 0
      - serializedVersion: 2
        time: 1.7999994
        value: -0.3033951
        inSlope: 0.37651396
        outSlope: 0.37651396
        tangentMode: 0
      - serializedVersion: 2
        time: 1.8499993
        value: -0.28557444
        inSlope: 0.33788353
        outSlope: 0.33788353
        tangentMode: 0
      - serializedVersion: 2
        time: 1.8999993
        value: -0.26960677
        inSlope: 0.3025034
        outSlope: 0.3025034
        tangentMode: 0
      - serializedVersion: 2
        time: 1.9499992
        value: -0.25532413
        inSlope: 0.27057374
        outSlope: 0.27057374
        tangentMode: 0
      - serializedVersion: 2
        time: 1.9999992
        value: -0.24254942
        inSlope: 0.24224858
        outSlope: 0.24224858
        tangentMode: 0
      - serializedVersion: 2
        time: 2.0499992
        value: -0.23109926
        inSlope: 0.2176539
        outSlope: 0.2176539
        tangentMode: 0
      - serializedVersion: 2
        time: 2.0999992
        value: -0.22078402
        inSlope: 0.19688311
        outSlope: 0.19688311
        tangentMode: 0
      - serializedVersion: 2
        time: 2.1499991
        value: -0.21141097
        inSlope: 0.18000486
        outSlope: 0.18000486
        tangentMode: 0
      - serializedVersion: 2
        time: 2.199999
        value: -0.20278355
        inSlope: 0.1670745
        outSlope: 0.1670745
        tangentMode: 0
      - serializedVersion: 2
        time: 2.249999
        value: -0.19470353
        inSlope: 0.1581353
        outSlope: 0.1581353
        tangentMode: 0
      - serializedVersion: 2
        time: 2.299999
        value: -0.18697004
        inSlope: 0.15322387
        outSlope: 0.15322387
        tangentMode: 0
      - serializedVersion: 2
        time: 2.349999
        value: -0.17938116
        inSlope: 0.15236855
        outSlope: 0.15236855
        tangentMode: 0
      - serializedVersion: 2
        time: 2.399999
        value: -0.1717332
        inSlope: 0.1555866
        outSlope: 0.1555866
        tangentMode: 0
      - serializedVersion: 2
        time: 2.4499989
        value: -0.16382252
        inSlope: 0.1629071
        outSlope: 0.1629071
        tangentMode: 0
      - serializedVersion: 2
        time: 2.4999988
        value: -0.1554425
        inSlope: 0.1743536
        outSlope: 0.1743536
        tangentMode: 0
      - serializedVersion: 2
        time: 2.5499988
        value: -0.14638717
        inSlope: 0.18993977
        outSlope: 0.18993977
        tangentMode: 0
      - serializedVersion: 2
        time: 2.5999987
        value: -0.13644855
        inSlope: 0.20968845
        outSlope: 0.20968845
        tangentMode: 0
      - serializedVersion: 2
        time: 2.6499987
        value: -0.12541835
        inSlope: 0.2336239
        outSlope: 0.2336239
        tangentMode: 0
      - serializedVersion: 2
        time: 2.6999986
        value: -0.11308618
        inSlope: 0.26175612
        outSlope: 0.26175612
        tangentMode: 0
      - serializedVersion: 2
        time: 2.7499986
        value: -0.09924276
        inSlope: 0.29409683
        outSlope: 0.29409683
        tangentMode: 0
      - serializedVersion: 2
        time: 2.7999985
        value: -0.083676524
        inSlope: 0.33065516
        outSlope: 0.33065516
        tangentMode: 0
      - serializedVersion: 2
        time: 2.8499985
        value: -0.06617728
        inSlope: 0.37141275
        outSlope: 0.37141275
        tangentMode: 0
      - serializedVersion: 2
        time: 2.8999984
        value: -0.046535283
        inSlope: 0.41633487
        outSlope: 0.41633487
        tangentMode: 0
      - serializedVersion: 2
        time: 2.9499984
        value: -0.024543833
        inSlope: 0.46534598
        outSlope: 0.46534598
        tangentMode: 0
      - serializedVersion: 2
        time: 3
        value: 0.00000008742278
        inSlope: 0.4908625
        outSlope: 0.4908625
        tangentMode: 0
      m_PreInfinity: 2
      m_PostInfinity: 2
      m_RotationOrder: 4
    attribute: m_LocalRotation.z
    path: 
    classID: 4
    script: {fileID: 0}
  - curve:
      serializedVersion: 2
      m_Curve:
      - serializedVersion: 2
        time: 0
        value: -1
        inSlope: 0.00800252
        outSlope: 0.00800252
        tangentMode: 0
      - serializedVersion: 2
        time: 0.05
        value: -0.9995999
        inSlope: 0.022242665
        outSlope: 0.022242665
        tangentMode: 0
      - serializedVersion: 2
        time: 0.1
        value: -0.99777573
        inSlope: 0.06161153
        outSlope: 0.06161153
        tangentMode: 0
      - serializedVersion: 2
        time: 0.15
        value: -0.9934387
        inSlope: 0.124227405
        outSlope: 0.124227405
        tangentMode: 0
      - serializedVersion: 2
        time: 0.2
        value: -0.985353
        inSlope: 0.21229807
        outSlope: 0.21229807
        tangentMode: 0
      - serializedVersion: 2
        time: 0.25
        value: -0.9722089
        inSlope: 0.32654878
        outSlope: 0.32654878
        tangentMode: 0
      - serializedVersion: 2
        time: 0.3
        value: -0.9526981
        inSlope: 0.4661821
        outSlope: 0.4661821
        tangentMode: 0
      - serializedVersion: 2
        time: 0.35000002
        value: -0.9255907
        inSlope: 0.62886584
        outSlope: 0.62886584
        tangentMode: 0
      - serializedVersion: 2
        time: 0.40000004
        value: -0.8898115
        inSlope: 0.8107755
        outSlope: 0.8107755
        tangentMode: 0
      - serializedVersion: 2
        time: 0.45000005
        value: -0.8445131
        inSlope: 1.0067103
        outSlope: 1.0067103
        tangentMode: 0
      - serializedVersion: 2
        time: 0.50000006
        value: -0.78914046
        inSlope: 1.21029
        outSlope: 1.21029
        tangentMode: 0
      - serializedVersion: 2
        time: 0.5500001
        value: -0.7234841
        inSlope: 1.414239
        outSlope: 1.414239
        tangentMode: 0
      - serializedVersion: 2
        time: 0.6000001
        value: -0.6477165
        inSlope: 1.6107562
        outSlope: 1.6107562
        tangentMode: 0
      - serializedVersion: 2
        time: 0.6500001
        value: -0.56240845
        inSlope: 1.791936
        outSlope: 1.791936
        tangentMode: 0
      - serializedVersion: 2
        time: 0.7000001
        value: -0.46852288
        inSlope: 1.950237
        outSlope: 1.950237
        tangentMode: 0
      - serializedVersion: 2
        time: 0.7500001
        value: -0.3673847
        inSlope: 2.0789433
        outSlope: 2.0789433
        tangentMode: 0
      - serializedVersion: 2
        time: 0.80000013
        value: -0.2606285
        inSlope: 2.1725812
        outSlope: 2.1725812
        tangentMode: 0
      - serializedVersion: 2
        time: 0.85000014
        value: -0.15012652
        inSlope: 2.2272782
        outSlope: 2.2272782
        tangentMode: 0
      - serializedVersion: 2
        time: 0.90000015
        value: -0.037900623
        inSlope: 2.2410011
        outSlope: 2.2410011
        tangentMode: 0
      - serializedVersion: 2
        time: 0.95000017
        value: 0.073973656
        inSlope: 2.2136714
        outSlope: 2.2136714
        tangentMode: 0
      - serializedVersion: 2
        time: 1.0000001
        value: 0.18346643
        inSlope: 2.1471424
        outSlope: 2.1471424
        tangentMode: 0
      - serializedVersion: 2
        time: 1.0500001
        value: 0.2886877
        inSlope: 2.0450516
        outSlope: 2.0450516
        tangentMode: 0
      - serializedVersion: 2
        time: 1.1
        value: 0.3879714
        inSlope: 1.9125322
        outSlope: 1.9125322
        tangentMode: 0
      - serializedVersion: 2
        time: 1.15
        value: 0.47994074
        inSlope: 1.7558442
        outSlope: 1.7558442
        tangentMode: 0
      - serializedVersion: 2
        time: 1.1999999
        value: 0.56355566
        inSlope: 1.5819478
        outSlope: 1.5819478
        tangentMode: 0
      - serializedVersion: 2
        time: 1.2499999
        value: 0.6381354
        inSlope: 1.3980432
        outSlope: 1.3980432
        tangentMode: 0
      - serializedVersion: 2
        time: 1.2999998
        value: 0.70335984
        inSlope: 1.2111192
        outSlope: 1.2111192
        tangentMode: 0
      - serializedVersion: 2
        time: 1.3499998
        value: 0.7592472
        inSlope: 1.0275505
        outSlope: 1.0275505
        tangentMode: 0
      - serializedVersion: 2
        time: 1.3999997
        value: 0.8061148
        inSlope: 0.8527448
        outSlope: 0.8527448
        tangentMode: 0
      - serializedVersion: 2
        time: 1.4499997
        value: 0.8445216
        inSlope: 0.6908763
        outSlope: 0.6908763
        tangentMode: 0
      - serializedVersion: 2
        time: 1.4999996
        value: 0.87520236
        inSlope: 0.5446934
        outSlope: 0.5446934
        tangentMode: 0
      - serializedVersion: 2
        time: 1.5499996
        value: 0.89899087
        inSlope: 0.41538516
        outSlope: 0.41538516
        tangentMode: 0
      - serializedVersion: 2
        time: 1.5999995
        value: 0.91674083
        inSlope: 0.30252963
        outSlope: 0.30252963
        tangentMode: 0
      - serializedVersion: 2
        time: 1.6499995
        value: 0.9292438
        inSlope: 0.2178528
        outSlope: 0.2178528
        tangentMode: 0
      - serializedVersion: 2
        time: 1.6999995
        value: 0.9385261
        inSlope: 0.17078058
        outSlope: 0.17078058
        tangentMode: 0
      - serializedVersion: 2
        time: 1.7499994
        value: 0.94632185
        inSlope: 0.14338745
        outSlope: 0.14338745
        tangentMode: 0
      - serializedVersion: 2
        time: 1.7999994
        value: 0.9528648
        inSlope: 0.120347254
        outSlope: 0.120347254
        tangentMode: 0
      - serializedVersion: 2
        time: 1.8499993
        value: 0.95835656
        inSlope: 0.10105679
        outSlope: 0.10105679
        tangentMode: 0
      - serializedVersion: 2
        time: 1.8999993
        value: 0.9629705
        inSlope: 0.08498975
        outSlope: 0.08498975
        tangentMode: 0
      - serializedVersion: 2
        time: 1.9499992
        value: 0.9668555
        inSlope: 0.07168538
        outSlope: 0.07168538
        tangentMode: 0
      - serializedVersion: 2
        time: 1.9999992
        value: 0.970139
        inSlope: 0.060746662
        outSlope: 0.060746662
        tangentMode: 0
      - serializedVersion: 2
        time: 2.0499992
        value: 0.9729302
        inSlope: 0.051836953
        outSlope: 0.051836953
        tangentMode: 0
      - serializedVersion: 2
        time: 2.0999992
        value: 0.9753227
        inSlope: 0.044670746
        outSlope: 0.044670746
        tangentMode: 0
      - serializedVersion: 2
        time: 2.1499991
        value: 0.97739726
        inSlope: 0.039008893
        outSlope: 0.039008893
        tangentMode: 0
      - serializedVersion: 2
        time: 2.199999
        value: 0.9792236
        inSlope: 0.034648806
        outSlope: 0.034648806
        tangentMode: 0
      - serializedVersion: 2
        time: 2.249999
        value: 0.98086214
        inSlope: 0.031420022
        outSlope: 0.031420022
        tangentMode: 0
      - serializedVersion: 2
        time: 2.299999
        value: 0.9823656
        inSlope: 0.029175308
        outSlope: 0.029175308
        tangentMode: 0
      - serializedVersion: 2
        time: 2.349999
        value: 0.98377967
        inSlope: 0.02777877
        outSlope: 0.02777877
        tangentMode: 0
      - serializedVersion: 2
        time: 2.399999
        value: 0.9851435
        inSlope: 0.027101662
        outSlope: 0.027101662
        tangentMode: 0
      - serializedVersion: 2
        time: 2.4499989
        value: 0.98648983
        inSlope: 0.02701464
        outSlope: 0.02701464
        tangentMode: 0
      - serializedVersion: 2
        time: 2.4999988
        value: 0.98784494
        inSlope: 0.027375247
        outSlope: 0.027375247
        tangentMode: 0
      - serializedVersion: 2
        time: 2.5499988
        value: 0.98922735
        inSlope: 0.028021958
        outSlope: 0.028021958
        tangentMode: 0
      - serializedVersion: 2
        time: 2.5999987
        value: 0.99064714
        inSlope: 0.028765826
        outSlope: 0.028765826
        tangentMode: 0
      - serializedVersion: 2
        time: 2.6499987
        value: 0.99210393
        inSlope: 0.02938035
        outSlope: 0.02938035
        tangentMode: 0
      - serializedVersion: 2
        time: 2.6999986
        value: 0.99358517
        inSlope: 0.029593138
        outSlope: 0.029593138
        tangentMode: 0
      - serializedVersion: 2
        time: 2.7499986
        value: 0.99506325
        inSlope: 0.029078154
        outSlope: 0.029078154
        tangentMode: 0
      - serializedVersion: 2
        time: 2.7999985
        value: 0.996493
        inSlope: 0.027446177
        outSlope: 0.027446177
        tangentMode: 0
      - serializedVersion: 2
        time: 2.8499985
        value: 0.99780786
        inSlope: 0.024236463
        outSlope: 0.024236463
        tangentMode: 0
      - serializedVersion: 2
        time: 2.8999984
        value: 0.9989166
        inSlope: 0.018908996
        outSlope: 0.018908996
        tangentMode: 0
      - serializedVersion: 2
        time: 2.9499984
        value: 0.99969876
        inSlope: 0.01083365
        outSlope: 0.01083365
        tangentMode: 0
      - serializedVersion: 2
        time: 3
        value: 1
        inSlope: 0.006024642
        outSlope: 0.006024642
        tangentMode: 0
      m_PreInfinity: 2
      m_PostInfinity: 2
      m_RotationOrder: 4
    attribute: m_LocalRotation.w
    path: 
    classID: 4
    script: {fileID: 0}
  m_EulerEditorCurves:
  - curve:
      serializedVersion: 2
      m_Curve:
      - serializedVersion: 2
        time: 0
        value: 0
        inSlope: 0
        outSlope: 0
        tangentMode: 0
      m_PreInfinity: 2
      m_PostInfinity: 2
      m_RotationOrder: 4
    attribute: localEulerAnglesBaked.x
    path: 
    classID: 4
    script: {fileID: 0}
  - curve:
      serializedVersion: 2
      m_Curve:
      - serializedVersion: 2
        time: 0
        value: 0
        inSlope: 0
        outSlope: 0
        tangentMode: 0
      m_PreInfinity: 2
      m_PostInfinity: 2
      m_RotationOrder: 4
    attribute: localEulerAnglesBaked.y
    path: 
    classID: 4
    script: {fileID: 0}
  - curve:
      serializedVersion: 2
      m_Curve:
      - serializedVersion: 2
        time: 0
        value: 0
        inSlope: 52.731777
        outSlope: 52.731777
        tangentMode: 0
      - serializedVersion: 2
        time: 1.65
        value: 316.63455
        inSlope: 62.723637
        outSlope: 62.723637
        tangentMode: 0
      - serializedVersion: 2
        time: 3
        value: 360
        inSlope: 59.323307
        outSlope: 59.323307
        tangentMode: 0
      m_PreInfinity: 2
      m_PostInfinity: 2
      m_RotationOrder: 4
    attribute: localEulerAnglesBaked.z
    path: 
    classID: 4
    script: {fileID: 0}
  m_HasGenericRootTransform: 0
  m_HasMotionFloatCurves: 0
  m_GenerateMotionCurves: 0
  m_Events: []
