%YAML 1.1
%TAG !u! tag:unity3d.com,2011:
--- !u!74 &7400000
AnimationClip:
  m_ObjectHideFlags: 0
  m_PrefabParentObject: {fileID: 0}
  m_PrefabInternal: {fileID: 0}
  m_Name: Orbit Type - Shrinking Bomb Anim 2 (Legacy)
  serializedVersion: 6
  m_Legacy: 1
  m_Compressed: 0
  m_UseHighQualityCurve: 1
  m_RotationCurves: []
  m_CompressedRotationCurves: []
  m_EulerCurves: []
  m_PositionCurves: []
  m_ScaleCurves:
  - curve:
      serializedVersion: 2
      m_Curve:
      - serializedVersion: 2
        time: 0
        value: {x: 1, y: 1, z: 1}
        inSlope: {x: 0, y: 0, z: 0}
        outSlope: {x: -1.7478275, y: -1.7478275, z: -1.7478275}
        tangentMode: 0
      - serializedVersion: 2
        time: 0.083333336
        value: {x: 0.8543477, y: 0.8543477, z: 0.8543477}
        inSlope: {x: 0, y: 0, z: 0}
        outSlope: {x: 0, y: 0, z: 0}
        tangentMode: 0
      - serializedVersion: 2
        time: 0.16666667
        value: {x: 0.8543477, y: 0.8543477, z: 0.8543477}
        inSlope: {x: -0, y: -0, z: -0}
        outSlope: {x: -1.982606, y: -1.982606, z: -1.982606}
        tangentMode: 0
      - serializedVersion: 2
        time: 0.25
        value: {x: 0.68913054, y: 0.68913054, z: 0.68913054}
        inSlope: {x: 0, y: 0, z: 0}
        outSlope: {x: 0, y: 0, z: 0}
        tangentMode: 0
      - serializedVersion: 2
        time: 0.33333334
        value: {x: 0.68913054, y: 0.68913054, z: 0.68913054}
        inSlope: {x: -0, y: -0, z: -0}
        outSlope: {x: -2.0869572, y: -2.0869572, z: -2.0869572}
        tangentMode: 0
      - serializedVersion: 2
        time: 0.41666666
        value: {x: 0.5152175, y: 0.5152175, z: 0.5152175}
        inSlope: {x: 0, y: 0, z: 0}
        outSlope: {x: 0, y: 0, z: 0}
        tangentMode: 0
      - serializedVersion: 2
        time: 0.5
        value: {x: 0.5152175, y: 0.5152175, z: 0.5152175}
        inSlope: {x: -0, y: -0, z: -0}
        outSlope: {x: -2.052174, y: -2.052174, z: -2.052174}
        tangentMode: 0
      - serializedVersion: 2
        time: 0.5833333
        value: {x: 0.34420303, y: 0.34420303, z: 0.34420303}
        inSlope: {x: 0, y: 0, z: 0}
        outSlope: {x: 0, y: 0, z: 0}
        tangentMode: 0
      - serializedVersion: 2
        time: 0.6666667
        value: {x: 0.34420303, y: 0.34420303, z: 0.34420303}
        inSlope: {x: -0, y: -0, z: -0}
        outSlope: {x: -2.1217399, y: -2.1217399, z: -2.1217399}
        tangentMode: 0
      - serializedVersion: 2
        time: 0.75
        value: {x: 0.16739142, y: 0.16739142, z: 0.16739142}
        inSlope: {x: 0, y: 0, z: 0}
        outSlope: {x: 0, y: 0, z: 0}
        tangentMode: 0
      - serializedVersion: 2
        time: 0.8333333
        value: {x: 0.16739142, y: 0.16739142, z: 0.16739142}
        inSlope: {x: -0, y: -0, z: -0}
        outSlope: {x: -2.008696, y: -2.008696, z: -2.008696}
        tangentMode: 0
      - serializedVersion: 2
        time: 0.9166667
        value: {x: 0, y: 0, z: 0}
        inSlope: {x: 0, y: 0, z: 0}
        outSlope: {x: 0, y: 0, z: 0}
        tangentMode: 0
      - serializedVersion: 2
        time: 1
        value: {x: 0, y: 0, z: 0}
        inSlope: {x: -0, y: -0, z: -0}
        outSlope: {x: 2.4, y: 2.4, z: 2.4}
        tangentMode: 0
      m_PreInfinity: 2
      m_PostInfinity: 2
      m_RotationOrder: 4
    path: 
  m_FloatCurves: []
  m_PPtrCurves: []
  m_SampleRate: 60
  m_WrapMode: 0
  m_Bounds:
    m_Center: {x: 0, y: 0, z: 0}
    m_Extent: {x: 0, y: 0, z: 0}
  m_ClipBindingConstant:
    genericBindings: []
    pptrCurveMapping: []
  m_AnimationClipSettings:
    serializedVersion: 2
    m_AdditiveReferencePoseClip: {fileID: 0}
    m_AdditiveReferencePoseTime: 0
    m_StartTime: 0
    m_StopTime: 1
    m_OrientationOffsetY: 0
    m_Level: 0
    m_CycleOffset: 0
    m_HasAdditiveReferencePose: 0
    m_LoopTime: 1
    m_LoopBlend: 0
    m_LoopBlendOrientation: 0
    m_LoopBlendPositionY: 0
    m_LoopBlendPositionXZ: 0
    m_KeepOriginalOrientation: 0
    m_KeepOriginalPositionY: 1
    m_KeepOriginalPositionXZ: 0
    m_HeightFromFeet: 0
    m_Mirror: 0
  m_EditorCurves:
  - curve:
      serializedVersion: 2
      m_Curve:
      - serializedVersion: 2
        time: 0
        value: 1
        inSlope: 0
        outSlope: -1.7478275
        tangentMode: 69
      - serializedVersion: 2
        time: 0.083333336
        value: 0.8543477
        inSlope: 0
        outSlope: 0
        tangentMode: 0
      - serializedVersion: 2
        time: 0.16666667
        value: 0.8543477
        inSlope: -0
        outSlope: -1.982606
        tangentMode: 69
      - serializedVersion: 2
        time: 0.25
        value: 0.68913054
        inSlope: 0
        outSlope: 0
        tangentMode: 0
      - serializedVersion: 2
        time: 0.33333334
        value: 0.68913054
        inSlope: -0
        outSlope: -2.0869572
        tangentMode: 69
      - serializedVersion: 2
        time: 0.41666666
        value: 0.5152175
        inSlope: 0
        outSlope: 0
        tangentMode: 0
      - serializedVersion: 2
        time: 0.5
        value: 0.5152175
        inSlope: -0
        outSlope: -2.052174
        tangentMode: 69
      - serializedVersion: 2
        time: 0.5833333
        value: 0.34420303
        inSlope: 0
        outSlope: 0
        tangentMode: 0
      - serializedVersion: 2
        time: 0.6666667
        value: 0.34420303
        inSlope: -0
        outSlope: -2.1217399
        tangentMode: 69
      - serializedVersion: 2
        time: 0.75
        value: 0.16739142
        inSlope: 0
        outSlope: 0
        tangentMode: 0
      - serializedVersion: 2
        time: 0.8333333
        value: 0.16739142
        inSlope: -0
        outSlope: -2.008696
        tangentMode: 69
      - serializedVersion: 2
        time: 0.9166667
        value: 0
        inSlope: 0
        outSlope: 0
        tangentMode: 0
      - serializedVersion: 2
        time: 1
        value: 0
        inSlope: -0
        outSlope: 2.4
        tangentMode: 69
      m_PreInfinity: 2
      m_PostInfinity: 2
      m_RotationOrder: 4
    attribute: m_LocalScale.x
    path: 
    classID: 4
    script: {fileID: 0}
  - curve:
      serializedVersion: 2
      m_Curve:
      - serializedVersion: 2
        time: 0
        value: 1
        inSlope: 0
        outSlope: -1.7478275
        tangentMode: 69
      - serializedVersion: 2
        time: 0.083333336
        value: 0.8543477
        inSlope: 0
        outSlope: 0
        tangentMode: 0
      - serializedVersion: 2
        time: 0.16666667
        value: 0.8543477
        inSlope: -0
        outSlope: -1.982606
        tangentMode: 69
      - serializedVersion: 2
        time: 0.25
        value: 0.68913054
        inSlope: 0
        outSlope: 0
        tangentMode: 0
      - serializedVersion: 2
        time: 0.33333334
        value: 0.68913054
        inSlope: -0
        outSlope: -2.0869572
        tangentMode: 69
      - serializedVersion: 2
        time: 0.41666666
        value: 0.5152175
        inSlope: 0
        outSlope: 0
        tangentMode: 0
      - serializedVersion: 2
        time: 0.5
        value: 0.5152175
        inSlope: -0
        outSlope: -2.052174
        tangentMode: 69
      - serializedVersion: 2
        time: 0.5833333
        value: 0.34420303
        inSlope: 0
        outSlope: 0
        tangentMode: 0
      - serializedVersion: 2
        time: 0.6666667
        value: 0.34420303
        inSlope: -0
        outSlope: -2.1217399
        tangentMode: 69
      - serializedVersion: 2
        time: 0.75
        value: 0.16739142
        inSlope: 0
        outSlope: 0
        tangentMode: 0
      - serializedVersion: 2
        time: 0.8333333
        value: 0.16739142
        inSlope: -0
        outSlope: -2.008696
        tangentMode: 69
      - serializedVersion: 2
        time: 0.9166667
        value: 0
        inSlope: 0
        outSlope: 0
        tangentMode: 0
      - serializedVersion: 2
        time: 1
        value: 0
        inSlope: -0
        outSlope: 2.4
        tangentMode: 69
      m_PreInfinity: 2
      m_PostInfinity: 2
      m_RotationOrder: 4
    attribute: m_LocalScale.y
    path: 
    classID: 4
    script: {fileID: 0}
  - curve:
      serializedVersion: 2
      m_Curve:
      - serializedVersion: 2
        time: 0
        value: 1
        inSlope: 0
        outSlope: -1.7478275
        tangentMode: 69
      - serializedVersion: 2
        time: 0.083333336
        value: 0.8543477
        inSlope: 0
        outSlope: 0
        tangentMode: 0
      - serializedVersion: 2
        time: 0.16666667
        value: 0.8543477
        inSlope: -0
        outSlope: -1.982606
        tangentMode: 69
      - serializedVersion: 2
        time: 0.25
        value: 0.68913054
        inSlope: 0
        outSlope: 0
        tangentMode: 0
      - serializedVersion: 2
        time: 0.33333334
        value: 0.68913054
        inSlope: -0
        outSlope: -2.0869572
        tangentMode: 69
      - serializedVersion: 2
        time: 0.41666666
        value: 0.5152175
        inSlope: 0
        outSlope: 0
        tangentMode: 0
      - serializedVersion: 2
        time: 0.5
        value: 0.5152175
        inSlope: -0
        outSlope: -2.052174
        tangentMode: 69
      - serializedVersion: 2
        time: 0.5833333
        value: 0.34420303
        inSlope: 0
        outSlope: 0
        tangentMode: 0
      - serializedVersion: 2
        time: 0.6666667
        value: 0.34420303
        inSlope: -0
        outSlope: -2.1217399
        tangentMode: 69
      - serializedVersion: 2
        time: 0.75
        value: 0.16739142
        inSlope: 0
        outSlope: 0
        tangentMode: 0
      - serializedVersion: 2
        time: 0.8333333
        value: 0.16739142
        inSlope: -0
        outSlope: -2.008696
        tangentMode: 69
      - serializedVersion: 2
        time: 0.9166667
        value: 0
        inSlope: 0
        outSlope: 0
        tangentMode: 0
      - serializedVersion: 2
        time: 1
        value: 0
        inSlope: -0
        outSlope: 2.4
        tangentMode: 69
      m_PreInfinity: 2
      m_PostInfinity: 2
      m_RotationOrder: 4
    attribute: m_LocalScale.z
    path: 
    classID: 4
    script: {fileID: 0}
  m_EulerEditorCurves: []
  m_HasGenericRootTransform: 0
  m_HasMotionFloatCurves: 0
  m_GenerateMotionCurves: 0
  m_Events:
  - time: 1
    functionName: AnimEvent_OrbitScaleEnd
    data: 
    objectReferenceParameter: {fileID: 0}
    floatParameter: 0
    intParameter: 0
    messageOptions: 0
