%YAML 1.1
%TAG !u! tag:unity3d.com,2011:
--- !u!74 &7400000
AnimationClip:
  m_ObjectHideFlags: 0
  m_PrefabParentObject: {fileID: 0}
  m_PrefabInternal: {fileID: 0}
  m_Name: Player - Knife MenuToGame Anim 1 (Legacy)
  serializedVersion: 6
  m_Legacy: 1
  m_Compressed: 0
  m_UseHighQualityCurve: 1
  m_RotationCurves:
  - curve:
      serializedVersion: 2
      m_Curve:
      - serializedVersion: 2
        time: 0
        value: {x: -0, y: -0, z: 0.9238795, w: -0.38268343}
        inSlope: {x: 0, y: 0, z: 0.20829676, w: 0.50946593}
        outSlope: {x: 0, y: 0, z: 0.20829676, w: 0.50946593}
        tangentMode: 0
      - serializedVersion: 2
        time: 0.016666668
        value: {x: -0, y: -0, z: 0.9273511, w: -0.37419233}
        inSlope: {x: 0, y: 0, z: 0.39198694, w: 0.9962573}
        outSlope: {x: 0, y: 0, z: 0.39198694, w: 0.9962573}
        tangentMode: 0
      - serializedVersion: 2
        time: 0.033333335
        value: {x: -0, y: -0, z: 0.93694574, w: -0.34947485}
        inSlope: {x: 0, y: 0, z: 0.7064991, w: 1.9409186}
        outSlope: {x: 0, y: 0, z: 0.7064991, w: 1.9409186}
        tangentMode: 0
      - serializedVersion: 2
        time: 0.050000004
        value: {x: -0, y: -0, z: 0.9509011, w: -0.30949503}
        inSlope: {x: 0, y: 0, z: 0.8987886, w: 2.8301883}
        outSlope: {x: 0, y: 0, z: 0.8987886, w: 2.8301883}
        tangentMode: 0
      - serializedVersion: 2
        time: 0.06666667
        value: {x: -0, y: -0, z: 0.96690536, w: -0.25513524}
        inSlope: {x: 0, y: 0, z: 0.94158417, w: 3.6634111}
        outSlope: {x: 0, y: 0, z: 0.94158417, w: 3.6634111}
        tangentMode: 0
      - serializedVersion: 2
        time: 0.083333336
        value: {x: -0, y: -0, z: 0.9822872, w: -0.18738134}
        inSlope: {x: 0, y: 0, z: 0.8190376, w: 4.4294863}
        outSlope: {x: 0, y: 0, z: 0.8190376, w: 4.4294863}
        tangentMode: 0
      - serializedVersion: 2
        time: 0.1
        value: {x: -0, y: -0, z: 0.9942066, w: -0.1074857}
        inSlope: {x: 0, y: 0, z: 0.5270023, w: 5.108757}
        outSlope: {x: 0, y: 0, z: 0.5270023, w: 5.108757}
        tangentMode: 0
      - serializedVersion: 2
        time: 0.11666667
        value: {x: -0, y: -0, z: 0.99985397, w: -0.017089445}
        inSlope: {x: 0, y: 0, z: 0.07347112, w: 5.6760454}
        outSlope: {x: 0, y: 0, z: 0.07347112, w: 5.6760454}
        tangentMode: 0
      - serializedVersion: 2
        time: 0.13333334
        value: {x: -0, y: -0, z: 0.99665564, w: 0.081715845}
        inSlope: {x: 0, y: 0, z: -0.521366, w: 6.1044946}
        outSlope: {x: 0, y: 0, z: -0.521366, w: 6.1044946}
        tangentMode: 0
      - serializedVersion: 2
        time: 0.15
        value: {x: -0, y: -0, z: 0.9824751, w: 0.18639374}
        inSlope: {x: 0, y: 0, z: -1.2258787, w: 6.3697367}
        outSlope: {x: 0, y: 0, z: -1.2258787, w: 6.3697367}
        tangentMode: 0
      - serializedVersion: 2
        time: 0.16666667
        value: {x: -0, y: -0, z: 0.955793, w: 0.29404038}
        inSlope: {x: 0, y: 0, z: -1.9988217, w: 6.4539614}
        outSlope: {x: 0, y: 0, z: -1.9988217, w: 6.4539614}
        tangentMode: 0
      - serializedVersion: 2
        time: 0.18333334
        value: {x: -0, y: -0, z: 0.9158477, w: 0.40152577}
        inSlope: {x: 0, y: 0, z: -2.7922387, w: 6.349329}
        outSlope: {x: 0, y: 0, z: -2.7922387, w: 6.349329}
        tangentMode: 0
      - serializedVersion: 2
        time: 0.2
        value: {x: -0, y: -0, z: 0.8627184, w: 0.5056847}
        inSlope: {x: 0, y: 0, z: -3.5552416, w: 6.060152}
        outSlope: {x: 0, y: 0, z: -3.5552416, w: 6.060152}
        tangentMode: 0
      - serializedVersion: 2
        time: 0.21666667
        value: {x: -0, y: -0, z: 0.7973397, w: 0.6035308}
        inSlope: {x: 0, y: 0, z: -4.2383194, w: 5.603734}
        outSlope: {x: 0, y: 0, z: -4.2383194, w: 5.603734}
        tangentMode: 0
      - serializedVersion: 2
        time: 0.23333333
        value: {x: -0, y: -0, z: 0.7214411, w: 0.6924758}
        inSlope: {x: 0, y: 0, z: -4.797473, w: 5.0094748}
        outSlope: {x: 0, y: 0, z: -4.797473, w: 5.0094748}
        tangentMode: 0
      - serializedVersion: 2
        time: 0.25
        value: {x: -0, y: -0, z: 0.63742393, w: 0.7705133}
        inSlope: {x: 0, y: 0, z: -5.197767, w: 4.3164935}
        outSlope: {x: 0, y: 0, z: -5.197767, w: 4.3164935}
        tangentMode: 0
      - serializedVersion: 2
        time: 0.26666668
        value: {x: -0, y: -0, z: 0.54818213, w: 0.83635896}
        inSlope: {x: 0, y: 0, z: -5.4157457, w: 3.5701566}
        outSlope: {x: 0, y: 0, z: -5.4157457, w: 3.5701566}
        tangentMode: 0
      - serializedVersion: 2
        time: 0.28333336
        value: {x: -0, y: -0, z: 0.45689893, w: 0.8895186}
        inSlope: {x: 0, y: 0, z: -5.4402966, w: 2.8177655}
        outSlope: {x: 0, y: 0, z: -5.4402966, w: 2.8177655}
        tangentMode: 0
      - serializedVersion: 2
        time: 0.30000004
        value: {x: -0, y: -0, z: 0.36683875, w: 0.93028456}
        inSlope: {x: 0, y: 0, z: -5.272089, w: 2.1042447}
        outSlope: {x: 0, y: 0, z: -5.272089, w: 2.1042447}
        tangentMode: 0
      - serializedVersion: 2
        time: 0.31666672
        value: {x: -0, y: -0, z: 0.28116247, w: 0.9596602}
        inSlope: {x: 0, y: 0, z: -4.921547, w: 1.468147}
        outSlope: {x: 0, y: 0, z: -4.921547, w: 1.468147}
        tangentMode: 0
      - serializedVersion: 2
        time: 0.3333334
        value: {x: -0, y: -0, z: 0.20278706, w: 0.97922283}
        inSlope: {x: 0, y: 0, z: -4.405761, w: 0.93840045}
        outSlope: {x: 0, y: 0, z: -4.405761, w: 0.93840045}
        tangentMode: 0
      - serializedVersion: 2
        time: 0.35000008
        value: {x: -0, y: -0, z: 0.13430364, w: 0.9909402}
        inSlope: {x: 0, y: 0, z: -3.744883, w: 0.5320157}
        outSlope: {x: 0, y: 0, z: -3.744883, w: 0.5320157}
        tangentMode: 0
      - serializedVersion: 2
        time: 0.36666676
        value: {x: -0, y: -0, z: 0.07795752, w: 0.9969567}
        inSlope: {x: 0, y: 0, z: -2.9586847, w: 0.2526907}
        outSlope: {x: 0, y: 0, z: -2.9586847, w: 0.2526907}
        tangentMode: 0
      - serializedVersion: 2
        time: 0.38333344
        value: {x: -0, y: -0, z: 0.035680737, w: 0.99936324}
        inSlope: {x: 0, y: 0, z: -2.0635357, w: 0.09003632}
        outSlope: {x: 0, y: 0, z: -2.0635357, w: 0.09003632}
        tangentMode: 0
      - serializedVersion: 2
        time: 0.40000013
        value: {x: -0, y: -0, z: 0.009172939, w: 0.9999579}
        inSlope: {x: 0, y: 0, z: -1.0704238, w: 0.019102676}
        outSlope: {x: 0, y: 0, z: -1.0704238, w: 0.019102676}
        tangentMode: 0
      - serializedVersion: 2
        time: 0.4166668
        value: {x: -0, y: -0, z: -0.00000008742278, w: 1}
        inSlope: {x: 0, y: 0, z: -0.27519056, w: 0.0012624253}
        outSlope: {x: 0, y: 0, z: -0.27519056, w: 0.0012624253}
        tangentMode: 0
      - serializedVersion: 2
        time: 0.4333335
        value: {x: -0, y: -0, z: -0.00000008742278, w: 1}
        inSlope: {x: 0, y: 0, z: 0, w: 0}
        outSlope: {x: 0, y: 0, z: 0, w: 0}
        tangentMode: 0
      - serializedVersion: 2
        time: 0.45000017
        value: {x: -0, y: -0, z: -0.00000008742278, w: 1}
        inSlope: {x: 0, y: 0, z: 0, w: 0}
        outSlope: {x: 0, y: 0, z: 0, w: 0}
        tangentMode: 0
      - serializedVersion: 2
        time: 0.46666685
        value: {x: -0, y: -0, z: -0.00000008742278, w: 1}
        inSlope: {x: 0, y: 0, z: 0, w: 0}
        outSlope: {x: 0, y: 0, z: 0, w: 0}
        tangentMode: 0
      - serializedVersion: 2
        time: 0.48333353
        value: {x: -0, y: -0, z: -0.00000008742278, w: 1}
        inSlope: {x: 0, y: 0, z: 0, w: 0}
        outSlope: {x: 0, y: 0, z: 0, w: 0}
        tangentMode: 0
      - serializedVersion: 2
        time: 0.5
        value: {x: -0, y: -0, z: -0.00000008742278, w: 1}
        inSlope: {x: 0, y: 0, z: 0, w: 0}
        outSlope: {x: 0, y: 0, z: 0, w: 0}
        tangentMode: 0
      m_PreInfinity: 2
      m_PostInfinity: 2
      m_RotationOrder: 4
    path: 
  m_CompressedRotationCurves: []
  m_EulerCurves: []
  m_PositionCurves:
  - curve:
      serializedVersion: 2
      m_Curve:
      - serializedVersion: 2
        time: 0
        value: {x: 0, y: -67, z: 0}
        inSlope: {x: 0, y: 0, z: 0}
        outSlope: {x: 21.900427, y: -27.15976, z: 0}
        tangentMode: 0
      - serializedVersion: 2
        time: 0.083333336
        value: {x: 2.2812943, y: -69.76627, z: 0}
        inSlope: {x: 27.375532, y: -36.21309, z: 0}
        outSlope: {x: 27.375532, y: -36.21309, z: 0}
        tangentMode: 0
      - serializedVersion: 2
        time: 0.16666667
        value: {x: 3.6500711, y: -72.53255, z: 0}
        inSlope: {x: 0, y: -27.15976, z: 0}
        outSlope: {x: 0, y: -27.15976, z: 0}
        tangentMode: 0
      - serializedVersion: 2
        time: 0.25
        value: {x: 2.5859106, y: -73.78994, z: 0}
        inSlope: {x: -21.549255, y: 0, z: 0}
        outSlope: {x: -21.549255, y: 0, z: 0}
        tangentMode: 0
      - serializedVersion: 2
        time: 0.4
        value: {x: 0, y: -70.84232, z: 0}
        inSlope: {x: 0, y: 36.168438, z: 0}
        outSlope: {x: 0, y: 36.168438, z: 0}
        tangentMode: 0
      - serializedVersion: 2
        time: 0.6666667
        value: {x: 0, y: -57.492622, z: 0}
        inSlope: {x: 0, y: 54.052353, z: 0}
        outSlope: {x: 0, y: 54.052353, z: 0}
        tangentMode: 0
      - serializedVersion: 2
        time: 1.5
        value: {x: 0, y: 0, z: 0}
        inSlope: {x: 0, y: 72.28906, z: 0}
        outSlope: {x: 0, y: 72.28906, z: 0}
        tangentMode: 0
      m_PreInfinity: 2
      m_PostInfinity: 2
      m_RotationOrder: 4
    path: 
  m_ScaleCurves:
  - curve:
      serializedVersion: 2
      m_Curve:
      - serializedVersion: 2
        time: 0.083333336
        value: {x: 1.6, y: 1.6, z: 1.6}
        inSlope: {x: 0, y: 0, z: 0}
        outSlope: {x: 0, y: 0, z: 0}
        tangentMode: 0
      - serializedVersion: 2
        time: 0.6666667
        value: {x: 1, y: 1, z: 1}
        inSlope: {x: 0, y: 0, z: 0}
        outSlope: {x: 0, y: 0, z: 0}
        tangentMode: 0
      m_PreInfinity: 2
      m_PostInfinity: 2
      m_RotationOrder: 4
    path: 
  m_FloatCurves: []
  m_PPtrCurves: []
  m_SampleRate: 60
  m_WrapMode: 0
  m_Bounds:
    m_Center: {x: 0, y: 0, z: 0}
    m_Extent: {x: 0, y: 0, z: 0}
  m_ClipBindingConstant:
    genericBindings: []
    pptrCurveMapping: []
  m_AnimationClipSettings:
    serializedVersion: 2
    m_AdditiveReferencePoseClip: {fileID: 0}
    m_AdditiveReferencePoseTime: 0
    m_StartTime: 0
    m_StopTime: 1.5
    m_OrientationOffsetY: 0
    m_Level: 0
    m_CycleOffset: 0
    m_HasAdditiveReferencePose: 0
    m_LoopTime: 1
    m_LoopBlend: 0
    m_LoopBlendOrientation: 0
    m_LoopBlendPositionY: 0
    m_LoopBlendPositionXZ: 0
    m_KeepOriginalOrientation: 0
    m_KeepOriginalPositionY: 1
    m_KeepOriginalPositionXZ: 0
    m_HeightFromFeet: 0
    m_Mirror: 0
  m_EditorCurves:
  - curve:
      serializedVersion: 2
      m_Curve:
      - serializedVersion: 2
        time: 0
        value: 0
        inSlope: 0
        outSlope: 21.900427
        tangentMode: 65
      - serializedVersion: 2
        time: 0.16666667
        value: 3.6500711
        inSlope: 0
        outSlope: 0
        tangentMode: 136
      - serializedVersion: 2
        time: 0.4
        value: 0
        inSlope: 0
        outSlope: 0
        tangentMode: 136
      m_PreInfinity: 2
      m_PostInfinity: 2
      m_RotationOrder: 4
    attribute: m_LocalPosition.x
    path: 
    classID: 4
    script: {fileID: 0}
  - curve:
      serializedVersion: 2
      m_Curve:
      - serializedVersion: 2
        time: 0
        value: -67
        inSlope: 0
        outSlope: -27.15976
        tangentMode: 65
      - serializedVersion: 2
        time: 0.25
        value: -73.78994
        inSlope: 0
        outSlope: 0
        tangentMode: 136
      - serializedVersion: 2
        time: 0.6666667
        value: -57.492622
        inSlope: 54.052353
        outSlope: 54.052353
        tangentMode: 34
      - serializedVersion: 2
        time: 1.5
        value: 0
        inSlope: 72.28906
        outSlope: 72.28906
        tangentMode: 0
      m_PreInfinity: 2
      m_PostInfinity: 2
      m_RotationOrder: 4
    attribute: m_LocalPosition.y
    path: 
    classID: 4
    script: {fileID: 0}
  - curve:
      serializedVersion: 2
      m_Curve:
      - serializedVersion: 2
        time: 0
        value: 0
        inSlope: 0
        outSlope: 0
        tangentMode: 136
      - serializedVersion: 2
        time: 0.083333336
        value: 0
        inSlope: 0
        outSlope: 0
        tangentMode: 136
      - serializedVersion: 2
        time: 0.16666667
        value: 0
        inSlope: 0
        outSlope: 0
        tangentMode: 136
      m_PreInfinity: 2
      m_PostInfinity: 2
      m_RotationOrder: 4
    attribute: m_LocalPosition.z
    path: 
    classID: 4
    script: {fileID: 0}
  - curve:
      serializedVersion: 2
      m_Curve:
      - serializedVersion: 2
        time: 0.083333336
        value: 1.6
        inSlope: 0
        outSlope: 0
        tangentMode: 136
      - serializedVersion: 2
        time: 0.6666667
        value: 1
        inSlope: 0
        outSlope: 0
        tangentMode: 136
      m_PreInfinity: 2
      m_PostInfinity: 2
      m_RotationOrder: 4
    attribute: m_LocalScale.x
    path: 
    classID: 4
    script: {fileID: 0}
  - curve:
      serializedVersion: 2
      m_Curve:
      - serializedVersion: 2
        time: 0.083333336
        value: 1.6
        inSlope: 0
        outSlope: 0
        tangentMode: 136
      - serializedVersion: 2
        time: 0.6666667
        value: 1
        inSlope: 0
        outSlope: 0
        tangentMode: 136
      m_PreInfinity: 2
      m_PostInfinity: 2
      m_RotationOrder: 4
    attribute: m_LocalScale.y
    path: 
    classID: 4
    script: {fileID: 0}
  - curve:
      serializedVersion: 2
      m_Curve:
      - serializedVersion: 2
        time: 0.083333336
        value: 1.6
        inSlope: 0
        outSlope: 0
        tangentMode: 136
      - serializedVersion: 2
        time: 0.6666667
        value: 1
        inSlope: 0
        outSlope: 0
        tangentMode: 136
      m_PreInfinity: 2
      m_PostInfinity: 2
      m_RotationOrder: 4
    attribute: m_LocalScale.z
    path: 
    classID: 4
    script: {fileID: 0}
  - curve:
      serializedVersion: 2
      m_Curve:
      - serializedVersion: 2
        time: 0
        value: -0
        inSlope: 0
        outSlope: 0
        tangentMode: 0
      - serializedVersion: 2
        time: 0.016666668
        value: -0
        inSlope: 0
        outSlope: 0
        tangentMode: 0
      - serializedVersion: 2
        time: 0.033333335
        value: -0
        inSlope: 0
        outSlope: 0
        tangentMode: 0
      - serializedVersion: 2
        time: 0.050000004
        value: -0
        inSlope: 0
        outSlope: 0
        tangentMode: 0
      - serializedVersion: 2
        time: 0.06666667
        value: -0
        inSlope: 0
        outSlope: 0
        tangentMode: 0
      - serializedVersion: 2
        time: 0.083333336
        value: -0
        inSlope: 0
        outSlope: 0
        tangentMode: 0
      - serializedVersion: 2
        time: 0.1
        value: -0
        inSlope: 0
        outSlope: 0
        tangentMode: 0
      - serializedVersion: 2
        time: 0.11666667
        value: -0
        inSlope: 0
        outSlope: 0
        tangentMode: 0
      - serializedVersion: 2
        time: 0.13333334
        value: -0
        inSlope: 0
        outSlope: 0
        tangentMode: 0
      - serializedVersion: 2
        time: 0.15
        value: -0
        inSlope: 0
        outSlope: 0
        tangentMode: 0
      - serializedVersion: 2
        time: 0.16666667
        value: -0
        inSlope: 0
        outSlope: 0
        tangentMode: 0
      - serializedVersion: 2
        time: 0.18333334
        value: -0
        inSlope: 0
        outSlope: 0
        tangentMode: 0
      - serializedVersion: 2
        time: 0.2
        value: -0
        inSlope: 0
        outSlope: 0
        tangentMode: 0
      - serializedVersion: 2
        time: 0.21666667
        value: -0
        inSlope: 0
        outSlope: 0
        tangentMode: 0
      - serializedVersion: 2
        time: 0.23333333
        value: -0
        inSlope: 0
        outSlope: 0
        tangentMode: 0
      - serializedVersion: 2
        time: 0.25
        value: -0
        inSlope: 0
        outSlope: 0
        tangentMode: 0
      - serializedVersion: 2
        time: 0.26666668
        value: -0
        inSlope: 0
        outSlope: 0
        tangentMode: 0
      - serializedVersion: 2
        time: 0.28333336
        value: -0
        inSlope: 0
        outSlope: 0
        tangentMode: 0
      - serializedVersion: 2
        time: 0.30000004
        value: -0
        inSlope: 0
        outSlope: 0
        tangentMode: 0
      - serializedVersion: 2
        time: 0.31666672
        value: -0
        inSlope: 0
        outSlope: 0
        tangentMode: 0
      - serializedVersion: 2
        time: 0.3333334
        value: -0
        inSlope: 0
        outSlope: 0
        tangentMode: 0
      - serializedVersion: 2
        time: 0.35000008
        value: -0
        inSlope: 0
        outSlope: 0
        tangentMode: 0
      - serializedVersion: 2
        time: 0.36666676
        value: -0
        inSlope: 0
        outSlope: 0
        tangentMode: 0
      - serializedVersion: 2
        time: 0.38333344
        value: -0
        inSlope: 0
        outSlope: 0
        tangentMode: 0
      - serializedVersion: 2
        time: 0.40000013
        value: -0
        inSlope: 0
        outSlope: 0
        tangentMode: 0
      - serializedVersion: 2
        time: 0.4166668
        value: -0
        inSlope: 0
        outSlope: 0
        tangentMode: 0
      - serializedVersion: 2
        time: 0.4333335
        value: -0
        inSlope: 0
        outSlope: 0
        tangentMode: 0
      - serializedVersion: 2
        time: 0.45000017
        value: -0
        inSlope: 0
        outSlope: 0
        tangentMode: 0
      - serializedVersion: 2
        time: 0.46666685
        value: -0
        inSlope: 0
        outSlope: 0
        tangentMode: 0
      - serializedVersion: 2
        time: 0.48333353
        value: -0
        inSlope: 0
        outSlope: 0
        tangentMode: 0
      - serializedVersion: 2
        time: 0.5
        value: -0
        inSlope: 0
        outSlope: 0
        tangentMode: 0
      m_PreInfinity: 2
      m_PostInfinity: 2
      m_RotationOrder: 4
    attribute: m_LocalRotation.x
    path: 
    classID: 4
    script: {fileID: 0}
  - curve:
      serializedVersion: 2
      m_Curve:
      - serializedVersion: 2
        time: 0
        value: -0
        inSlope: 0
        outSlope: 0
        tangentMode: 0
      - serializedVersion: 2
        time: 0.016666668
        value: -0
        inSlope: 0
        outSlope: 0
        tangentMode: 0
      - serializedVersion: 2
        time: 0.033333335
        value: -0
        inSlope: 0
        outSlope: 0
        tangentMode: 0
      - serializedVersion: 2
        time: 0.050000004
        value: -0
        inSlope: 0
        outSlope: 0
        tangentMode: 0
      - serializedVersion: 2
        time: 0.06666667
        value: -0
        inSlope: 0
        outSlope: 0
        tangentMode: 0
      - serializedVersion: 2
        time: 0.083333336
        value: -0
        inSlope: 0
        outSlope: 0
        tangentMode: 0
      - serializedVersion: 2
        time: 0.1
        value: -0
        inSlope: 0
        outSlope: 0
        tangentMode: 0
      - serializedVersion: 2
        time: 0.11666667
        value: -0
        inSlope: 0
        outSlope: 0
        tangentMode: 0
      - serializedVersion: 2
        time: 0.13333334
        value: -0
        inSlope: 0
        outSlope: 0
        tangentMode: 0
      - serializedVersion: 2
        time: 0.15
        value: -0
        inSlope: 0
        outSlope: 0
        tangentMode: 0
      - serializedVersion: 2
        time: 0.16666667
        value: -0
        inSlope: 0
        outSlope: 0
        tangentMode: 0
      - serializedVersion: 2
        time: 0.18333334
        value: -0
        inSlope: 0
        outSlope: 0
        tangentMode: 0
      - serializedVersion: 2
        time: 0.2
        value: -0
        inSlope: 0
        outSlope: 0
        tangentMode: 0
      - serializedVersion: 2
        time: 0.21666667
        value: -0
        inSlope: 0
        outSlope: 0
        tangentMode: 0
      - serializedVersion: 2
        time: 0.23333333
        value: -0
        inSlope: 0
        outSlope: 0
        tangentMode: 0
      - serializedVersion: 2
        time: 0.25
        value: -0
        inSlope: 0
        outSlope: 0
        tangentMode: 0
      - serializedVersion: 2
        time: 0.26666668
        value: -0
        inSlope: 0
        outSlope: 0
        tangentMode: 0
      - serializedVersion: 2
        time: 0.28333336
        value: -0
        inSlope: 0
        outSlope: 0
        tangentMode: 0
      - serializedVersion: 2
        time: 0.30000004
        value: -0
        inSlope: 0
        outSlope: 0
        tangentMode: 0
      - serializedVersion: 2
        time: 0.31666672
        value: -0
        inSlope: 0
        outSlope: 0
        tangentMode: 0
      - serializedVersion: 2
        time: 0.3333334
        value: -0
        inSlope: 0
        outSlope: 0
        tangentMode: 0
      - serializedVersion: 2
        time: 0.35000008
        value: -0
        inSlope: 0
        outSlope: 0
        tangentMode: 0
      - serializedVersion: 2
        time: 0.36666676
        value: -0
        inSlope: 0
        outSlope: 0
        tangentMode: 0
      - serializedVersion: 2
        time: 0.38333344
        value: -0
        inSlope: 0
        outSlope: 0
        tangentMode: 0
      - serializedVersion: 2
        time: 0.40000013
        value: -0
        inSlope: 0
        outSlope: 0
        tangentMode: 0
      - serializedVersion: 2
        time: 0.4166668
        value: -0
        inSlope: 0
        outSlope: 0
        tangentMode: 0
      - serializedVersion: 2
        time: 0.4333335
        value: -0
        inSlope: 0
        outSlope: 0
        tangentMode: 0
      - serializedVersion: 2
        time: 0.45000017
        value: -0
        inSlope: 0
        outSlope: 0
        tangentMode: 0
      - serializedVersion: 2
        time: 0.46666685
        value: -0
        inSlope: 0
        outSlope: 0
        tangentMode: 0
      - serializedVersion: 2
        time: 0.48333353
        value: -0
        inSlope: 0
        outSlope: 0
        tangentMode: 0
      - serializedVersion: 2
        time: 0.5
        value: -0
        inSlope: 0
        outSlope: 0
        tangentMode: 0
      m_PreInfinity: 2
      m_PostInfinity: 2
      m_RotationOrder: 4
    attribute: m_LocalRotation.y
    path: 
    classID: 4
    script: {fileID: 0}
  - curve:
      serializedVersion: 2
      m_Curve:
      - serializedVersion: 2
        time: 0
        value: 0.9238795
        inSlope: 0.20829676
        outSlope: 0.20829676
        tangentMode: 0
      - serializedVersion: 2
        time: 0.016666668
        value: 0.9273511
        inSlope: 0.39198694
        outSlope: 0.39198694
        tangentMode: 0
      - serializedVersion: 2
        time: 0.033333335
        value: 0.93694574
        inSlope: 0.7064991
        outSlope: 0.7064991
        tangentMode: 0
      - serializedVersion: 2
        time: 0.050000004
        value: 0.9509011
        inSlope: 0.8987886
        outSlope: 0.8987886
        tangentMode: 0
      - serializedVersion: 2
        time: 0.06666667
        value: 0.96690536
        inSlope: 0.94158417
        outSlope: 0.94158417
        tangentMode: 0
      - serializedVersion: 2
        time: 0.083333336
        value: 0.9822872
        inSlope: 0.8190376
        outSlope: 0.8190376
        tangentMode: 0
      - serializedVersion: 2
        time: 0.1
        value: 0.9942066
        inSlope: 0.5270023
        outSlope: 0.5270023
        tangentMode: 0
      - serializedVersion: 2
        time: 0.11666667
        value: 0.99985397
        inSlope: 0.07347112
        outSlope: 0.07347112
        tangentMode: 0
      - serializedVersion: 2
        time: 0.13333334
        value: 0.99665564
        inSlope: -0.521366
        outSlope: -0.521366
        tangentMode: 0
      - serializedVersion: 2
        time: 0.15
        value: 0.9824751
        inSlope: -1.2258787
        outSlope: -1.2258787
        tangentMode: 0
      - serializedVersion: 2
        time: 0.16666667
        value: 0.955793
        inSlope: -1.9988217
        outSlope: -1.9988217
        tangentMode: 0
      - serializedVersion: 2
        time: 0.18333334
        value: 0.9158477
        inSlope: -2.7922387
        outSlope: -2.7922387
        tangentMode: 0
      - serializedVersion: 2
        time: 0.2
        value: 0.8627184
        inSlope: -3.5552416
        outSlope: -3.5552416
        tangentMode: 0
      - serializedVersion: 2
        time: 0.21666667
        value: 0.7973397
        inSlope: -4.2383194
        outSlope: -4.2383194
        tangentMode: 0
      - serializedVersion: 2
        time: 0.23333333
        value: 0.7214411
        inSlope: -4.797473
        outSlope: -4.797473
        tangentMode: 0
      - serializedVersion: 2
        time: 0.25
        value: 0.63742393
        inSlope: -5.197767
        outSlope: -5.197767
        tangentMode: 0
      - serializedVersion: 2
        time: 0.26666668
        value: 0.54818213
        inSlope: -5.4157457
        outSlope: -5.4157457
        tangentMode: 0
      - serializedVersion: 2
        time: 0.28333336
        value: 0.45689893
        inSlope: -5.4402966
        outSlope: -5.4402966
        tangentMode: 0
      - serializedVersion: 2
        time: 0.30000004
        value: 0.36683875
        inSlope: -5.272089
        outSlope: -5.272089
        tangentMode: 0
      - serializedVersion: 2
        time: 0.31666672
        value: 0.28116247
        inSlope: -4.921547
        outSlope: -4.921547
        tangentMode: 0
      - serializedVersion: 2
        time: 0.3333334
        value: 0.20278706
        inSlope: -4.405761
        outSlope: -4.405761
        tangentMode: 0
      - serializedVersion: 2
        time: 0.35000008
        value: 0.13430364
        inSlope: -3.744883
        outSlope: -3.744883
        tangentMode: 0
      - serializedVersion: 2
        time: 0.36666676
        value: 0.07795752
        inSlope: -2.9586847
        outSlope: -2.9586847
        tangentMode: 0
      - serializedVersion: 2
        time: 0.38333344
        value: 0.035680737
        inSlope: -2.0635357
        outSlope: -2.0635357
        tangentMode: 0
      - serializedVersion: 2
        time: 0.40000013
        value: 0.009172939
        inSlope: -1.0704238
        outSlope: -1.0704238
        tangentMode: 0
      - serializedVersion: 2
        time: 0.4166668
        value: -0.00000008742278
        inSlope: -0.27519056
        outSlope: -0.27519056
        tangentMode: 0
      - serializedVersion: 2
        time: 0.4333335
        value: -0.00000008742278
        inSlope: 0
        outSlope: 0
        tangentMode: 0
      - serializedVersion: 2
        time: 0.45000017
        value: -0.00000008742278
        inSlope: 0
        outSlope: 0
        tangentMode: 0
      - serializedVersion: 2
        time: 0.46666685
        value: -0.00000008742278
        inSlope: 0
        outSlope: 0
        tangentMode: 0
      - serializedVersion: 2
        time: 0.48333353
        value: -0.00000008742278
        inSlope: 0
        outSlope: 0
        tangentMode: 0
      - serializedVersion: 2
        time: 0.5
        value: -0.00000008742278
        inSlope: 0
        outSlope: 0
        tangentMode: 0
      m_PreInfinity: 2
      m_PostInfinity: 2
      m_RotationOrder: 4
    attribute: m_LocalRotation.z
    path: 
    classID: 4
    script: {fileID: 0}
  - curve:
      serializedVersion: 2
      m_Curve:
      - serializedVersion: 2
        time: 0
        value: -0.38268343
        inSlope: 0.50946593
        outSlope: 0.50946593
        tangentMode: 0
      - serializedVersion: 2
        time: 0.016666668
        value: -0.37419233
        inSlope: 0.9962573
        outSlope: 0.9962573
        tangentMode: 0
      - serializedVersion: 2
        time: 0.033333335
        value: -0.34947485
        inSlope: 1.9409186
        outSlope: 1.9409186
        tangentMode: 0
      - serializedVersion: 2
        time: 0.050000004
        value: -0.30949503
        inSlope: 2.8301883
        outSlope: 2.8301883
        tangentMode: 0
      - serializedVersion: 2
        time: 0.06666667
        value: -0.25513524
        inSlope: 3.6634111
        outSlope: 3.6634111
        tangentMode: 0
      - serializedVersion: 2
        time: 0.083333336
        value: -0.18738134
        inSlope: 4.4294863
        outSlope: 4.4294863
        tangentMode: 0
      - serializedVersion: 2
        time: 0.1
        value: -0.1074857
        inSlope: 5.108757
        outSlope: 5.108757
        tangentMode: 0
      - serializedVersion: 2
        time: 0.11666667
        value: -0.017089445
        inSlope: 5.6760454
        outSlope: 5.6760454
        tangentMode: 0
      - serializedVersion: 2
        time: 0.13333334
        value: 0.081715845
        inSlope: 6.1044946
        outSlope: 6.1044946
        tangentMode: 0
      - serializedVersion: 2
        time: 0.15
        value: 0.18639374
        inSlope: 6.3697367
        outSlope: 6.3697367
        tangentMode: 0
      - serializedVersion: 2
        time: 0.16666667
        value: 0.29404038
        inSlope: 6.4539614
        outSlope: 6.4539614
        tangentMode: 0
      - serializedVersion: 2
        time: 0.18333334
        value: 0.40152577
        inSlope: 6.349329
        outSlope: 6.349329
        tangentMode: 0
      - serializedVersion: 2
        time: 0.2
        value: 0.5056847
        inSlope: 6.060152
        outSlope: 6.060152
        tangentMode: 0
      - serializedVersion: 2
        time: 0.21666667
        value: 0.6035308
        inSlope: 5.603734
        outSlope: 5.603734
        tangentMode: 0
      - serializedVersion: 2
        time: 0.23333333
        value: 0.6924758
        inSlope: 5.0094748
        outSlope: 5.0094748
        tangentMode: 0
      - serializedVersion: 2
        time: 0.25
        value: 0.7705133
        inSlope: 4.3164935
        outSlope: 4.3164935
        tangentMode: 0
      - serializedVersion: 2
        time: 0.26666668
        value: 0.83635896
        inSlope: 3.5701566
        outSlope: 3.5701566
        tangentMode: 0
      - serializedVersion: 2
        time: 0.28333336
        value: 0.8895186
        inSlope: 2.8177655
        outSlope: 2.8177655
        tangentMode: 0
      - serializedVersion: 2
        time: 0.30000004
        value: 0.93028456
        inSlope: 2.1042447
        outSlope: 2.1042447
        tangentMode: 0
      - serializedVersion: 2
        time: 0.31666672
        value: 0.9596602
        inSlope: 1.468147
        outSlope: 1.468147
        tangentMode: 0
      - serializedVersion: 2
        time: 0.3333334
        value: 0.97922283
        inSlope: 0.93840045
        outSlope: 0.93840045
        tangentMode: 0
      - serializedVersion: 2
        time: 0.35000008
        value: 0.9909402
        inSlope: 0.5320157
        outSlope: 0.5320157
        tangentMode: 0
      - serializedVersion: 2
        time: 0.36666676
        value: 0.9969567
        inSlope: 0.2526907
        outSlope: 0.2526907
        tangentMode: 0
      - serializedVersion: 2
        time: 0.38333344
        value: 0.99936324
        inSlope: 0.09003632
        outSlope: 0.09003632
        tangentMode: 0
      - serializedVersion: 2
        time: 0.40000013
        value: 0.9999579
        inSlope: 0.019102676
        outSlope: 0.019102676
        tangentMode: 0
      - serializedVersion: 2
        time: 0.4166668
        value: 1
        inSlope: 0.0012624253
        outSlope: 0.0012624253
        tangentMode: 0
      - serializedVersion: 2
        time: 0.4333335
        value: 1
        inSlope: 0
        outSlope: 0
        tangentMode: 0
      - serializedVersion: 2
        time: 0.45000017
        value: 1
        inSlope: 0
        outSlope: 0
        tangentMode: 0
      - serializedVersion: 2
        time: 0.46666685
        value: 1
        inSlope: 0
        outSlope: 0
        tangentMode: 0
      - serializedVersion: 2
        time: 0.48333353
        value: 1
        inSlope: 0
        outSlope: 0
        tangentMode: 0
      - serializedVersion: 2
        time: 0.5
        value: 1
        inSlope: 0
        outSlope: 0
        tangentMode: 0
      m_PreInfinity: 2
      m_PostInfinity: 2
      m_RotationOrder: 4
    attribute: m_LocalRotation.w
    path: 
    classID: 4
    script: {fileID: 0}
  m_EulerEditorCurves:
  - curve:
      serializedVersion: 2
      m_Curve:
      - serializedVersion: 2
        time: 0
        value: 0
        inSlope: 0
        outSlope: 0
        tangentMode: 136
      - serializedVersion: 2
        time: 0.33333334
        value: 0
        inSlope: 0
        outSlope: 0
        tangentMode: 136
      - serializedVersion: 2
        time: 0.5
        value: 0
        inSlope: 0
        outSlope: 0
        tangentMode: 136
      m_PreInfinity: 2
      m_PostInfinity: 2
      m_RotationOrder: 4
    attribute: localEulerAnglesBaked.x
    path: 
    classID: 4
    script: {fileID: 0}
  - curve:
      serializedVersion: 2
      m_Curve:
      - serializedVersion: 2
        time: 0
        value: 0
        inSlope: 0
        outSlope: 0
        tangentMode: 136
      - serializedVersion: 2
        time: 0.33333334
        value: 0
        inSlope: 0
        outSlope: 0
        tangentMode: 136
      - serializedVersion: 2
        time: 0.5
        value: 0
        inSlope: 0
        outSlope: 0
        tangentMode: 136
      m_PreInfinity: 2
      m_PostInfinity: 2
      m_RotationOrder: 4
    attribute: localEulerAnglesBaked.y
    path: 
    classID: 4
    script: {fileID: 0}
  - curve:
      serializedVersion: 2
      m_Curve:
      - serializedVersion: 2
        time: 0
        value: -135
        inSlope: 0
        outSlope: 0
        tangentMode: 136
      - serializedVersion: 2
        time: 0.41666666
        value: -360
        inSlope: 0
        outSlope: 0
        tangentMode: 136
      m_PreInfinity: 2
      m_PostInfinity: 2
      m_RotationOrder: 4
    attribute: localEulerAnglesBaked.z
    path: 
    classID: 4
    script: {fileID: 0}
  m_HasGenericRootTransform: 0
  m_HasMotionFloatCurves: 0
  m_GenerateMotionCurves: 0
  m_Events:
  - time: 1.5
    functionName: AnimEvent_KnifeMenuToGameEnd
    data: 
    objectReferenceParameter: {fileID: 0}
    floatParameter: 0
    intParameter: 0
    messageOptions: 0
