%YAML 1.1
%TAG !u! tag:unity3d.com,2011:
--- !u!78 &1
TagManager:
  serializedVersion: 2
  tags:
  - Planet
  - Top Checker - Planet
  - Moon
  - Stars
  - Player Body
  - Background Planets
  - MenuKnife
  layers:
  - Default
  - TransparentFX
  - Ignore Raycast
  - 
  - Water
  - UI
  - 
  - 
  - 
  - Background
  - Planets
  - Player
  - 
  - 
  - 
  - 
  - 
  - 
  - 
  - 
  - 
  - 
  - 
  - 
  - 
  - 
  - 
  - 
  - 
  - 
  - 
  - 
  m_SortingLayers:
  - name: Default
    uniqueID: 0
    locked: 0
  - name: Background
    uniqueID: 3962967985
    locked: 0
  - name: Planets
    uniqueID: 3244056613
    locked: 0
  - name: Player
    uniqueID: 2824697593
    locked: 0
  - name: UI
    uniqueID: 2707355107
    locked: 0
