%YAML 1.1
%TAG !u! tag:unity3d.com,2011:
--- !u!74 &7400000
AnimationClip:
  m_ObjectHideFlags: 0
  m_PrefabParentObject: {fileID: 0}
  m_PrefabInternal: {fileID: 0}
  m_Name: Camera - Death Knife Anim 1 (Legacy)
  serializedVersion: 6
  m_Legacy: 1
  m_Compressed: 0
  m_UseHighQualityCurve: 1
  m_RotationCurves:
  - curve:
      serializedVersion: 2
      m_Curve:
      - serializedVersion: 2
        time: 0
        value: {x: -0, y: -0, z: -0, w: -1}
        inSlope: {x: 0, y: 0, z: -7.4225574, w: 0.4608893}
        outSlope: {x: 0, y: 0, z: -7.4225574, w: 0.4608893}
        tangentMode: 0
      - serializedVersion: 2
        time: 0.016666668
        value: {x: -0, y: -0, z: -0.1237093, w: -0.9923185}
        inSlope: {x: 0, y: 0, z: -7.2662153, w: 0.89326316}
        outSlope: {x: 0, y: 0, z: -7.2662153, w: 0.89326316}
        tangentMode: 0
      - serializedVersion: 2
        time: 0.033333335
        value: {x: -0, y: -0, z: -0.24220718, w: -0.97022456}
        inSlope: {x: 0, y: 0, z: -6.917139, w: 1.7153797}
        outSlope: {x: 0, y: 0, z: -6.917139, w: 1.7153797}
        tangentMode: 0
      - serializedVersion: 2
        time: 0.050000004
        value: {x: -0, y: -0, z: -0.35428062, w: -0.9351392}
        inSlope: {x: 0, y: 0, z: -6.5031643, w: 2.453329}
        outSlope: {x: 0, y: 0, z: -6.5031643, w: 2.453329}
        tangentMode: 0
      - serializedVersion: 2
        time: 0.06666667
        value: {x: -0, y: -0, z: -0.45897934, w: -0.8884469}
        inSlope: {x: 0, y: 0, z: -6.038716, w: 3.1101055}
        outSlope: {x: 0, y: 0, z: -6.038716, w: 3.1101055}
        tangentMode: 0
      - serializedVersion: 2
        time: 0.083333336
        value: {x: -0, y: -0, z: -0.55557114, w: -0.831469}
        inSlope: {x: 0, y: 0, z: -5.535594, w: 3.690003}
        outSlope: {x: 0, y: 0, z: -5.535594, w: 3.690003}
        tangentMode: 0
      - serializedVersion: 2
        time: 0.1
        value: {x: -0, y: -0, z: -0.64349914, w: -0.76544684}
        inSlope: {x: 0, y: 0, z: -5.003171, w: 4.1980367}
        outSlope: {x: 0, y: 0, z: -5.003171, w: 4.1980367}
        tangentMode: 0
      - serializedVersion: 2
        time: 0.11666667
        value: {x: -0, y: -0, z: -0.7223435, w: -0.69153446}
        inSlope: {x: 0, y: 0, z: -4.4486113, w: 4.639456}
        outSlope: {x: 0, y: 0, z: -4.4486113, w: 4.639456}
        tangentMode: 0
      - serializedVersion: 2
        time: 0.13333334
        value: {x: -0, y: -0, z: -0.7917862, w: -0.6107983}
        inSlope: {x: 0, y: 0, z: -3.8771343, w: 5.0193567}
        outSlope: {x: 0, y: 0, z: -3.8771343, w: 5.0193567}
        tangentMode: 0
      - serializedVersion: 2
        time: 0.15
        value: {x: -0, y: -0, z: -0.85158134, w: -0.52422255}
        inSlope: {x: 0, y: 0, z: -3.2922866, w: 5.342395}
        outSlope: {x: 0, y: 0, z: -3.2922866, w: 5.342395}
        tangentMode: 0
      - serializedVersion: 2
        time: 0.16666667
        value: {x: -0, y: -0, z: -0.9015291, w: -0.4327185}
        inSlope: {x: 0, y: 0, z: -2.696214, w: 5.612527}
        outSlope: {x: 0, y: 0, z: -2.696214, w: 5.612527}
        tangentMode: 0
      - serializedVersion: 2
        time: 0.18333334
        value: {x: -0, y: -0, z: -0.9414551, w: -0.33713832}
        inSlope: {x: 0, y: 0, z: -2.089947, w: 5.832842}
        outSlope: {x: 0, y: 0, z: -2.089947, w: 5.832842}
        tangentMode: 0
      - serializedVersion: 2
        time: 0.2
        value: {x: -0, y: -0, z: -0.97119397, w: -0.23829043}
        inSlope: {x: 0, y: 0, z: -1.473654, w: 6.005427}
        outSlope: {x: 0, y: 0, z: -1.473654, w: 6.005427}
        tangentMode: 0
      - serializedVersion: 2
        time: 0.21666667
        value: {x: -0, y: -0, z: -0.9905769, w: -0.13695744}
        inSlope: {x: 0, y: 0, z: -0.8469219, w: 6.131226}
        outSlope: {x: 0, y: 0, z: -0.8469219, w: 6.131226}
        tangentMode: 0
      - serializedVersion: 2
        time: 0.23333333
        value: {x: -0, y: -0, z: -0.9994247, w: -0.033916242}
        inSlope: {x: 0, y: 0, z: -0.20901206, w: 6.2100086}
        outSlope: {x: 0, y: 0, z: -0.20901206, w: 6.2100086}
        tangentMode: 0
      - serializedVersion: 2
        time: 0.25
        value: {x: -0, y: -0, z: -0.997544, w: 0.07004283}
        inSlope: {x: 0, y: 0, z: 0.44086543, w: 6.240285}
        outSlope: {x: 0, y: 0, z: 0.44086543, w: 6.240285}
        tangentMode: 0
      - serializedVersion: 2
        time: 0.26666668
        value: {x: -0, y: -0, z: -0.9847292, w: 0.17409334}
        inSlope: {x: 0, y: 0, z: 1.1032631, w: 6.2192564}
        outSlope: {x: 0, y: 0, z: 1.1032631, w: 6.2192564}
        tangentMode: 0
      - serializedVersion: 2
        time: 0.28333336
        value: {x: -0, y: -0, z: -0.9607685, w: 0.27735156}
        inSlope: {x: 0, y: 0, z: 1.7782137, w: 6.142899}
        outSlope: {x: 0, y: 0, z: 1.7782137, w: 6.142899}
        tangentMode: 0
      - serializedVersion: 2
        time: 0.30000004
        value: {x: -0, y: -0, z: -0.92545533, w: 0.3788568}
        inSlope: {x: 0, y: 0, z: 2.4648943, w: 6.005906}
        outSlope: {x: 0, y: 0, z: 2.4648943, w: 6.005906}
        tangentMode: 0
      - serializedVersion: 2
        time: 0.31666672
        value: {x: -0, y: -0, z: -0.8786053, w: 0.4775486}
        inSlope: {x: 0, y: 0, z: 3.1612935, w: 5.8018093}
        outSlope: {x: 0, y: 0, z: 3.1612935, w: 5.8018093}
        tangentMode: 0
      - serializedVersion: 2
        time: 0.3333334
        value: {x: -0, y: -0, z: -0.8200788, w: 0.5722506}
        inSlope: {x: 0, y: 0, z: 3.7857275, w: 5.4342422}
        outSlope: {x: 0, y: 0, z: 3.7857275, w: 5.4342422}
        tangentMode: 0
      - serializedVersion: 2
        time: 0.35000008
        value: {x: -0, y: -0, z: -0.7524143, w: 0.65869015}
        inSlope: {x: 0, y: 0, z: 4.215501, w: 4.841022}
        outSlope: {x: 0, y: 0, z: 4.215501, w: 4.841022}
        tangentMode: 0
      - serializedVersion: 2
        time: 0.36666676
        value: {x: -0, y: -0, z: -0.679562, w: 0.73361814}
        inSlope: {x: 0, y: 0, z: 4.4718556, w: 4.163536}
        outSlope: {x: 0, y: 0, z: 4.4718556, w: 4.163536}
        tangentMode: 0
      - serializedVersion: 2
        time: 0.38333344
        value: {x: -0, y: -0, z: -0.6033523, w: 0.7974748}
        inSlope: {x: 0, y: 0, z: 4.6262183, w: 3.5179558}
        outSlope: {x: 0, y: 0, z: 4.6262183, w: 3.5179558}
        tangentMode: 0
      - serializedVersion: 2
        time: 0.40000013
        value: {x: -0, y: -0, z: -0.52535456, w: 0.8508834}
        inSlope: {x: 0, y: 0, z: 4.69407, w: 2.913524}
        outSlope: {x: 0, y: 0, z: 4.69407, w: 2.913524}
        tangentMode: 0
      - serializedVersion: 2
        time: 0.4166668
        value: {x: -0, y: -0, z: -0.44688317, w: 0.89459234}
        inSlope: {x: 0, y: 0, z: 4.6901255, w: 2.3561757}
        outSlope: {x: 0, y: 0, z: 4.6901255, w: 2.3561757}
        tangentMode: 0
      - serializedVersion: 2
        time: 0.4333335
        value: {x: -0, y: -0, z: -0.36901692, w: 0.9294227}
        inSlope: {x: 0, y: 0, z: 4.627949, w: 1.8491099}
        outSlope: {x: 0, y: 0, z: 4.627949, w: 1.8491099}
        tangentMode: 0
      - serializedVersion: 2
        time: 0.45000017
        value: {x: -0, y: -0, z: -0.29261807, w: 0.9562294}
        inSlope: {x: 0, y: 0, z: 4.519861, w: 1.3934028}
        outSlope: {x: 0, y: 0, z: 4.519861, w: 1.3934028}
        tangentMode: 0
      - serializedVersion: 2
        time: 0.46666685
        value: {x: -0, y: -0, z: -0.21835475, w: 0.9758695}
        inSlope: {x: 0, y: 0, z: 4.3767486, w: 0.98843074}
        outSlope: {x: 0, y: 0, z: 4.3767486, w: 0.98843074}
        tangentMode: 0
      - serializedVersion: 2
        time: 0.48333353
        value: {x: -0, y: -0, z: -0.14672633, w: 0.9891771}
        inSlope: {x: 0, y: 0, z: 4.208052, w: 0.6323128}
        outSlope: {x: 0, y: 0, z: 4.208052, w: 0.6323128}
        tangentMode: 0
      - serializedVersion: 2
        time: 0.5000002
        value: {x: -0, y: -0, z: -0.07808635, w: 0.9969466}
        inSlope: {x: 0, y: 0, z: 4.021841, w: 0.32228023}
        outSlope: {x: 0, y: 0, z: 4.021841, w: 0.32228023}
        tangentMode: 0
      - serializedVersion: 2
        time: 0.5166668
        value: {x: -0, y: -0, z: -0.012665085, w: 0.9999198}
        inSlope: {x: 0, y: 0, z: 3.8249183, w: 0.05495851}
        outSlope: {x: 0, y: 0, z: 3.8249183, w: 0.05495851}
        tangentMode: 0
      - serializedVersion: 2
        time: 0.5333335
        value: {x: -0, y: -0, z: 0.04941081, w: 0.9987785}
        inSlope: {x: 0, y: 0, z: 3.6229162, w: -0.17338888}
        outSlope: {x: 0, y: 0, z: 3.6229162, w: -0.17338888}
        tangentMode: 0
      - serializedVersion: 2
        time: 0.55000013
        value: {x: -0, y: -0, z: 0.10809867, w: 0.99414015}
        inSlope: {x: 0, y: 0, z: 3.4203713, w: -0.36667442}
        outSlope: {x: 0, y: 0, z: 3.4203713, w: -0.36667442}
        tangentMode: 0
      - serializedVersion: 2
        time: 0.5666668
        value: {x: -0, y: -0, z: 0.16342308, w: 0.98655605}
        inSlope: {x: 0, y: 0, z: 3.2209218, w: -0.52884275}
        outSlope: {x: 0, y: 0, z: 3.2209218, w: -0.52884275}
        tangentMode: 0
      - serializedVersion: 2
        time: 0.58333343
        value: {x: -0, y: -0, z: 0.21546263, w: 0.9765121}
        inSlope: {x: 0, y: 0, z: 3.0273948, w: -0.66376334}
        outSlope: {x: 0, y: 0, z: 3.0273948, w: -0.66376334}
        tangentMode: 0
      - serializedVersion: 2
        time: 0.6000001
        value: {x: -0, y: -0, z: 0.26433614, w: 0.96443063}
        inSlope: {x: 0, y: 0, z: 2.8419309, w: -0.7751609}
        outSlope: {x: 0, y: 0, z: 2.8419309, w: -0.7751609}
        tangentMode: 0
      - serializedVersion: 2
        time: 0.61666673
        value: {x: -0, y: -0, z: 0.31019357, w: 0.9506734}
        inSlope: {x: 0, y: 0, z: 2.6660943, w: -0.86655104}
        outSlope: {x: 0, y: 0, z: 2.6660943, w: -0.86655104}
        tangentMode: 0
      - serializedVersion: 2
        time: 0.6333334
        value: {x: -0, y: -0, z: 0.35320586, w: 0.9355456}
        inSlope: {x: 0, y: 0, z: 2.5009594, w: -0.9412203}
        outSlope: {x: 0, y: 0, z: 2.5009594, w: -0.9412203}
        tangentMode: 0
      - serializedVersion: 2
        time: 0.65000004
        value: {x: -0, y: -0, z: 0.3935588, w: 0.9192994}
        inSlope: {x: 0, y: 0, z: 2.3472142, w: -1.0022101}
        outSlope: {x: 0, y: 0, z: 2.3472142, w: -1.0022101}
        tangentMode: 0
      - serializedVersion: 2
        time: 0.6666667
        value: {x: -0, y: -0, z: 0.43144625, w: 0.90213865}
        inSlope: {x: 0, y: 0, z: 2.2052357, w: -1.0523193}
        outSlope: {x: 0, y: 0, z: 2.2052357, w: -1.0523193}
        tangentMode: 0
      - serializedVersion: 2
        time: 0.68333334
        value: {x: -0, y: -0, z: 0.4670666, w: 0.88422215}
        inSlope: {x: 0, y: 0, z: 2.0751305, w: -1.0940974}
        outSlope: {x: 0, y: 0, z: 2.0751305, w: -1.0940974}
        tangentMode: 0
      - serializedVersion: 2
        time: 0.7
        value: {x: -0, y: -0, z: 0.5006172, w: 0.8656688}
        inSlope: {x: 0, y: 0, z: 1.956768, w: -1.1298441}
        outSlope: {x: 0, y: 0, z: 1.956768, w: -1.1298441}
        tangentMode: 0
      - serializedVersion: 2
        time: 0.71666664
        value: {x: -0, y: -0, z: 0.5322921, w: 0.8465607}
        inSlope: {x: 0, y: 0, z: 1.8498874, w: -1.1616569}
        outSlope: {x: 0, y: 0, z: 1.8498874, w: -1.1616569}
        tangentMode: 0
      - serializedVersion: 2
        time: 0.7333333
        value: {x: -0, y: -0, z: 0.56228006, w: 0.8269469}
        inSlope: {x: 0, y: 0, z: 1.754068, w: -1.1914258}
        outSlope: {x: 0, y: 0, z: 1.754068, w: -1.1914258}
        tangentMode: 0
      - serializedVersion: 2
        time: 0.74999994
        value: {x: -0, y: -0, z: 0.590761, w: 0.80684656}
        inSlope: {x: 0, y: 0, z: 1.6687934, w: -1.2208605}
        outSlope: {x: 0, y: 0, z: 1.6687934, w: -1.2208605}
        tangentMode: 0
      - serializedVersion: 2
        time: 0.7666666
        value: {x: -0, y: -0, z: 0.61790645, w: 0.7862516}
        inSlope: {x: 0, y: 0, z: 1.5934732, w: -1.2515199}
        outSlope: {x: 0, y: 0, z: 1.5934732, w: -1.2515199}
        tangentMode: 0
      - serializedVersion: 2
        time: 0.78333324
        value: {x: -0, y: -0, z: 0.64387673, w: 0.76512927}
        inSlope: {x: 0, y: 0, z: 1.5273907, w: -1.2848026}
        outSlope: {x: 0, y: 0, z: 1.5273907, w: -1.2848026}
        tangentMode: 0
      - serializedVersion: 2
        time: 0.7999999
        value: {x: -0, y: -0, z: 0.6688194, w: 0.7434249}
        inSlope: {x: 0, y: 0, z: 1.4697536, w: -1.3219602}
        outSlope: {x: 0, y: 0, z: 1.4697536, w: -1.3219602}
        tangentMode: 0
      - serializedVersion: 2
        time: 0.81666654
        value: {x: -0, y: -0, z: 0.6928685, w: 0.721064}
        inSlope: {x: 0, y: 0, z: 1.4197464, w: -1.36418}
        outSlope: {x: 0, y: 0, z: 1.4197464, w: -1.36418}
        tangentMode: 0
      - serializedVersion: 2
        time: 0.8333332
        value: {x: -0, y: -0, z: 0.71614426, w: 0.6979523}
        inSlope: {x: 0, y: 0, z: 1.3659395, w: -1.4010228}
        outSlope: {x: 0, y: 0, z: 1.3659395, w: -1.4010228}
        tangentMode: 0
      - serializedVersion: 2
        time: 0.84999985
        value: {x: -0, y: -0, z: 0.73839974, w: 0.67436326}
        inSlope: {x: 0, y: 0, z: 1.2958193, w: -1.4176847}
        outSlope: {x: 0, y: 0, z: 1.2958193, w: -1.4176847}
        tangentMode: 0
      - serializedVersion: 2
        time: 0.8666665
        value: {x: -0, y: -0, z: 0.7593382, w: 0.65069616}
        inSlope: {x: 0, y: 0, z: 1.2178063, w: -1.4199288}
        outSlope: {x: 0, y: 0, z: 1.2178063, w: -1.4199288}
        tangentMode: 0
      - serializedVersion: 2
        time: 0.88333315
        value: {x: -0, y: -0, z: 0.77899325, w: 0.62703234}
        inSlope: {x: 0, y: 0, z: 1.1419176, w: -1.4174361}
        outSlope: {x: 0, y: 0, z: 1.1419176, w: -1.4174361}
        tangentMode: 0
      - serializedVersion: 2
        time: 0.8999998
        value: {x: -0, y: -0, z: 0.7974021, w: 0.60344833}
        inSlope: {x: 0, y: 0, z: 1.0683248, w: -1.4104481}
        outSlope: {x: 0, y: 0, z: 1.0683248, w: -1.4104481}
        tangentMode: 0
      - serializedVersion: 2
        time: 0.91666645
        value: {x: -0, y: -0, z: 0.81460404, w: 0.58001745}
        inSlope: {x: 0, y: 0, z: 0.9971515, w: -1.3991756}
        outSlope: {x: 0, y: 0, z: 0.9971515, w: -1.3991756}
        tangentMode: 0
      - serializedVersion: 2
        time: 0.9333331
        value: {x: -0, y: -0, z: 0.83064044, w: 0.5568092}
        inSlope: {x: 0, y: 0, z: 0.9285387, w: -1.3838906}
        outSlope: {x: 0, y: 0, z: 0.9285387, w: -1.3838906}
        tangentMode: 0
      - serializedVersion: 2
        time: 0.94999975
        value: {x: -0, y: -0, z: 0.8455553, w: 0.5338878}
        inSlope: {x: 0, y: 0, z: 0.8625778, w: -1.3648076}
        outSlope: {x: 0, y: 0, z: 0.8625778, w: -1.3648076}
        tangentMode: 0
      - serializedVersion: 2
        time: 0.9666664
        value: {x: -0, y: -0, z: 0.859393, w: 0.51131564}
        inSlope: {x: 0, y: 0, z: 0.7993294, w: -1.3421322}
        outSlope: {x: 0, y: 0, z: 0.7993294, w: -1.3421322}
        tangentMode: 0
      - serializedVersion: 2
        time: 0.98333305
        value: {x: -0, y: -0, z: 0.8721996, w: 0.4891501}
        inSlope: {x: 0, y: 0, z: 0.7388778, w: -1.3161246}
        outSlope: {x: 0, y: 0, z: 0.7388778, w: -1.3161246}
        tangentMode: 0
      - serializedVersion: 2
        time: 0.9999997
        value: {x: -0, y: -0, z: 0.88402224, w: 0.46744487}
        inSlope: {x: 0, y: 0, z: 0.68124837, w: -1.2869737}
        outSlope: {x: 0, y: 0, z: 0.68124837, w: -1.2869737}
        tangentMode: 0
      - serializedVersion: 2
        time: 1.0166664
        value: {x: -0, y: -0, z: 0.8949079, w: 0.44625095}
        inSlope: {x: 0, y: 0, z: 0.626474, w: -1.2549195}
        outSlope: {x: 0, y: 0, z: 0.626474, w: -1.2549195}
        tangentMode: 0
      - serializedVersion: 2
        time: 1.0333331
        value: {x: -0, y: -0, z: 0.9049047, w: 0.42561418}
        inSlope: {x: 0, y: 0, z: 0.57456017, w: -1.2201498}
        outSlope: {x: 0, y: 0, z: 0.57456017, w: -1.2201498}
        tangentMode: 0
      - serializedVersion: 2
        time: 1.0499997
        value: {x: -0, y: -0, z: 0.9140599, w: 0.40557933}
        inSlope: {x: 0, y: 0, z: 0.5254792, w: -1.1828276}
        outSlope: {x: 0, y: 0, z: 0.5254792, w: -1.1828276}
        tangentMode: 0
      - serializedVersion: 2
        time: 1.0666664
        value: {x: -0, y: -0, z: 0.9224207, w: 0.38618663}
        inSlope: {x: 0, y: 0, z: 0.4792254, w: -1.1431818}
        outSlope: {x: 0, y: 0, z: 0.4792254, w: -1.1431818}
        tangentMode: 0
      - serializedVersion: 2
        time: 1.083333
        value: {x: -0, y: -0, z: 0.93003404, w: 0.3674733}
        inSlope: {x: 0, y: 0, z: 0.43575925, w: -1.1013733}
        outSlope: {x: 0, y: 0, z: 0.43575925, w: -1.1013733}
        tangentMode: 0
      - serializedVersion: 2
        time: 1.0999997
        value: {x: -0, y: -0, z: 0.936946, w: 0.34947422}
        inSlope: {x: 0, y: 0, z: 0.39501643, w: -1.0575423}
        outSlope: {x: 0, y: 0, z: 0.39501643, w: -1.0575423}
        tangentMode: 0
      - serializedVersion: 2
        time: 1.1166663
        value: {x: -0, y: -0, z: 0.94320124, w: 0.33222193}
        inSlope: {x: 0, y: 0, z: 0.35694695, w: -1.0118876}
        outSlope: {x: 0, y: 0, z: 0.35694695, w: -1.0118876}
        tangentMode: 0
      - serializedVersion: 2
        time: 1.133333
        value: {x: -0, y: -0, z: 0.9488442, w: 0.31574467}
        inSlope: {x: 0, y: 0, z: 0.32147735, w: -0.96455455}
        outSlope: {x: 0, y: 0, z: 0.32147735, w: -0.96455455}
        tangentMode: 0
      - serializedVersion: 2
        time: 1.1499996
        value: {x: -0, y: -0, z: 0.95391715, w: 0.30007014}
        inSlope: {x: 0, y: 0, z: 0.28851122, w: -0.9156561}
        outSlope: {x: 0, y: 0, z: 0.28851122, w: -0.9156561}
        tangentMode: 0
      - serializedVersion: 2
        time: 1.1666663
        value: {x: -0, y: -0, z: 0.9584612, w: 0.28522283}
        inSlope: {x: 0, y: 0, z: 0.25795007, w: -0.8653047}
        outSlope: {x: 0, y: 0, z: 0.25795007, w: -0.8653047}
        tangentMode: 0
      - serializedVersion: 2
        time: 1.1833329
        value: {x: -0, y: -0, z: 0.9625155, w: 0.27122667}
        inSlope: {x: 0, y: 0, z: 0.22970282, w: -0.8136596}
        outSlope: {x: 0, y: 0, z: 0.22970282, w: -0.8136596}
        tangentMode: 0
      - serializedVersion: 2
        time: 1.1999996
        value: {x: -0, y: -0, z: 0.966118, w: 0.25810087}
        inSlope: {x: 0, y: 0, z: 0.20365317, w: -0.760833}
        outSlope: {x: 0, y: 0, z: 0.20365317, w: -0.760833}
        tangentMode: 0
      - serializedVersion: 2
        time: 1.2166662
        value: {x: -0, y: -0, z: 0.9693039, w: 0.2458656}
        inSlope: {x: 0, y: 0, z: 0.17966884, w: -0.7068821}
        outSlope: {x: 0, y: 0, z: 0.17966884, w: -0.7068821}
        tangentMode: 0
      - serializedVersion: 2
        time: 1.2333329
        value: {x: -0, y: -0, z: 0.97210693, w: 0.23453815}
        inSlope: {x: 0, y: 0, z: 0.15763178, w: -0.6519393}
        outSlope: {x: 0, y: 0, z: 0.15763178, w: -0.6519393}
        tangentMode: 0
      - serializedVersion: 2
        time: 1.2499995
        value: {x: -0, y: -0, z: 0.9745583, w: 0.22413431}
        inSlope: {x: 0, y: 0, z: 0.13739717, w: -0.59607506}
        outSlope: {x: 0, y: 0, z: 0.13739717, w: -0.59607506}
        tangentMode: 0
      - serializedVersion: 2
        time: 1.2666662
        value: {x: -0, y: -0, z: 0.97668684, w: 0.214669}
        inSlope: {x: 0, y: 0, z: 0.11882555, w: -0.5393503}
        outSlope: {x: 0, y: 0, z: 0.11882555, w: -0.5393503}
        tangentMode: 0
      - serializedVersion: 2
        time: 1.2833328
        value: {x: -0, y: -0, z: 0.97851914, w: 0.20615599}
        inSlope: {x: 0, y: 0, z: 0.10176311, w: -0.48181906}
        outSlope: {x: 0, y: 0, z: 0.10176311, w: -0.48181906}
        tangentMode: 0
      - serializedVersion: 2
        time: 1.2999995
        value: {x: -0, y: -0, z: 0.98007894, w: 0.19860838}
        inSlope: {x: 0, y: 0, z: 0.08605965, w: -0.423586}
        outSlope: {x: 0, y: 0, z: 0.08605965, w: -0.423586}
        tangentMode: 0
      - serializedVersion: 2
        time: 1.3166661
        value: {x: -0, y: -0, z: 0.9813878, w: 0.19203646}
        inSlope: {x: 0, y: 0, z: 0.07155604, w: -0.36470568}
        outSlope: {x: 0, y: 0, z: 0.07155604, w: -0.36470568}
        tangentMode: 0
      - serializedVersion: 2
        time: 1.3333328
        value: {x: -0, y: -0, z: 0.98246413, w: 0.18645154}
        inSlope: {x: 0, y: 0, z: 0.058084182, w: -0.30521378}
        outSlope: {x: 0, y: 0, z: 0.058084182, w: -0.30521378}
        tangentMode: 0
      - serializedVersion: 2
        time: 1.3499994
        value: {x: -0, y: -0, z: 0.98332393, w: 0.18186268}
        inSlope: {x: 0, y: 0, z: 0.045468852, w: -0.24514252}
        outSlope: {x: 0, y: 0, z: 0.045468852, w: -0.24514252}
        tangentMode: 0
      - serializedVersion: 2
        time: 1.3666661
        value: {x: -0, y: -0, z: 0.98397976, w: 0.17828013}
        inSlope: {x: 0, y: 0, z: 0.033534795, w: -0.18454644}
        outSlope: {x: 0, y: 0, z: 0.033534795, w: -0.18454644}
        tangentMode: 0
      - serializedVersion: 2
        time: 1.3833327
        value: {x: -0, y: -0, z: 0.98444176, w: 0.17571114}
        inSlope: {x: 0, y: 0, z: 0.022097846, w: -0.12343627}
        outSlope: {x: 0, y: 0, z: 0.022097846, w: -0.12343627}
        tangentMode: 0
      - serializedVersion: 2
        time: 1.3999994
        value: {x: -0, y: -0, z: 0.98471636, w: 0.17416559}
        inSlope: {x: 0, y: 0, z: 0.010980876, w: -0.06188969}
        outSlope: {x: 0, y: 0, z: 0.010980876, w: -0.06188969}
        tangentMode: 0
      - serializedVersion: 2
        time: 1.4166666
        value: {x: -0, y: -0, z: 0.9848078, w: 0.17364813}
        inSlope: {x: 0, y: 0, z: 0.0054858206, w: -0.031046383}
        outSlope: {x: 0, y: 0, z: 0.0054858206, w: -0.031046383}
        tangentMode: 0
      m_PreInfinity: 2
      m_PostInfinity: 2
      m_RotationOrder: 4
    path: Gameover Knife & Camera Stuff/Dead Knife Mover/Dead Knife Sprite
  m_CompressedRotationCurves: []
  m_EulerCurves: []
  m_PositionCurves:
  - curve:
      serializedVersion: 2
      m_Curve:
      - serializedVersion: 2
        time: 0
        value: {x: 0, y: 0, z: 0}
        inSlope: {x: 0, y: 0, z: 0}
        outSlope: {x: -5.2015953, y: 17.286396, z: 0}
        tangentMode: 0
      - serializedVersion: 2
        time: 0.13333334
        value: {x: -0.7088643, y: 1.4081733, z: 0}
        inSlope: {x: -5.3000684, y: 4.606573, z: 0}
        outSlope: {x: -5.3000684, y: 4.606573, z: 0}
        tangentMode: 0
      - serializedVersion: 2
        time: 0.2
        value: {x: -1.0550901, y: 1.5553058, z: 0}
        inSlope: {x: -5.0538855, y: 0, z: 0}
        outSlope: {x: -5.0538855, y: 0, z: 0}
        tangentMode: 0
      - serializedVersion: 2
        time: 0.25
        value: {x: -1.3003988, y: 1.4585458, z: 0}
        inSlope: {x: -4.74, y: -3.8113222, z: 0}
        outSlope: {x: -4.74, y: -3.8113222, z: 0}
        tangentMode: 0
      - serializedVersion: 2
        time: 0.43333334
        value: {x: -2.2316284, y: -0.31603718, z: 0}
        inSlope: {x: -5.0564227, y: -14.753485, z: 0}
        outSlope: {x: -5.0564227, y: -14.753485, z: 0}
        tangentMode: 0
      - serializedVersion: 2
        time: 0.6666667
        value: {x: -3.16, y: -4.7292414, z: 0}
        inSlope: {x: -2.3139439, y: -21.787376, z: 0}
        outSlope: {x: -2.3139439, y: -21.787376, z: 0}
        tangentMode: 0
      - serializedVersion: 2
        time: 0.8333333
        value: {x: -3.4993072, y: -8.44, z: 0}
        inSlope: {x: -1.7613927, y: -22.085318, z: 0}
        outSlope: {x: -1.7613927, y: -22.085318, z: 0}
        tangentMode: 0
      - serializedVersion: 2
        time: 1.4166666
        value: {x: -4, y: -25, z: 0}
        inSlope: {x: 0, y: -28.388575, z: 0}
        outSlope: {x: 0, y: 0, z: 0}
        tangentMode: 0
      m_PreInfinity: 2
      m_PostInfinity: 2
      m_RotationOrder: 4
    path: Gameover Knife & Camera Stuff/Dead Knife Mover/Dead Knife Sprite
  m_ScaleCurves: []
  m_FloatCurves:
  - curve:
      serializedVersion: 2
      m_Curve:
      - serializedVersion: 2
        time: 0
        value: 1
        inSlope: Infinity
        outSlope: Infinity
        tangentMode: 103
      - serializedVersion: 2
        time: 1.4166666
        value: 0
        inSlope: Infinity
        outSlope: Infinity
        tangentMode: 103
      m_PreInfinity: 2
      m_PostInfinity: 2
      m_RotationOrder: 4
    attribute: m_IsActive
    path: Gameover Knife & Camera Stuff
    classID: 1
    script: {fileID: 0}
  m_PPtrCurves: []
  m_SampleRate: 60
  m_WrapMode: 0
  m_Bounds:
    m_Center: {x: 0, y: 0, z: 0}
    m_Extent: {x: 0, y: 0, z: 0}
  m_ClipBindingConstant:
    genericBindings: []
    pptrCurveMapping: []
  m_AnimationClipSettings:
    serializedVersion: 2
    m_AdditiveReferencePoseClip: {fileID: 0}
    m_AdditiveReferencePoseTime: 0
    m_StartTime: 0
    m_StopTime: 1.4166666
    m_OrientationOffsetY: 0
    m_Level: 0
    m_CycleOffset: 0
    m_HasAdditiveReferencePose: 0
    m_LoopTime: 1
    m_LoopBlend: 0
    m_LoopBlendOrientation: 0
    m_LoopBlendPositionY: 0
    m_LoopBlendPositionXZ: 0
    m_KeepOriginalOrientation: 0
    m_KeepOriginalPositionY: 1
    m_KeepOriginalPositionXZ: 0
    m_HeightFromFeet: 0
    m_Mirror: 0
  m_EditorCurves:
  - curve:
      serializedVersion: 2
      m_Curve:
      - serializedVersion: 2
        time: 0
        value: 0
        inSlope: 0
        outSlope: -5.2015953
        tangentMode: 65
      - serializedVersion: 2
        time: 0.25
        value: -1.3003988
        inSlope: -4.74
        outSlope: -4.74
        tangentMode: 136
      - serializedVersion: 2
        time: 0.6666667
        value: -3.16
        inSlope: -2.3139439
        outSlope: -2.3139439
        tangentMode: 136
      - serializedVersion: 2
        time: 1.4166666
        value: -4
        inSlope: 0
        outSlope: 0
        tangentMode: 136
      m_PreInfinity: 2
      m_PostInfinity: 2
      m_RotationOrder: 4
    attribute: m_LocalPosition.x
    path: Gameover Knife & Camera Stuff/Dead Knife Mover/Dead Knife Sprite
    classID: 4
    script: {fileID: 0}
  - curve:
      serializedVersion: 2
      m_Curve:
      - serializedVersion: 2
        time: 0
        value: 0
        inSlope: 0
        outSlope: 17.286396
        tangentMode: 1
      - serializedVersion: 2
        time: 0.2
        value: 1.5553058
        inSlope: 0
        outSlope: 0
        tangentMode: 0
      - serializedVersion: 2
        time: 0.8333333
        value: -8.44
        inSlope: -22.085318
        outSlope: -22.085318
        tangentMode: 34
      - serializedVersion: 2
        time: 1.4166666
        value: -25
        inSlope: -28.388575
        outSlope: 0
        tangentMode: 5
      m_PreInfinity: 2
      m_PostInfinity: 2
      m_RotationOrder: 4
    attribute: m_LocalPosition.y
    path: Gameover Knife & Camera Stuff/Dead Knife Mover/Dead Knife Sprite
    classID: 4
    script: {fileID: 0}
  - curve:
      serializedVersion: 2
      m_Curve:
      - serializedVersion: 2
        time: 0
        value: 0
        inSlope: 0
        outSlope: 0
        tangentMode: 136
      - serializedVersion: 2
        time: 0.13333334
        value: 0
        inSlope: 0
        outSlope: 0
        tangentMode: 136
      - serializedVersion: 2
        time: 0.43333334
        value: 0
        inSlope: 0
        outSlope: 0
        tangentMode: 136
      m_PreInfinity: 2
      m_PostInfinity: 2
      m_RotationOrder: 4
    attribute: m_LocalPosition.z
    path: Gameover Knife & Camera Stuff/Dead Knife Mover/Dead Knife Sprite
    classID: 4
    script: {fileID: 0}
  - curve:
      serializedVersion: 2
      m_Curve:
      - serializedVersion: 2
        time: 0
        value: -0
        inSlope: 0
        outSlope: 0
        tangentMode: 0
      - serializedVersion: 2
        time: 0.016666668
        value: -0
        inSlope: 0
        outSlope: 0
        tangentMode: 0
      - serializedVersion: 2
        time: 0.033333335
        value: -0
        inSlope: 0
        outSlope: 0
        tangentMode: 0
      - serializedVersion: 2
        time: 0.050000004
        value: -0
        inSlope: 0
        outSlope: 0
        tangentMode: 0
      - serializedVersion: 2
        time: 0.06666667
        value: -0
        inSlope: 0
        outSlope: 0
        tangentMode: 0
      - serializedVersion: 2
        time: 0.083333336
        value: -0
        inSlope: 0
        outSlope: 0
        tangentMode: 0
      - serializedVersion: 2
        time: 0.1
        value: -0
        inSlope: 0
        outSlope: 0
        tangentMode: 0
      - serializedVersion: 2
        time: 0.11666667
        value: -0
        inSlope: 0
        outSlope: 0
        tangentMode: 0
      - serializedVersion: 2
        time: 0.13333334
        value: -0
        inSlope: 0
        outSlope: 0
        tangentMode: 0
      - serializedVersion: 2
        time: 0.15
        value: -0
        inSlope: 0
        outSlope: 0
        tangentMode: 0
      - serializedVersion: 2
        time: 0.16666667
        value: -0
        inSlope: 0
        outSlope: 0
        tangentMode: 0
      - serializedVersion: 2
        time: 0.18333334
        value: -0
        inSlope: 0
        outSlope: 0
        tangentMode: 0
      - serializedVersion: 2
        time: 0.2
        value: -0
        inSlope: 0
        outSlope: 0
        tangentMode: 0
      - serializedVersion: 2
        time: 0.21666667
        value: -0
        inSlope: 0
        outSlope: 0
        tangentMode: 0
      - serializedVersion: 2
        time: 0.23333333
        value: -0
        inSlope: 0
        outSlope: 0
        tangentMode: 0
      - serializedVersion: 2
        time: 0.25
        value: -0
        inSlope: 0
        outSlope: 0
        tangentMode: 0
      - serializedVersion: 2
        time: 0.26666668
        value: -0
        inSlope: 0
        outSlope: 0
        tangentMode: 0
      - serializedVersion: 2
        time: 0.28333336
        value: -0
        inSlope: 0
        outSlope: 0
        tangentMode: 0
      - serializedVersion: 2
        time: 0.30000004
        value: -0
        inSlope: 0
        outSlope: 0
        tangentMode: 0
      - serializedVersion: 2
        time: 0.31666672
        value: -0
        inSlope: 0
        outSlope: 0
        tangentMode: 0
      - serializedVersion: 2
        time: 0.3333334
        value: -0
        inSlope: 0
        outSlope: 0
        tangentMode: 0
      - serializedVersion: 2
        time: 0.35000008
        value: -0
        inSlope: 0
        outSlope: 0
        tangentMode: 0
      - serializedVersion: 2
        time: 0.36666676
        value: -0
        inSlope: 0
        outSlope: 0
        tangentMode: 0
      - serializedVersion: 2
        time: 0.38333344
        value: -0
        inSlope: 0
        outSlope: 0
        tangentMode: 0
      - serializedVersion: 2
        time: 0.40000013
        value: -0
        inSlope: 0
        outSlope: 0
        tangentMode: 0
      - serializedVersion: 2
        time: 0.4166668
        value: -0
        inSlope: 0
        outSlope: 0
        tangentMode: 0
      - serializedVersion: 2
        time: 0.4333335
        value: -0
        inSlope: 0
        outSlope: 0
        tangentMode: 0
      - serializedVersion: 2
        time: 0.45000017
        value: -0
        inSlope: 0
        outSlope: 0
        tangentMode: 0
      - serializedVersion: 2
        time: 0.46666685
        value: -0
        inSlope: 0
        outSlope: 0
        tangentMode: 0
      - serializedVersion: 2
        time: 0.48333353
        value: -0
        inSlope: 0
        outSlope: 0
        tangentMode: 0
      - serializedVersion: 2
        time: 0.5000002
        value: -0
        inSlope: 0
        outSlope: 0
        tangentMode: 0
      - serializedVersion: 2
        time: 0.5166668
        value: -0
        inSlope: 0
        outSlope: 0
        tangentMode: 0
      - serializedVersion: 2
        time: 0.5333335
        value: -0
        inSlope: 0
        outSlope: 0
        tangentMode: 0
      - serializedVersion: 2
        time: 0.55000013
        value: -0
        inSlope: 0
        outSlope: 0
        tangentMode: 0
      - serializedVersion: 2
        time: 0.5666668
        value: -0
        inSlope: 0
        outSlope: 0
        tangentMode: 0
      - serializedVersion: 2
        time: 0.58333343
        value: -0
        inSlope: 0
        outSlope: 0
        tangentMode: 0
      - serializedVersion: 2
        time: 0.6000001
        value: -0
        inSlope: 0
        outSlope: 0
        tangentMode: 0
      - serializedVersion: 2
        time: 0.61666673
        value: -0
        inSlope: 0
        outSlope: 0
        tangentMode: 0
      - serializedVersion: 2
        time: 0.6333334
        value: -0
        inSlope: 0
        outSlope: 0
        tangentMode: 0
      - serializedVersion: 2
        time: 0.65000004
        value: -0
        inSlope: 0
        outSlope: 0
        tangentMode: 0
      - serializedVersion: 2
        time: 0.6666667
        value: -0
        inSlope: 0
        outSlope: 0
        tangentMode: 0
      - serializedVersion: 2
        time: 0.68333334
        value: -0
        inSlope: 0
        outSlope: 0
        tangentMode: 0
      - serializedVersion: 2
        time: 0.7
        value: -0
        inSlope: 0
        outSlope: 0
        tangentMode: 0
      - serializedVersion: 2
        time: 0.71666664
        value: -0
        inSlope: 0
        outSlope: 0
        tangentMode: 0
      - serializedVersion: 2
        time: 0.7333333
        value: -0
        inSlope: 0
        outSlope: 0
        tangentMode: 0
      - serializedVersion: 2
        time: 0.74999994
        value: -0
        inSlope: 0
        outSlope: 0
        tangentMode: 0
      - serializedVersion: 2
        time: 0.7666666
        value: -0
        inSlope: 0
        outSlope: 0
        tangentMode: 0
      - serializedVersion: 2
        time: 0.78333324
        value: -0
        inSlope: 0
        outSlope: 0
        tangentMode: 0
      - serializedVersion: 2
        time: 0.7999999
        value: -0
        inSlope: 0
        outSlope: 0
        tangentMode: 0
      - serializedVersion: 2
        time: 0.81666654
        value: -0
        inSlope: 0
        outSlope: 0
        tangentMode: 0
      - serializedVersion: 2
        time: 0.8333332
        value: -0
        inSlope: 0
        outSlope: 0
        tangentMode: 0
      - serializedVersion: 2
        time: 0.84999985
        value: -0
        inSlope: 0
        outSlope: 0
        tangentMode: 0
      - serializedVersion: 2
        time: 0.8666665
        value: -0
        inSlope: 0
        outSlope: 0
        tangentMode: 0
      - serializedVersion: 2
        time: 0.88333315
        value: -0
        inSlope: 0
        outSlope: 0
        tangentMode: 0
      - serializedVersion: 2
        time: 0.8999998
        value: -0
        inSlope: 0
        outSlope: 0
        tangentMode: 0
      - serializedVersion: 2
        time: 0.91666645
        value: -0
        inSlope: 0
        outSlope: 0
        tangentMode: 0
      - serializedVersion: 2
        time: 0.9333331
        value: -0
        inSlope: 0
        outSlope: 0
        tangentMode: 0
      - serializedVersion: 2
        time: 0.94999975
        value: -0
        inSlope: 0
        outSlope: 0
        tangentMode: 0
      - serializedVersion: 2
        time: 0.9666664
        value: -0
        inSlope: 0
        outSlope: 0
        tangentMode: 0
      - serializedVersion: 2
        time: 0.98333305
        value: -0
        inSlope: 0
        outSlope: 0
        tangentMode: 0
      - serializedVersion: 2
        time: 0.9999997
        value: -0
        inSlope: 0
        outSlope: 0
        tangentMode: 0
      - serializedVersion: 2
        time: 1.0166664
        value: -0
        inSlope: 0
        outSlope: 0
        tangentMode: 0
      - serializedVersion: 2
        time: 1.0333331
        value: -0
        inSlope: 0
        outSlope: 0
        tangentMode: 0
      - serializedVersion: 2
        time: 1.0499997
        value: -0
        inSlope: 0
        outSlope: 0
        tangentMode: 0
      - serializedVersion: 2
        time: 1.0666664
        value: -0
        inSlope: 0
        outSlope: 0
        tangentMode: 0
      - serializedVersion: 2
        time: 1.083333
        value: -0
        inSlope: 0
        outSlope: 0
        tangentMode: 0
      - serializedVersion: 2
        time: 1.0999997
        value: -0
        inSlope: 0
        outSlope: 0
        tangentMode: 0
      - serializedVersion: 2
        time: 1.1166663
        value: -0
        inSlope: 0
        outSlope: 0
        tangentMode: 0
      - serializedVersion: 2
        time: 1.133333
        value: -0
        inSlope: 0
        outSlope: 0
        tangentMode: 0
      - serializedVersion: 2
        time: 1.1499996
        value: -0
        inSlope: 0
        outSlope: 0
        tangentMode: 0
      - serializedVersion: 2
        time: 1.1666663
        value: -0
        inSlope: 0
        outSlope: 0
        tangentMode: 0
      - serializedVersion: 2
        time: 1.1833329
        value: -0
        inSlope: 0
        outSlope: 0
        tangentMode: 0
      - serializedVersion: 2
        time: 1.1999996
        value: -0
        inSlope: 0
        outSlope: 0
        tangentMode: 0
      - serializedVersion: 2
        time: 1.2166662
        value: -0
        inSlope: 0
        outSlope: 0
        tangentMode: 0
      - serializedVersion: 2
        time: 1.2333329
        value: -0
        inSlope: 0
        outSlope: 0
        tangentMode: 0
      - serializedVersion: 2
        time: 1.2499995
        value: -0
        inSlope: 0
        outSlope: 0
        tangentMode: 0
      - serializedVersion: 2
        time: 1.2666662
        value: -0
        inSlope: 0
        outSlope: 0
        tangentMode: 0
      - serializedVersion: 2
        time: 1.2833328
        value: -0
        inSlope: 0
        outSlope: 0
        tangentMode: 0
      - serializedVersion: 2
        time: 1.2999995
        value: -0
        inSlope: 0
        outSlope: 0
        tangentMode: 0
      - serializedVersion: 2
        time: 1.3166661
        value: -0
        inSlope: 0
        outSlope: 0
        tangentMode: 0
      - serializedVersion: 2
        time: 1.3333328
        value: -0
        inSlope: 0
        outSlope: 0
        tangentMode: 0
      - serializedVersion: 2
        time: 1.3499994
        value: -0
        inSlope: 0
        outSlope: 0
        tangentMode: 0
      - serializedVersion: 2
        time: 1.3666661
        value: -0
        inSlope: 0
        outSlope: 0
        tangentMode: 0
      - serializedVersion: 2
        time: 1.3833327
        value: -0
        inSlope: 0
        outSlope: 0
        tangentMode: 0
      - serializedVersion: 2
        time: 1.3999994
        value: -0
        inSlope: 0
        outSlope: 0
        tangentMode: 0
      - serializedVersion: 2
        time: 1.4166666
        value: -0
        inSlope: 0
        outSlope: 0
        tangentMode: 0
      m_PreInfinity: 2
      m_PostInfinity: 2
      m_RotationOrder: 4
    attribute: m_LocalRotation.x
    path: Gameover Knife & Camera Stuff/Dead Knife Mover/Dead Knife Sprite
    classID: 4
    script: {fileID: 0}
  - curve:
      serializedVersion: 2
      m_Curve:
      - serializedVersion: 2
        time: 0
        value: -0
        inSlope: 0
        outSlope: 0
        tangentMode: 0
      - serializedVersion: 2
        time: 0.016666668
        value: -0
        inSlope: 0
        outSlope: 0
        tangentMode: 0
      - serializedVersion: 2
        time: 0.033333335
        value: -0
        inSlope: 0
        outSlope: 0
        tangentMode: 0
      - serializedVersion: 2
        time: 0.050000004
        value: -0
        inSlope: 0
        outSlope: 0
        tangentMode: 0
      - serializedVersion: 2
        time: 0.06666667
        value: -0
        inSlope: 0
        outSlope: 0
        tangentMode: 0
      - serializedVersion: 2
        time: 0.083333336
        value: -0
        inSlope: 0
        outSlope: 0
        tangentMode: 0
      - serializedVersion: 2
        time: 0.1
        value: -0
        inSlope: 0
        outSlope: 0
        tangentMode: 0
      - serializedVersion: 2
        time: 0.11666667
        value: -0
        inSlope: 0
        outSlope: 0
        tangentMode: 0
      - serializedVersion: 2
        time: 0.13333334
        value: -0
        inSlope: 0
        outSlope: 0
        tangentMode: 0
      - serializedVersion: 2
        time: 0.15
        value: -0
        inSlope: 0
        outSlope: 0
        tangentMode: 0
      - serializedVersion: 2
        time: 0.16666667
        value: -0
        inSlope: 0
        outSlope: 0
        tangentMode: 0
      - serializedVersion: 2
        time: 0.18333334
        value: -0
        inSlope: 0
        outSlope: 0
        tangentMode: 0
      - serializedVersion: 2
        time: 0.2
        value: -0
        inSlope: 0
        outSlope: 0
        tangentMode: 0
      - serializedVersion: 2
        time: 0.21666667
        value: -0
        inSlope: 0
        outSlope: 0
        tangentMode: 0
      - serializedVersion: 2
        time: 0.23333333
        value: -0
        inSlope: 0
        outSlope: 0
        tangentMode: 0
      - serializedVersion: 2
        time: 0.25
        value: -0
        inSlope: 0
        outSlope: 0
        tangentMode: 0
      - serializedVersion: 2
        time: 0.26666668
        value: -0
        inSlope: 0
        outSlope: 0
        tangentMode: 0
      - serializedVersion: 2
        time: 0.28333336
        value: -0
        inSlope: 0
        outSlope: 0
        tangentMode: 0
      - serializedVersion: 2
        time: 0.30000004
        value: -0
        inSlope: 0
        outSlope: 0
        tangentMode: 0
      - serializedVersion: 2
        time: 0.31666672
        value: -0
        inSlope: 0
        outSlope: 0
        tangentMode: 0
      - serializedVersion: 2
        time: 0.3333334
        value: -0
        inSlope: 0
        outSlope: 0
        tangentMode: 0
      - serializedVersion: 2
        time: 0.35000008
        value: -0
        inSlope: 0
        outSlope: 0
        tangentMode: 0
      - serializedVersion: 2
        time: 0.36666676
        value: -0
        inSlope: 0
        outSlope: 0
        tangentMode: 0
      - serializedVersion: 2
        time: 0.38333344
        value: -0
        inSlope: 0
        outSlope: 0
        tangentMode: 0
      - serializedVersion: 2
        time: 0.40000013
        value: -0
        inSlope: 0
        outSlope: 0
        tangentMode: 0
      - serializedVersion: 2
        time: 0.4166668
        value: -0
        inSlope: 0
        outSlope: 0
        tangentMode: 0
      - serializedVersion: 2
        time: 0.4333335
        value: -0
        inSlope: 0
        outSlope: 0
        tangentMode: 0
      - serializedVersion: 2
        time: 0.45000017
        value: -0
        inSlope: 0
        outSlope: 0
        tangentMode: 0
      - serializedVersion: 2
        time: 0.46666685
        value: -0
        inSlope: 0
        outSlope: 0
        tangentMode: 0
      - serializedVersion: 2
        time: 0.48333353
        value: -0
        inSlope: 0
        outSlope: 0
        tangentMode: 0
      - serializedVersion: 2
        time: 0.5000002
        value: -0
        inSlope: 0
        outSlope: 0
        tangentMode: 0
      - serializedVersion: 2
        time: 0.5166668
        value: -0
        inSlope: 0
        outSlope: 0
        tangentMode: 0
      - serializedVersion: 2
        time: 0.5333335
        value: -0
        inSlope: 0
        outSlope: 0
        tangentMode: 0
      - serializedVersion: 2
        time: 0.55000013
        value: -0
        inSlope: 0
        outSlope: 0
        tangentMode: 0
      - serializedVersion: 2
        time: 0.5666668
        value: -0
        inSlope: 0
        outSlope: 0
        tangentMode: 0
      - serializedVersion: 2
        time: 0.58333343
        value: -0
        inSlope: 0
        outSlope: 0
        tangentMode: 0
      - serializedVersion: 2
        time: 0.6000001
        value: -0
        inSlope: 0
        outSlope: 0
        tangentMode: 0
      - serializedVersion: 2
        time: 0.61666673
        value: -0
        inSlope: 0
        outSlope: 0
        tangentMode: 0
      - serializedVersion: 2
        time: 0.6333334
        value: -0
        inSlope: 0
        outSlope: 0
        tangentMode: 0
      - serializedVersion: 2
        time: 0.65000004
        value: -0
        inSlope: 0
        outSlope: 0
        tangentMode: 0
      - serializedVersion: 2
        time: 0.6666667
        value: -0
        inSlope: 0
        outSlope: 0
        tangentMode: 0
      - serializedVersion: 2
        time: 0.68333334
        value: -0
        inSlope: 0
        outSlope: 0
        tangentMode: 0
      - serializedVersion: 2
        time: 0.7
        value: -0
        inSlope: 0
        outSlope: 0
        tangentMode: 0
      - serializedVersion: 2
        time: 0.71666664
        value: -0
        inSlope: 0
        outSlope: 0
        tangentMode: 0
      - serializedVersion: 2
        time: 0.7333333
        value: -0
        inSlope: 0
        outSlope: 0
        tangentMode: 0
      - serializedVersion: 2
        time: 0.74999994
        value: -0
        inSlope: 0
        outSlope: 0
        tangentMode: 0
      - serializedVersion: 2
        time: 0.7666666
        value: -0
        inSlope: 0
        outSlope: 0
        tangentMode: 0
      - serializedVersion: 2
        time: 0.78333324
        value: -0
        inSlope: 0
        outSlope: 0
        tangentMode: 0
      - serializedVersion: 2
        time: 0.7999999
        value: -0
        inSlope: 0
        outSlope: 0
        tangentMode: 0
      - serializedVersion: 2
        time: 0.81666654
        value: -0
        inSlope: 0
        outSlope: 0
        tangentMode: 0
      - serializedVersion: 2
        time: 0.8333332
        value: -0
        inSlope: 0
        outSlope: 0
        tangentMode: 0
      - serializedVersion: 2
        time: 0.84999985
        value: -0
        inSlope: 0
        outSlope: 0
        tangentMode: 0
      - serializedVersion: 2
        time: 0.8666665
        value: -0
        inSlope: 0
        outSlope: 0
        tangentMode: 0
      - serializedVersion: 2
        time: 0.88333315
        value: -0
        inSlope: 0
        outSlope: 0
        tangentMode: 0
      - serializedVersion: 2
        time: 0.8999998
        value: -0
        inSlope: 0
        outSlope: 0
        tangentMode: 0
      - serializedVersion: 2
        time: 0.91666645
        value: -0
        inSlope: 0
        outSlope: 0
        tangentMode: 0
      - serializedVersion: 2
        time: 0.9333331
        value: -0
        inSlope: 0
        outSlope: 0
        tangentMode: 0
      - serializedVersion: 2
        time: 0.94999975
        value: -0
        inSlope: 0
        outSlope: 0
        tangentMode: 0
      - serializedVersion: 2
        time: 0.9666664
        value: -0
        inSlope: 0
        outSlope: 0
        tangentMode: 0
      - serializedVersion: 2
        time: 0.98333305
        value: -0
        inSlope: 0
        outSlope: 0
        tangentMode: 0
      - serializedVersion: 2
        time: 0.9999997
        value: -0
        inSlope: 0
        outSlope: 0
        tangentMode: 0
      - serializedVersion: 2
        time: 1.0166664
        value: -0
        inSlope: 0
        outSlope: 0
        tangentMode: 0
      - serializedVersion: 2
        time: 1.0333331
        value: -0
        inSlope: 0
        outSlope: 0
        tangentMode: 0
      - serializedVersion: 2
        time: 1.0499997
        value: -0
        inSlope: 0
        outSlope: 0
        tangentMode: 0
      - serializedVersion: 2
        time: 1.0666664
        value: -0
        inSlope: 0
        outSlope: 0
        tangentMode: 0
      - serializedVersion: 2
        time: 1.083333
        value: -0
        inSlope: 0
        outSlope: 0
        tangentMode: 0
      - serializedVersion: 2
        time: 1.0999997
        value: -0
        inSlope: 0
        outSlope: 0
        tangentMode: 0
      - serializedVersion: 2
        time: 1.1166663
        value: -0
        inSlope: 0
        outSlope: 0
        tangentMode: 0
      - serializedVersion: 2
        time: 1.133333
        value: -0
        inSlope: 0
        outSlope: 0
        tangentMode: 0
      - serializedVersion: 2
        time: 1.1499996
        value: -0
        inSlope: 0
        outSlope: 0
        tangentMode: 0
      - serializedVersion: 2
        time: 1.1666663
        value: -0
        inSlope: 0
        outSlope: 0
        tangentMode: 0
      - serializedVersion: 2
        time: 1.1833329
        value: -0
        inSlope: 0
        outSlope: 0
        tangentMode: 0
      - serializedVersion: 2
        time: 1.1999996
        value: -0
        inSlope: 0
        outSlope: 0
        tangentMode: 0
      - serializedVersion: 2
        time: 1.2166662
        value: -0
        inSlope: 0
        outSlope: 0
        tangentMode: 0
      - serializedVersion: 2
        time: 1.2333329
        value: -0
        inSlope: 0
        outSlope: 0
        tangentMode: 0
      - serializedVersion: 2
        time: 1.2499995
        value: -0
        inSlope: 0
        outSlope: 0
        tangentMode: 0
      - serializedVersion: 2
        time: 1.2666662
        value: -0
        inSlope: 0
        outSlope: 0
        tangentMode: 0
      - serializedVersion: 2
        time: 1.2833328
        value: -0
        inSlope: 0
        outSlope: 0
        tangentMode: 0
      - serializedVersion: 2
        time: 1.2999995
        value: -0
        inSlope: 0
        outSlope: 0
        tangentMode: 0
      - serializedVersion: 2
        time: 1.3166661
        value: -0
        inSlope: 0
        outSlope: 0
        tangentMode: 0
      - serializedVersion: 2
        time: 1.3333328
        value: -0
        inSlope: 0
        outSlope: 0
        tangentMode: 0
      - serializedVersion: 2
        time: 1.3499994
        value: -0
        inSlope: 0
        outSlope: 0
        tangentMode: 0
      - serializedVersion: 2
        time: 1.3666661
        value: -0
        inSlope: 0
        outSlope: 0
        tangentMode: 0
      - serializedVersion: 2
        time: 1.3833327
        value: -0
        inSlope: 0
        outSlope: 0
        tangentMode: 0
      - serializedVersion: 2
        time: 1.3999994
        value: -0
        inSlope: 0
        outSlope: 0
        tangentMode: 0
      - serializedVersion: 2
        time: 1.4166666
        value: -0
        inSlope: 0
        outSlope: 0
        tangentMode: 0
      m_PreInfinity: 2
      m_PostInfinity: 2
      m_RotationOrder: 4
    attribute: m_LocalRotation.y
    path: Gameover Knife & Camera Stuff/Dead Knife Mover/Dead Knife Sprite
    classID: 4
    script: {fileID: 0}
  - curve:
      serializedVersion: 2
      m_Curve:
      - serializedVersion: 2
        time: 0
        value: -0
        inSlope: -7.4225574
        outSlope: -7.4225574
        tangentMode: 0
      - serializedVersion: 2
        time: 0.016666668
        value: -0.1237093
        inSlope: -7.2662153
        outSlope: -7.2662153
        tangentMode: 0
      - serializedVersion: 2
        time: 0.033333335
        value: -0.24220718
        inSlope: -6.917139
        outSlope: -6.917139
        tangentMode: 0
      - serializedVersion: 2
        time: 0.050000004
        value: -0.35428062
        inSlope: -6.5031643
        outSlope: -6.5031643
        tangentMode: 0
      - serializedVersion: 2
        time: 0.06666667
        value: -0.45897934
        inSlope: -6.038716
        outSlope: -6.038716
        tangentMode: 0
      - serializedVersion: 2
        time: 0.083333336
        value: -0.55557114
        inSlope: -5.535594
        outSlope: -5.535594
        tangentMode: 0
      - serializedVersion: 2
        time: 0.1
        value: -0.64349914
        inSlope: -5.003171
        outSlope: -5.003171
        tangentMode: 0
      - serializedVersion: 2
        time: 0.11666667
        value: -0.7223435
        inSlope: -4.4486113
        outSlope: -4.4486113
        tangentMode: 0
      - serializedVersion: 2
        time: 0.13333334
        value: -0.7917862
        inSlope: -3.8771343
        outSlope: -3.8771343
        tangentMode: 0
      - serializedVersion: 2
        time: 0.15
        value: -0.85158134
        inSlope: -3.2922866
        outSlope: -3.2922866
        tangentMode: 0
      - serializedVersion: 2
        time: 0.16666667
        value: -0.9015291
        inSlope: -2.696214
        outSlope: -2.696214
        tangentMode: 0
      - serializedVersion: 2
        time: 0.18333334
        value: -0.9414551
        inSlope: -2.089947
        outSlope: -2.089947
        tangentMode: 0
      - serializedVersion: 2
        time: 0.2
        value: -0.97119397
        inSlope: -1.473654
        outSlope: -1.473654
        tangentMode: 0
      - serializedVersion: 2
        time: 0.21666667
        value: -0.9905769
        inSlope: -0.8469219
        outSlope: -0.8469219
        tangentMode: 0
      - serializedVersion: 2
        time: 0.23333333
        value: -0.9994247
        inSlope: -0.20901206
        outSlope: -0.20901206
        tangentMode: 0
      - serializedVersion: 2
        time: 0.25
        value: -0.997544
        inSlope: 0.44086543
        outSlope: 0.44086543
        tangentMode: 0
      - serializedVersion: 2
        time: 0.26666668
        value: -0.9847292
        inSlope: 1.1032631
        outSlope: 1.1032631
        tangentMode: 0
      - serializedVersion: 2
        time: 0.28333336
        value: -0.9607685
        inSlope: 1.7782137
        outSlope: 1.7782137
        tangentMode: 0
      - serializedVersion: 2
        time: 0.30000004
        value: -0.92545533
        inSlope: 2.4648943
        outSlope: 2.4648943
        tangentMode: 0
      - serializedVersion: 2
        time: 0.31666672
        value: -0.8786053
        inSlope: 3.1612935
        outSlope: 3.1612935
        tangentMode: 0
      - serializedVersion: 2
        time: 0.3333334
        value: -0.8200788
        inSlope: 3.7857275
        outSlope: 3.7857275
        tangentMode: 0
      - serializedVersion: 2
        time: 0.35000008
        value: -0.7524143
        inSlope: 4.215501
        outSlope: 4.215501
        tangentMode: 0
      - serializedVersion: 2
        time: 0.36666676
        value: -0.679562
        inSlope: 4.4718556
        outSlope: 4.4718556
        tangentMode: 0
      - serializedVersion: 2
        time: 0.38333344
        value: -0.6033523
        inSlope: 4.6262183
        outSlope: 4.6262183
        tangentMode: 0
      - serializedVersion: 2
        time: 0.40000013
        value: -0.52535456
        inSlope: 4.69407
        outSlope: 4.69407
        tangentMode: 0
      - serializedVersion: 2
        time: 0.4166668
        value: -0.44688317
        inSlope: 4.6901255
        outSlope: 4.6901255
        tangentMode: 0
      - serializedVersion: 2
        time: 0.4333335
        value: -0.36901692
        inSlope: 4.627949
        outSlope: 4.627949
        tangentMode: 0
      - serializedVersion: 2
        time: 0.45000017
        value: -0.29261807
        inSlope: 4.519861
        outSlope: 4.519861
        tangentMode: 0
      - serializedVersion: 2
        time: 0.46666685
        value: -0.21835475
        inSlope: 4.3767486
        outSlope: 4.3767486
        tangentMode: 0
      - serializedVersion: 2
        time: 0.48333353
        value: -0.14672633
        inSlope: 4.208052
        outSlope: 4.208052
        tangentMode: 0
      - serializedVersion: 2
        time: 0.5000002
        value: -0.07808635
        inSlope: 4.021841
        outSlope: 4.021841
        tangentMode: 0
      - serializedVersion: 2
        time: 0.5166668
        value: -0.012665085
        inSlope: 3.8249183
        outSlope: 3.8249183
        tangentMode: 0
      - serializedVersion: 2
        time: 0.5333335
        value: 0.04941081
        inSlope: 3.6229162
        outSlope: 3.6229162
        tangentMode: 0
      - serializedVersion: 2
        time: 0.55000013
        value: 0.10809867
        inSlope: 3.4203713
        outSlope: 3.4203713
        tangentMode: 0
      - serializedVersion: 2
        time: 0.5666668
        value: 0.16342308
        inSlope: 3.2209218
        outSlope: 3.2209218
        tangentMode: 0
      - serializedVersion: 2
        time: 0.58333343
        value: 0.21546263
        inSlope: 3.0273948
        outSlope: 3.0273948
        tangentMode: 0
      - serializedVersion: 2
        time: 0.6000001
        value: 0.26433614
        inSlope: 2.8419309
        outSlope: 2.8419309
        tangentMode: 0
      - serializedVersion: 2
        time: 0.61666673
        value: 0.31019357
        inSlope: 2.6660943
        outSlope: 2.6660943
        tangentMode: 0
      - serializedVersion: 2
        time: 0.6333334
        value: 0.35320586
        inSlope: 2.5009594
        outSlope: 2.5009594
        tangentMode: 0
      - serializedVersion: 2
        time: 0.65000004
        value: 0.3935588
        inSlope: 2.3472142
        outSlope: 2.3472142
        tangentMode: 0
      - serializedVersion: 2
        time: 0.6666667
        value: 0.43144625
        inSlope: 2.2052357
        outSlope: 2.2052357
        tangentMode: 0
      - serializedVersion: 2
        time: 0.68333334
        value: 0.4670666
        inSlope: 2.0751305
        outSlope: 2.0751305
        tangentMode: 0
      - serializedVersion: 2
        time: 0.7
        value: 0.5006172
        inSlope: 1.956768
        outSlope: 1.956768
        tangentMode: 0
      - serializedVersion: 2
        time: 0.71666664
        value: 0.5322921
        inSlope: 1.8498874
        outSlope: 1.8498874
        tangentMode: 0
      - serializedVersion: 2
        time: 0.7333333
        value: 0.56228006
        inSlope: 1.754068
        outSlope: 1.754068
        tangentMode: 0
      - serializedVersion: 2
        time: 0.74999994
        value: 0.590761
        inSlope: 1.6687934
        outSlope: 1.6687934
        tangentMode: 0
      - serializedVersion: 2
        time: 0.7666666
        value: 0.61790645
        inSlope: 1.5934732
        outSlope: 1.5934732
        tangentMode: 0
      - serializedVersion: 2
        time: 0.78333324
        value: 0.64387673
        inSlope: 1.5273907
        outSlope: 1.5273907
        tangentMode: 0
      - serializedVersion: 2
        time: 0.7999999
        value: 0.6688194
        inSlope: 1.4697536
        outSlope: 1.4697536
        tangentMode: 0
      - serializedVersion: 2
        time: 0.81666654
        value: 0.6928685
        inSlope: 1.4197464
        outSlope: 1.4197464
        tangentMode: 0
      - serializedVersion: 2
        time: 0.8333332
        value: 0.71614426
        inSlope: 1.3659395
        outSlope: 1.3659395
        tangentMode: 0
      - serializedVersion: 2
        time: 0.84999985
        value: 0.73839974
        inSlope: 1.2958193
        outSlope: 1.2958193
        tangentMode: 0
      - serializedVersion: 2
        time: 0.8666665
        value: 0.7593382
        inSlope: 1.2178063
        outSlope: 1.2178063
        tangentMode: 0
      - serializedVersion: 2
        time: 0.88333315
        value: 0.77899325
        inSlope: 1.1419176
        outSlope: 1.1419176
        tangentMode: 0
      - serializedVersion: 2
        time: 0.8999998
        value: 0.7974021
        inSlope: 1.0683248
        outSlope: 1.0683248
        tangentMode: 0
      - serializedVersion: 2
        time: 0.91666645
        value: 0.81460404
        inSlope: 0.9971515
        outSlope: 0.9971515
        tangentMode: 0
      - serializedVersion: 2
        time: 0.9333331
        value: 0.83064044
        inSlope: 0.9285387
        outSlope: 0.9285387
        tangentMode: 0
      - serializedVersion: 2
        time: 0.94999975
        value: 0.8455553
        inSlope: 0.8625778
        outSlope: 0.8625778
        tangentMode: 0
      - serializedVersion: 2
        time: 0.9666664
        value: 0.859393
        inSlope: 0.7993294
        outSlope: 0.7993294
        tangentMode: 0
      - serializedVersion: 2
        time: 0.98333305
        value: 0.8721996
        inSlope: 0.7388778
        outSlope: 0.7388778
        tangentMode: 0
      - serializedVersion: 2
        time: 0.9999997
        value: 0.88402224
        inSlope: 0.68124837
        outSlope: 0.68124837
        tangentMode: 0
      - serializedVersion: 2
        time: 1.0166664
        value: 0.8949079
        inSlope: 0.626474
        outSlope: 0.626474
        tangentMode: 0
      - serializedVersion: 2
        time: 1.0333331
        value: 0.9049047
        inSlope: 0.57456017
        outSlope: 0.57456017
        tangentMode: 0
      - serializedVersion: 2
        time: 1.0499997
        value: 0.9140599
        inSlope: 0.5254792
        outSlope: 0.5254792
        tangentMode: 0
      - serializedVersion: 2
        time: 1.0666664
        value: 0.9224207
        inSlope: 0.4792254
        outSlope: 0.4792254
        tangentMode: 0
      - serializedVersion: 2
        time: 1.083333
        value: 0.93003404
        inSlope: 0.43575925
        outSlope: 0.43575925
        tangentMode: 0
      - serializedVersion: 2
        time: 1.0999997
        value: 0.936946
        inSlope: 0.39501643
        outSlope: 0.39501643
        tangentMode: 0
      - serializedVersion: 2
        time: 1.1166663
        value: 0.94320124
        inSlope: 0.35694695
        outSlope: 0.35694695
        tangentMode: 0
      - serializedVersion: 2
        time: 1.133333
        value: 0.9488442
        inSlope: 0.32147735
        outSlope: 0.32147735
        tangentMode: 0
      - serializedVersion: 2
        time: 1.1499996
        value: 0.95391715
        inSlope: 0.28851122
        outSlope: 0.28851122
        tangentMode: 0
      - serializedVersion: 2
        time: 1.1666663
        value: 0.9584612
        inSlope: 0.25795007
        outSlope: 0.25795007
        tangentMode: 0
      - serializedVersion: 2
        time: 1.1833329
        value: 0.9625155
        inSlope: 0.22970282
        outSlope: 0.22970282
        tangentMode: 0
      - serializedVersion: 2
        time: 1.1999996
        value: 0.966118
        inSlope: 0.20365317
        outSlope: 0.20365317
        tangentMode: 0
      - serializedVersion: 2
        time: 1.2166662
        value: 0.9693039
        inSlope: 0.17966884
        outSlope: 0.17966884
        tangentMode: 0
      - serializedVersion: 2
        time: 1.2333329
        value: 0.97210693
        inSlope: 0.15763178
        outSlope: 0.15763178
        tangentMode: 0
      - serializedVersion: 2
        time: 1.2499995
        value: 0.9745583
        inSlope: 0.13739717
        outSlope: 0.13739717
        tangentMode: 0
      - serializedVersion: 2
        time: 1.2666662
        value: 0.97668684
        inSlope: 0.11882555
        outSlope: 0.11882555
        tangentMode: 0
      - serializedVersion: 2
        time: 1.2833328
        value: 0.97851914
        inSlope: 0.10176311
        outSlope: 0.10176311
        tangentMode: 0
      - serializedVersion: 2
        time: 1.2999995
        value: 0.98007894
        inSlope: 0.08605965
        outSlope: 0.08605965
        tangentMode: 0
      - serializedVersion: 2
        time: 1.3166661
        value: 0.9813878
        inSlope: 0.07155604
        outSlope: 0.07155604
        tangentMode: 0
      - serializedVersion: 2
        time: 1.3333328
        value: 0.98246413
        inSlope: 0.058084182
        outSlope: 0.058084182
        tangentMode: 0
      - serializedVersion: 2
        time: 1.3499994
        value: 0.98332393
        inSlope: 0.045468852
        outSlope: 0.045468852
        tangentMode: 0
      - serializedVersion: 2
        time: 1.3666661
        value: 0.98397976
        inSlope: 0.033534795
        outSlope: 0.033534795
        tangentMode: 0
      - serializedVersion: 2
        time: 1.3833327
        value: 0.98444176
        inSlope: 0.022097846
        outSlope: 0.022097846
        tangentMode: 0
      - serializedVersion: 2
        time: 1.3999994
        value: 0.98471636
        inSlope: 0.010980876
        outSlope: 0.010980876
        tangentMode: 0
      - serializedVersion: 2
        time: 1.4166666
        value: 0.9848078
        inSlope: 0.0054858206
        outSlope: 0.0054858206
        tangentMode: 0
      m_PreInfinity: 2
      m_PostInfinity: 2
      m_RotationOrder: 4
    attribute: m_LocalRotation.z
    path: Gameover Knife & Camera Stuff/Dead Knife Mover/Dead Knife Sprite
    classID: 4
    script: {fileID: 0}
  - curve:
      serializedVersion: 2
      m_Curve:
      - serializedVersion: 2
        time: 0
        value: -1
        inSlope: 0.4608893
        outSlope: 0.4608893
        tangentMode: 0
      - serializedVersion: 2
        time: 0.016666668
        value: -0.9923185
        inSlope: 0.89326316
        outSlope: 0.89326316
        tangentMode: 0
      - serializedVersion: 2
        time: 0.033333335
        value: -0.97022456
        inSlope: 1.7153797
        outSlope: 1.7153797
        tangentMode: 0
      - serializedVersion: 2
        time: 0.050000004
        value: -0.9351392
        inSlope: 2.453329
        outSlope: 2.453329
        tangentMode: 0
      - serializedVersion: 2
        time: 0.06666667
        value: -0.8884469
        inSlope: 3.1101055
        outSlope: 3.1101055
        tangentMode: 0
      - serializedVersion: 2
        time: 0.083333336
        value: -0.831469
        inSlope: 3.690003
        outSlope: 3.690003
        tangentMode: 0
      - serializedVersion: 2
        time: 0.1
        value: -0.76544684
        inSlope: 4.1980367
        outSlope: 4.1980367
        tangentMode: 0
      - serializedVersion: 2
        time: 0.11666667
        value: -0.69153446
        inSlope: 4.639456
        outSlope: 4.639456
        tangentMode: 0
      - serializedVersion: 2
        time: 0.13333334
        value: -0.6107983
        inSlope: 5.0193567
        outSlope: 5.0193567
        tangentMode: 0
      - serializedVersion: 2
        time: 0.15
        value: -0.52422255
        inSlope: 5.342395
        outSlope: 5.342395
        tangentMode: 0
      - serializedVersion: 2
        time: 0.16666667
        value: -0.4327185
        inSlope: 5.612527
        outSlope: 5.612527
        tangentMode: 0
      - serializedVersion: 2
        time: 0.18333334
        value: -0.33713832
        inSlope: 5.832842
        outSlope: 5.832842
        tangentMode: 0
      - serializedVersion: 2
        time: 0.2
        value: -0.23829043
        inSlope: 6.005427
        outSlope: 6.005427
        tangentMode: 0
      - serializedVersion: 2
        time: 0.21666667
        value: -0.13695744
        inSlope: 6.131226
        outSlope: 6.131226
        tangentMode: 0
      - serializedVersion: 2
        time: 0.23333333
        value: -0.033916242
        inSlope: 6.2100086
        outSlope: 6.2100086
        tangentMode: 0
      - serializedVersion: 2
        time: 0.25
        value: 0.07004283
        inSlope: 6.240285
        outSlope: 6.240285
        tangentMode: 0
      - serializedVersion: 2
        time: 0.26666668
        value: 0.17409334
        inSlope: 6.2192564
        outSlope: 6.2192564
        tangentMode: 0
      - serializedVersion: 2
        time: 0.28333336
        value: 0.27735156
        inSlope: 6.142899
        outSlope: 6.142899
        tangentMode: 0
      - serializedVersion: 2
        time: 0.30000004
        value: 0.3788568
        inSlope: 6.005906
        outSlope: 6.005906
        tangentMode: 0
      - serializedVersion: 2
        time: 0.31666672
        value: 0.4775486
        inSlope: 5.8018093
        outSlope: 5.8018093
        tangentMode: 0
      - serializedVersion: 2
        time: 0.3333334
        value: 0.5722506
        inSlope: 5.4342422
        outSlope: 5.4342422
        tangentMode: 0
      - serializedVersion: 2
        time: 0.35000008
        value: 0.65869015
        inSlope: 4.841022
        outSlope: 4.841022
        tangentMode: 0
      - serializedVersion: 2
        time: 0.36666676
        value: 0.73361814
        inSlope: 4.163536
        outSlope: 4.163536
        tangentMode: 0
      - serializedVersion: 2
        time: 0.38333344
        value: 0.7974748
        inSlope: 3.5179558
        outSlope: 3.5179558
        tangentMode: 0
      - serializedVersion: 2
        time: 0.40000013
        value: 0.8508834
        inSlope: 2.913524
        outSlope: 2.913524
        tangentMode: 0
      - serializedVersion: 2
        time: 0.4166668
        value: 0.89459234
        inSlope: 2.3561757
        outSlope: 2.3561757
        tangentMode: 0
      - serializedVersion: 2
        time: 0.4333335
        value: 0.9294227
        inSlope: 1.8491099
        outSlope: 1.8491099
        tangentMode: 0
      - serializedVersion: 2
        time: 0.45000017
        value: 0.9562294
        inSlope: 1.3934028
        outSlope: 1.3934028
        tangentMode: 0
      - serializedVersion: 2
        time: 0.46666685
        value: 0.9758695
        inSlope: 0.98843074
        outSlope: 0.98843074
        tangentMode: 0
      - serializedVersion: 2
        time: 0.48333353
        value: 0.9891771
        inSlope: 0.6323128
        outSlope: 0.6323128
        tangentMode: 0
      - serializedVersion: 2
        time: 0.5000002
        value: 0.9969466
        inSlope: 0.32228023
        outSlope: 0.32228023
        tangentMode: 0
      - serializedVersion: 2
        time: 0.5166668
        value: 0.9999198
        inSlope: 0.05495851
        outSlope: 0.05495851
        tangentMode: 0
      - serializedVersion: 2
        time: 0.5333335
        value: 0.9987785
        inSlope: -0.17338888
        outSlope: -0.17338888
        tangentMode: 0
      - serializedVersion: 2
        time: 0.55000013
        value: 0.99414015
        inSlope: -0.36667442
        outSlope: -0.36667442
        tangentMode: 0
      - serializedVersion: 2
        time: 0.5666668
        value: 0.98655605
        inSlope: -0.52884275
        outSlope: -0.52884275
        tangentMode: 0
      - serializedVersion: 2
        time: 0.58333343
        value: 0.9765121
        inSlope: -0.66376334
        outSlope: -0.66376334
        tangentMode: 0
      - serializedVersion: 2
        time: 0.6000001
        value: 0.96443063
        inSlope: -0.7751609
        outSlope: -0.7751609
        tangentMode: 0
      - serializedVersion: 2
        time: 0.61666673
        value: 0.9506734
        inSlope: -0.86655104
        outSlope: -0.86655104
        tangentMode: 0
      - serializedVersion: 2
        time: 0.6333334
        value: 0.9355456
        inSlope: -0.9412203
        outSlope: -0.9412203
        tangentMode: 0
      - serializedVersion: 2
        time: 0.65000004
        value: 0.9192994
        inSlope: -1.0022101
        outSlope: -1.0022101
        tangentMode: 0
      - serializedVersion: 2
        time: 0.6666667
        value: 0.90213865
        inSlope: -1.0523193
        outSlope: -1.0523193
        tangentMode: 0
      - serializedVersion: 2
        time: 0.68333334
        value: 0.88422215
        inSlope: -1.0940974
        outSlope: -1.0940974
        tangentMode: 0
      - serializedVersion: 2
        time: 0.7
        value: 0.8656688
        inSlope: -1.1298441
        outSlope: -1.1298441
        tangentMode: 0
      - serializedVersion: 2
        time: 0.71666664
        value: 0.8465607
        inSlope: -1.1616569
        outSlope: -1.1616569
        tangentMode: 0
      - serializedVersion: 2
        time: 0.7333333
        value: 0.8269469
        inSlope: -1.1914258
        outSlope: -1.1914258
        tangentMode: 0
      - serializedVersion: 2
        time: 0.74999994
        value: 0.80684656
        inSlope: -1.2208605
        outSlope: -1.2208605
        tangentMode: 0
      - serializedVersion: 2
        time: 0.7666666
        value: 0.7862516
        inSlope: -1.2515199
        outSlope: -1.2515199
        tangentMode: 0
      - serializedVersion: 2
        time: 0.78333324
        value: 0.76512927
        inSlope: -1.2848026
        outSlope: -1.2848026
        tangentMode: 0
      - serializedVersion: 2
        time: 0.7999999
        value: 0.7434249
        inSlope: -1.3219602
        outSlope: -1.3219602
        tangentMode: 0
      - serializedVersion: 2
        time: 0.81666654
        value: 0.721064
        inSlope: -1.36418
        outSlope: -1.36418
        tangentMode: 0
      - serializedVersion: 2
        time: 0.8333332
        value: 0.6979523
        inSlope: -1.4010228
        outSlope: -1.4010228
        tangentMode: 0
      - serializedVersion: 2
        time: 0.84999985
        value: 0.67436326
        inSlope: -1.4176847
        outSlope: -1.4176847
        tangentMode: 0
      - serializedVersion: 2
        time: 0.8666665
        value: 0.65069616
        inSlope: -1.4199288
        outSlope: -1.4199288
        tangentMode: 0
      - serializedVersion: 2
        time: 0.88333315
        value: 0.62703234
        inSlope: -1.4174361
        outSlope: -1.4174361
        tangentMode: 0
      - serializedVersion: 2
        time: 0.8999998
        value: 0.60344833
        inSlope: -1.4104481
        outSlope: -1.4104481
        tangentMode: 0
      - serializedVersion: 2
        time: 0.91666645
        value: 0.58001745
        inSlope: -1.3991756
        outSlope: -1.3991756
        tangentMode: 0
      - serializedVersion: 2
        time: 0.9333331
        value: 0.5568092
        inSlope: -1.3838906
        outSlope: -1.3838906
        tangentMode: 0
      - serializedVersion: 2
        time: 0.94999975
        value: 0.5338878
        inSlope: -1.3648076
        outSlope: -1.3648076
        tangentMode: 0
      - serializedVersion: 2
        time: 0.9666664
        value: 0.51131564
        inSlope: -1.3421322
        outSlope: -1.3421322
        tangentMode: 0
      - serializedVersion: 2
        time: 0.98333305
        value: 0.4891501
        inSlope: -1.3161246
        outSlope: -1.3161246
        tangentMode: 0
      - serializedVersion: 2
        time: 0.9999997
        value: 0.46744487
        inSlope: -1.2869737
        outSlope: -1.2869737
        tangentMode: 0
      - serializedVersion: 2
        time: 1.0166664
        value: 0.44625095
        inSlope: -1.2549195
        outSlope: -1.2549195
        tangentMode: 0
      - serializedVersion: 2
        time: 1.0333331
        value: 0.42561418
        inSlope: -1.2201498
        outSlope: -1.2201498
        tangentMode: 0
      - serializedVersion: 2
        time: 1.0499997
        value: 0.40557933
        inSlope: -1.1828276
        outSlope: -1.1828276
        tangentMode: 0
      - serializedVersion: 2
        time: 1.0666664
        value: 0.38618663
        inSlope: -1.1431818
        outSlope: -1.1431818
        tangentMode: 0
      - serializedVersion: 2
        time: 1.083333
        value: 0.3674733
        inSlope: -1.1013733
        outSlope: -1.1013733
        tangentMode: 0
      - serializedVersion: 2
        time: 1.0999997
        value: 0.34947422
        inSlope: -1.0575423
        outSlope: -1.0575423
        tangentMode: 0
      - serializedVersion: 2
        time: 1.1166663
        value: 0.33222193
        inSlope: -1.0118876
        outSlope: -1.0118876
        tangentMode: 0
      - serializedVersion: 2
        time: 1.133333
        value: 0.31574467
        inSlope: -0.96455455
        outSlope: -0.96455455
        tangentMode: 0
      - serializedVersion: 2
        time: 1.1499996
        value: 0.30007014
        inSlope: -0.9156561
        outSlope: -0.9156561
        tangentMode: 0
      - serializedVersion: 2
        time: 1.1666663
        value: 0.28522283
        inSlope: -0.8653047
        outSlope: -0.8653047
        tangentMode: 0
      - serializedVersion: 2
        time: 1.1833329
        value: 0.27122667
        inSlope: -0.8136596
        outSlope: -0.8136596
        tangentMode: 0
      - serializedVersion: 2
        time: 1.1999996
        value: 0.25810087
        inSlope: -0.760833
        outSlope: -0.760833
        tangentMode: 0
      - serializedVersion: 2
        time: 1.2166662
        value: 0.2458656
        inSlope: -0.7068821
        outSlope: -0.7068821
        tangentMode: 0
      - serializedVersion: 2
        time: 1.2333329
        value: 0.23453815
        inSlope: -0.6519393
        outSlope: -0.6519393
        tangentMode: 0
      - serializedVersion: 2
        time: 1.2499995
        value: 0.22413431
        inSlope: -0.59607506
        outSlope: -0.59607506
        tangentMode: 0
      - serializedVersion: 2
        time: 1.2666662
        value: 0.214669
        inSlope: -0.5393503
        outSlope: -0.5393503
        tangentMode: 0
      - serializedVersion: 2
        time: 1.2833328
        value: 0.20615599
        inSlope: -0.48181906
        outSlope: -0.48181906
        tangentMode: 0
      - serializedVersion: 2
        time: 1.2999995
        value: 0.19860838
        inSlope: -0.423586
        outSlope: -0.423586
        tangentMode: 0
      - serializedVersion: 2
        time: 1.3166661
        value: 0.19203646
        inSlope: -0.36470568
        outSlope: -0.36470568
        tangentMode: 0
      - serializedVersion: 2
        time: 1.3333328
        value: 0.18645154
        inSlope: -0.30521378
        outSlope: -0.30521378
        tangentMode: 0
      - serializedVersion: 2
        time: 1.3499994
        value: 0.18186268
        inSlope: -0.24514252
        outSlope: -0.24514252
        tangentMode: 0
      - serializedVersion: 2
        time: 1.3666661
        value: 0.17828013
        inSlope: -0.18454644
        outSlope: -0.18454644
        tangentMode: 0
      - serializedVersion: 2
        time: 1.3833327
        value: 0.17571114
        inSlope: -0.12343627
        outSlope: -0.12343627
        tangentMode: 0
      - serializedVersion: 2
        time: 1.3999994
        value: 0.17416559
        inSlope: -0.06188969
        outSlope: -0.06188969
        tangentMode: 0
      - serializedVersion: 2
        time: 1.4166666
        value: 0.17364813
        inSlope: -0.031046383
        outSlope: -0.031046383
        tangentMode: 0
      m_PreInfinity: 2
      m_PostInfinity: 2
      m_RotationOrder: 4
    attribute: m_LocalRotation.w
    path: Gameover Knife & Camera Stuff/Dead Knife Mover/Dead Knife Sprite
    classID: 4
    script: {fileID: 0}
  - curve:
      serializedVersion: 2
      m_Curve:
      - serializedVersion: 2
        time: 0
        value: 1
        inSlope: Infinity
        outSlope: Infinity
        tangentMode: 103
      - serializedVersion: 2
        time: 1.4166666
        value: 0
        inSlope: Infinity
        outSlope: Infinity
        tangentMode: 103
      m_PreInfinity: 2
      m_PostInfinity: 2
      m_RotationOrder: 4
    attribute: m_IsActive
    path: Gameover Knife & Camera Stuff
    classID: 1
    script: {fileID: 0}
  m_EulerEditorCurves:
  - curve:
      serializedVersion: 2
      m_Curve:
      - serializedVersion: 2
        time: 0
        value: 0
        inSlope: 0
        outSlope: 0
        tangentMode: 136
      - serializedVersion: 2
        time: 0.43333334
        value: 0
        inSlope: 0
        outSlope: 0
        tangentMode: 136
      m_PreInfinity: 2
      m_PostInfinity: 2
      m_RotationOrder: 4
    attribute: localEulerAnglesBaked.x
    path: Gameover Knife & Camera Stuff/Dead Knife Mover/Dead Knife Sprite
    classID: 4
    script: {fileID: 0}
  - curve:
      serializedVersion: 2
      m_Curve:
      - serializedVersion: 2
        time: 0
        value: 0
        inSlope: 0
        outSlope: 0
        tangentMode: 136
      - serializedVersion: 2
        time: 0.43333334
        value: 0
        inSlope: 0
        outSlope: 0
        tangentMode: 136
      m_PreInfinity: 2
      m_PostInfinity: 2
      m_RotationOrder: 4
    attribute: localEulerAnglesBaked.y
    path: Gameover Knife & Camera Stuff/Dead Knife Mover/Dead Knife Sprite
    classID: 4
    script: {fileID: 0}
  - curve:
      serializedVersion: 2
      m_Curve:
      - serializedVersion: 2
        time: 0
        value: 0
        inSlope: 0
        outSlope: 865.1833
        tangentMode: 1
      - serializedVersion: 2
        time: 0.33333334
        value: 249.81459
        inSlope: 773.68835
        outSlope: 773.68835
        tangentMode: 0
      - serializedVersion: 2
        time: 0.8333333
        value: 451.4741
        inSlope: 225.83305
        outSlope: 225.83305
        tangentMode: 0
      - serializedVersion: 2
        time: 1.4166666
        value: 520
        inSlope: 0
        outSlope: 0
        tangentMode: 0
      m_PreInfinity: 2
      m_PostInfinity: 2
      m_RotationOrder: 4
    attribute: localEulerAnglesBaked.z
    path: Gameover Knife & Camera Stuff/Dead Knife Mover/Dead Knife Sprite
    classID: 4
    script: {fileID: 0}
  m_HasGenericRootTransform: 0
  m_HasMotionFloatCurves: 0
  m_GenerateMotionCurves: 0
  m_Events: []
